"ORIGINATOR          ""Barbieri Gateway WIN 4.3.68, Speclib.dll Version: 4.28"""																																											
"DESCRIPTOR          ""Output Characterisation"""																																											
"CREATED             ""October 19, 2016  14:06"""																																											
																																											
"INSTRUMENTATION     ""Spectro LFP  ver:5.20 RT S2 S3,SN=B6070603,MN=67782042,67002009"""																																											
																																											
"BARBIERI_INFO_0     ""Mode=Transmission,Aperture=6,IntegrationTime=194"""																																											
"BARBIERI_INFO_1     ""<Type>eSpotJob</Type>, <deltaE>delta E</deltaE>, <deltaETolerance>3.00</deltaETolerance>, <JobName>Medium Transmission 8mm</JobName>, Spectro_xy_version=1, Spectro_xy_version=1,File_Format=BARBIERI,"""																																											
"BARBIERI_INFO_2     ""Patches_X=1,Patches_Y=6,Number_of_Patches=6,Number_of_Pages=1,Target_Size_X=20,Target_Size_Y=20,MT,Illuminant=D50,Observer=2,Density=Status A,Save_Spectral=1,Save_Lab=1,Save_XYZ=1,Save_Density=1,"""																																											
"BARBIERI_INFO_3     ""Save_CxF=1,Fast_Measuring_Mode=1,Use_AutoPositioning=1,Run_Profiler=0,Reference_File_Name=,Quality_Control=0,Control_Reference_File=,Control_Settings_File=,Profile_File_Name=,Target_Image_Preview=,"""																																											
"BARBIERI_INFO_4     ""Spot_Measurement_Mode=0,Spot_Measurement=1,Display_Values=51,Number_of_Measurements_per_Patch_y=1,Distance_of_Measurements_per_Patch_y=10,Number_of_Measurements_per_Patch_x=1,"""																																											
"BARBIERI_INFO_5     ""Distance_of_Measurements_per_Patch_x=10,Average_Method=1,Target_Header_Size=20,AutoPositioning_Mode=0,Demo_Mode=0,CF_Option=1,Calibration_Frequency=0,Measuring_Aperture=0,Slope_Factor=1.000,"""																																											
"BARBIERI_INFO_6     ""Job_protection=-1,Measurement_Condition=M0,Translucency_Mode=0,Translucency_IntTime=1000,Save_Debug=0,"""																																											
																																											
"MEASUREMENT_SOURCE  ""Illumination=D50"	ObserverAngle=2degree	WhiteBase=Abs	"Filter=No"""																																								
"ILLUMINANT          ""D50"""																																											
"OBSERVER            ""2"""																																											
																																											
"PRINT_CONDITIONS    ""No printer defined, No resolution defined, No ink defined, No paper defined, No screening defined"""																																											
																																											
NUMBER_OF_FIELDS    43																																											
KEYWORD             SAMPLE_NAME																																											
KEYWORD             DATE_MEASURED																																											
BEGIN_DATA_FORMAT																																											
SAMPLE_ID	SAMPLE_NAME	SPECTRAL_380	SPECTRAL_390	SPECTRAL_400	SPECTRAL_410	SPECTRAL_420	SPECTRAL_430	SPECTRAL_440	SPECTRAL_450	SPECTRAL_460	SPECTRAL_470	SPECTRAL_480	SPECTRAL_490	SPECTRAL_500	SPECTRAL_510	SPECTRAL_520	SPECTRAL_530	SPECTRAL_540	SPECTRAL_550	SPECTRAL_560	SPECTRAL_570	SPECTRAL_580	SPECTRAL_590	SPECTRAL_600	SPECTRAL_610	SPECTRAL_620	SPECTRAL_630	SPECTRAL_640	SPECTRAL_650	SPECTRAL_660	SPECTRAL_670	SPECTRAL_680	SPECTRAL_690	SPECTRAL_700	SPECTRAL_710	SPECTRAL_720	SPECTRAL_730	SPECTRAL_740	SPECTRAL_750	SPECTRAL_760	SPECTRAL_770	SPECTRAL_780	DATE_MEASURED
END_DATA_FORMAT																																											
																																											
NUMBER_OF_SETS      34																																											
LGOROWLENGTH        1																																											
																																											
BEGIN_DATA																																											
1	TransR	0.025600	0.032000	0.107700	0.230100	0.326800	0.357300	0.377800	0.394000	0.403800	0.417600	0.429500	0.439800	0.451200	0.459000	0.465300	0.470700	0.473600	0.477700	0.482000	0.486900	0.494100	0.499700	0.506200	0.513800	0.519200	0.527900	0.536400	0.544400	0.554100	0.560200	0.565500	0.570300	0.573100	0.577100	0.581200	0.584600	0.589600	0.592700	0.595400	0.598000	0.598000	2016-11-10T12:25:24
2	TransR	0.026160	0.032700	0.107900	0.231700	0.328300	0.359400	0.379000	0.395700	0.405600	0.419200	0.430900	0.440900	0.452100	0.459700	0.466100	0.471100	0.474000	0.478200	0.482500	0.487500	0.494600	0.500000	0.506600	0.514300	0.519800	0.528300	0.536900	0.545200	0.554900	0.560600	0.565800	0.571100	0.574100	0.577800	0.582000	0.585800	0.590400	0.593800	0.596700	0.598300	0.599000	2016-11-10T12:25:31
3	TransR	0.025600	0.032000	0.105600	0.227800	0.323800	0.355600	0.375800	0.392400	0.402300	0.416700	0.428600	0.439000	0.450800	0.458500	0.464700	0.470000	0.472900	0.477200	0.481800	0.486700	0.494000	0.499600	0.506300	0.513800	0.519200	0.527900	0.536500	0.544800	0.554300	0.560200	0.565700	0.571000	0.573700	0.577600	0.581500	0.585400	0.590000	0.593100	0.595800	0.598100	0.598000	2016-11-10T12:25:38
4	TransV	0.027840	0.034800	0.114500	0.247800	0.354400	0.387900	0.409700	0.427300	0.437600	0.452400	0.464800	0.475700	0.488500	0.497000	0.504100	0.510200	0.513400	0.517900	0.522500	0.527400	0.534300	0.539300	0.545000	0.551400	0.555800	0.563000	0.569900	0.576800	0.584600	0.589500	0.594100	0.598500	0.600700	0.603600	0.607100	0.610100	0.614300	0.616500	0.617400	0.618200	0.616800	2016-11-10T12:25:45
5	TransV	0.026400	0.033000	0.114900	0.249900	0.355600	0.388600	0.409500	0.427100	0.437700	0.452400	0.465000	0.476100	0.488500	0.496900	0.504100	0.510000	0.513300	0.518000	0.522600	0.527400	0.534100	0.539000	0.544900	0.551100	0.555800	0.563000	0.570000	0.576800	0.584500	0.589900	0.594200	0.598600	0.600800	0.603800	0.606900	0.610500	0.614400	0.616400	0.617300	0.617200	0.615800	2016-11-10T12:25:50
6	TransV	0.026400	0.033000	0.114400	0.249800	0.356400	0.389700	0.411100	0.428200	0.438900	0.454200	0.467100	0.477900	0.490600	0.499200	0.506300	0.512300	0.515700	0.520300	0.525200	0.530100	0.536900	0.541900	0.547800	0.553900	0.558400	0.565900	0.572900	0.579600	0.587600	0.592700	0.597300	0.601600	0.603600	0.606600	0.610100	0.613300	0.617300	0.619500	0.620400	0.620500	0.619300	2016-11-10T12:25:56
7	ReflR	0.146728	0.183410	0.355767	0.524461	0.607507	0.642744	0.659552	0.668785	0.671860	0.675696	0.678888	0.680707	0.679509	0.678729	0.677443	0.676405	0.675199	0.672030	0.670032	0.666096	0.665930	0.664924	0.662119	0.662966	0.663201	0.662383	0.666432	0.667415	0.663521	0.663865	0.663417	0.662284	0.663734	0.664231	0.659646	0.654687	0.654565	0.653185	0.653268	0.651958	0.660250	2016-11-10T12:15:28
8	ReflR	0.146532	0.183164	0.353201	0.519840	0.603131	0.638858	0.655574	0.664775	0.668649	0.673283	0.676463	0.678271	0.677056	0.676258	0.674953	0.673897	0.673520	0.670344	0.668340	0.665251	0.665080	0.663225	0.661273	0.662119	0.663201	0.662383	0.666432	0.666569	0.663521	0.663865	0.662575	0.662284	0.663734	0.665080	0.659646	0.654687	0.655410	0.654030	0.654116	0.652806	0.661109	2016-11-10T12:15:48
9	ReflR	0.145649	0.182061	0.352238	0.518107	0.599485	0.635750	0.653188	0.662369	0.665438	0.669261	0.673231	0.675021	0.673785	0.672963	0.671632	0.670552	0.669321	0.666971	0.664956	0.661025	0.661683	0.659828	0.657886	0.657886	0.658966	0.658164	0.663044	0.663186	0.660161	0.660499	0.660050	0.658913	0.661195	0.660833	0.656263	0.651321	0.652031	0.650650	0.650726	0.648567	0.656811	2016-11-10T12:15:54
10	ReflV	0.119658	0.149572	0.298023	0.455726	0.541870	0.582900	0.603860	0.616661	0.622093	0.629041	0.635245	0.638468	0.637806	0.637544	0.637594	0.637108	0.635729	0.633243	0.631962	0.629749	0.631954	0.631805	0.632485	0.635872	0.639485	0.642132	0.649496	0.653035	0.653442	0.656292	0.656682	0.657228	0.659501	0.660833	0.657109	0.653846	0.655410	0.654030	0.654116	0.651958	0.661109	2016-11-10T12:16:00
11	ReflV	0.117990	0.147488	0.298665	0.455726	0.541870	0.582123	0.603065	0.615859	0.621290	0.628236	0.634437	0.637656	0.637806	0.637544	0.636763	0.636272	0.634889	0.632400	0.631116	0.628903	0.631104	0.630956	0.631638	0.635025	0.638638	0.641288	0.648649	0.653035	0.652602	0.655451	0.656682	0.656385	0.659501	0.660833	0.657109	0.653004	0.654565	0.654030	0.653268	0.651958	0.659390	2016-11-10T12:16:05
12	ReflV	0.118775	0.148469	0.298344	0.456304	0.543328	0.583677	0.604656	0.617463	0.622895	0.629845	0.635245	0.638468	0.638624	0.638367	0.638424	0.637108	0.636568	0.634086	0.631962	0.629749	0.631954	0.631805	0.632485	0.635872	0.639485	0.642132	0.649496	0.653881	0.653442	0.656292	0.656682	0.657228	0.659501	0.660833	0.657109	0.653846	0.655410	0.654875	0.654116	0.651958	0.660250	2016-11-10T12:16:11
13	ReflR_Bw	0.139960	0.174950	0.346143	0.529082	0.641784	0.693262	0.721609	0.739352	0.746511	0.757745	0.766982	0.772497	0.773544	0.772631	0.772086	0.770884	0.770097	0.766469	0.763938	0.760770	0.764460	0.765978	0.768804	0.775577	0.781781	0.788953	0.801920	0.811218	0.814703	0.819524	0.823378	0.826591	0.832208	0.836659	0.833860	0.831402	0.836154	0.838240	0.842216	0.844409	0.858840	2016-11-10T12:16:28
14	ReflR_Bw	0.139568	0.174460	0.347747	0.533125	0.646160	0.698703	0.726383	0.744163	0.751327	0.761767	0.771023	0.776559	0.777633	0.776749	0.775407	0.774229	0.773456	0.769842	0.767322	0.764151	0.767858	0.769375	0.772190	0.778964	0.784322	0.791484	0.805307	0.814602	0.817223	0.822048	0.825904	0.829118	0.834748	0.839207	0.837243	0.834768	0.839532	0.840775	0.844758	0.847800	0.861419	2016-11-10T12:16:34
15	ReflR_Bw	0.141824	0.177280	0.350314	0.534858	0.647618	0.700257	0.727974	0.744965	0.752933	0.764180	0.772639	0.778183	0.779268	0.778396	0.777067	0.775901	0.775135	0.771528	0.769014	0.765842	0.769556	0.771074	0.773037	0.779811	0.786016	0.793172	0.807000	0.815448	0.818902	0.823731	0.827588	0.830804	0.835594	0.840057	0.838089	0.835610	0.840377	0.842465	0.845605	0.847800	0.861419	2016-11-10T12:16:42
16	ReflR_Bb	0.146728	0.183410	0.344218	0.490382	0.550621	0.575905	0.585562	0.588595	0.588379	0.587212	0.585945	0.583231	0.576479	0.572471	0.568687	0.564368	0.561826	0.557355	0.553284	0.546909	0.542767	0.538393	0.533421	0.529188	0.527681	0.523156	0.522476	0.519383	0.511499	0.509047	0.505982	0.503875	0.505420	0.505393	0.503192	0.501534	0.505915	0.508690	0.513464	0.518006	0.528716	2016-11-10T12:16:56
17	ReflR_Bb	0.145256	0.181571	0.343577	0.490382	0.550621	0.575905	0.586357	0.588595	0.588379	0.587212	0.586753	0.584044	0.578114	0.574119	0.570347	0.566876	0.564346	0.559042	0.554976	0.549445	0.545315	0.540940	0.535114	0.531728	0.530222	0.524844	0.525016	0.521920	0.514019	0.511571	0.508508	0.506403	0.507113	0.507941	0.505729	0.503217	0.507605	0.511225	0.515158	0.519701	0.528716	2016-11-10T12:17:01
18	ReflR_Bb	0.146041	0.182551	0.345502	0.492693	0.553539	0.579014	0.588744	0.591802	0.591590	0.589625	0.588370	0.585668	0.578932	0.574943	0.571178	0.567712	0.565185	0.560728	0.555822	0.550290	0.546164	0.540940	0.535961	0.532574	0.531069	0.525687	0.525016	0.521920	0.514019	0.511571	0.508508	0.506403	0.507113	0.507941	0.504883	0.504058	0.508449	0.511225	0.515158	0.518854	0.528716	2016-11-10T12:17:07
19	ReflV_Bw	0.115342	0.144178	0.297061	0.474210	0.595838	0.654402	0.687398	0.709681	0.720022	0.733613	0.745160	0.752190	0.754737	0.755333	0.754652	0.754162	0.753301	0.749605	0.747864	0.745555	0.750870	0.754939	0.759490	0.768804	0.776699	0.787265	0.803613	0.815448	0.820582	0.827096	0.831797	0.835859	0.841520	0.846852	0.844854	0.843183	0.848823	0.850070	0.853231	0.856278	0.870016	2016-11-10T12:17:26
20	ReflV_Bw	0.114950	0.143687	0.294494	0.470744	0.592192	0.650516	0.683420	0.705672	0.716008	0.730395	0.741928	0.749753	0.752284	0.752862	0.752991	0.751654	0.750781	0.747918	0.745326	0.743019	0.748321	0.752391	0.756950	0.766263	0.774158	0.784734	0.801073	0.812910	0.818902	0.825413	0.830955	0.835017	0.840674	0.846002	0.844854	0.842341	0.848823	0.850070	0.853231	0.855430	0.868297	2016-11-10T12:17:33
21	ReflV_Bw	0.117206	0.146507	0.298344	0.474787	0.595838	0.653625	0.686603	0.708078	0.718417	0.732004	0.743544	0.750565	0.753102	0.753686	0.752991	0.752490	0.751621	0.747918	0.746172	0.743864	0.749171	0.752391	0.757796	0.766263	0.775005	0.784734	0.801920	0.813756	0.818902	0.825413	0.830113	0.834174	0.839827	0.845153	0.844009	0.842341	0.847978	0.849225	0.851536	0.853735	0.868297	2016-11-10T12:17:39
22	ReflV_Bb	0.122306	0.152882	0.293532	0.428002	0.488631	0.516838	0.529074	0.534867	0.536204	0.538144	0.538261	0.536930	0.531505	0.527168	0.523856	0.520054	0.517317	0.512666	0.508446	0.503799	0.501995	0.499330	0.497013	0.496166	0.497189	0.496998	0.499612	0.499927	0.496381	0.496426	0.495037	0.494606	0.496108	0.497748	0.497272	0.496485	0.503382	0.507000	0.511769	0.516310	0.526996	2016-11-10T12:17:51
23	ReflV_Bb	0.123483	0.154353	0.296098	0.430312	0.492277	0.519170	0.531461	0.537273	0.538612	0.539752	0.539878	0.537743	0.532323	0.527992	0.524686	0.520890	0.517317	0.512666	0.508446	0.503799	0.501995	0.499330	0.496166	0.496166	0.497189	0.496154	0.499612	0.499927	0.495541	0.495585	0.495037	0.493764	0.496108	0.497748	0.496426	0.495644	0.502537	0.506155	0.510922	0.514615	0.525277	2016-11-10T12:17:57
24	ReflV_Bb	0.121913	0.152392	0.294494	0.429157	0.490819	0.519170	0.532256	0.538075	0.540217	0.541361	0.541494	0.540180	0.534776	0.530463	0.527177	0.523399	0.520676	0.515195	0.511830	0.507180	0.504544	0.502726	0.499553	0.499553	0.499730	0.499530	0.502152	0.502465	0.498901	0.498950	0.498405	0.497134	0.499494	0.501146	0.499809	0.499851	0.505915	0.510380	0.515158	0.519701	0.530435	2016-11-10T12:18:06
25	ReflBackWhite	0.262560	0.328200	0.545681	0.763587	0.880265	0.926422	0.939604	0.939025	0.936751	0.935517	0.934279	0.930896	0.922366	0.915954	0.911560	0.908005	0.906984	0.903067	0.898452	0.893482	0.898665	0.901001	0.902582	0.908509	0.913066	0.917211	0.928093	0.933874	0.932289	0.933954	0.937035	0.939499	0.944806	0.949629	0.947184	0.945005	0.950175	0.952315	0.957449	0.960557	0.975760	2016-11-15T17:14:09
26	ReflBackWhite	0.259422	0.324277	0.541190	0.760122	0.878077	0.924868	0.938808	0.938223	0.935948	0.934713	0.933471	0.930084	0.921548	0.915954	0.910729	0.907168	0.906144	0.902224	0.897606	0.892637	0.897816	0.901001	0.901735	0.907662	0.912219	0.917211	0.928093	0.933874	0.932289	0.935637	0.937877	0.940342	0.945652	0.950479	0.948875	0.945846	0.951020	0.953160	0.958296	0.961405	0.976619	2016-11-15T17:14:26
27	ReflBackWhite	0.259716	0.324645	0.542473	0.761277	0.877348	0.924091	0.938012	0.938223	0.936751	0.934713	0.933471	0.930084	0.921548	0.915954	0.910729	0.907168	0.906144	0.902224	0.898452	0.893482	0.897816	0.901001	0.902582	0.907662	0.912219	0.916367	0.927246	0.933028	0.931449	0.933954	0.937035	0.938656	0.944806	0.949629	0.947184	0.944163	0.950175	0.952315	0.957449	0.960557	0.975760	2016-11-15T17:14:33
28	ReflBackWhite	0.264031	0.330039	0.546002	0.762432	0.878077	0.924868	0.937217	0.937421	0.935145	0.933104	0.931855	0.928459	0.919913	0.914307	0.909069	0.906332	0.904465	0.900538	0.896760	0.891791	0.896117	0.899303	0.900889	0.905969	0.910525	0.915523	0.926399	0.932182	0.930609	0.933113	0.935351	0.937814	0.943112	0.947930	0.946338	0.942480	0.948486	0.950625	0.955754	0.958862	0.974040	2016-11-15T17:14:38
29	ReflBackWhite	0.259716	0.324645	0.541510	0.759544	0.876619	0.923314	0.936421	0.936619	0.935145	0.933104	0.931855	0.928459	0.919913	0.914307	0.909069	0.906332	0.904465	0.900538	0.896760	0.891791	0.896966	0.899303	0.900889	0.905969	0.910525	0.915523	0.927246	0.932182	0.930609	0.933113	0.936193	0.937814	0.943112	0.948780	0.946338	0.944163	0.949330	0.951470	0.956602	0.959710	0.975760	2016-11-15T17:14:44
30	ReflBackBlack	0.056690	0.070863	0.058706	0.054294	0.050322	0.050518	0.050918	0.050520	0.050570	0.051482	0.051725	0.051175	0.050697	0.050246	0.049812	0.049330	0.049548	0.049749	0.050760	0.051563	0.052663	0.051801	0.051649	0.050802	0.051667	0.051472	0.053348	0.054983	0.056273	0.058057	0.062301	0.068251	0.074501	0.085789	0.099793	0.116969	0.144427	0.165620	0.188101	0.210254	0.227821	2016-11-15T17:22:59
31	ReflBackBlack	0.056004	0.070005	0.057744	0.053717	0.049592	0.049741	0.050123	0.049718	0.049767	0.050677	0.050917	0.050363	0.049880	0.049422	0.048982	0.048494	0.048708	0.048906	0.049914	0.050718	0.051813	0.051801	0.050802	0.050802	0.050820	0.051472	0.052502	0.054138	0.055433	0.058057	0.061459	0.068251	0.073654	0.085789	0.099793	0.116127	0.144427	0.165620	0.188101	0.209407	0.227821	2016-11-15T17:23:05
32	ReflBackBlack	0.057181	0.071476	0.058386	0.053717	0.049592	0.050518	0.050918	0.050520	0.050570	0.050677	0.050917	0.051175	0.049880	0.049422	0.048982	0.049330	0.049548	0.049749	0.050760	0.051563	0.051813	0.051801	0.050802	0.050802	0.050820	0.051472	0.053348	0.054138	0.056273	0.058057	0.062301	0.068251	0.074501	0.086639	0.100638	0.117810	0.145271	0.166465	0.188948	0.211102	0.229540	2016-11-15T17:23:17
33	ReflBackBlack	0.057181	0.071476	0.058386	0.054294	0.050322	0.051295	0.050918	0.051322	0.051373	0.052286	0.051725	0.051987	0.051515	0.051069	0.050642	0.051002	0.051228	0.051435	0.052452	0.053254	0.053512	0.053500	0.053342	0.053342	0.053361	0.054003	0.055042	0.056675	0.058793	0.060581	0.064826	0.070778	0.077887	0.090036	0.104021	0.121176	0.148650	0.169845	0.191490	0.211950	0.230400	2016-11-15T17:23:24
34	ReflBackBlack	0.055023	0.068779	0.057102	0.053717	0.049592	0.050518	0.050918	0.050520	0.050570	0.051482	0.051725	0.051175	0.050697	0.050246	0.050642	0.050166	0.050388	0.050592	0.051606	0.052409	0.053512	0.053500	0.052495	0.052495	0.052514	0.053159	0.055042	0.056675	0.057953	0.060581	0.064826	0.071621	0.077887	0.090036	0.104867	0.122018	0.150339	0.171535	0.194032	0.215341	0.234698	2016-11-15T17:23:31
END_DATA																																											
