%!PS-Adobe-3.0 EPSF-3.0
%%Creator: MATLAB, The MathWorks, Inc. Version 8.0.0.783 (R2012b). Operating System: Darwin 14.5.0 Darwin Kernel Version 14.5.0: Mon Aug 29 21:14:16 PDT 2016; root:xnu-2782.50.6~1/RELEASE_X86_64 x86_64.
%%Title: /Users/pgh/Documents/MATLAB/rectoverso/data/ID01/graphics/PaperParPSM=0;ISM=0.01;PWS=Chart;AMM=1;ESC=0;WBW=0.25.eps
%%CreationDate: 10/02/2016  19:04:46
%%DocumentNeededFonts: Helvetica
%%DocumentProcessColors: Cyan Magenta Yellow Black
%%LanguageLevel: 2
%%Pages: 1
%%BoundingBox:    17   211   576   631
%%EndComments

%%BeginProlog
% MathWorks dictionary
/MathWorks 160 dict begin
% definition operators
/bdef {bind def} bind def
/ldef {load def} bind def
/xdef {exch def} bdef
/xstore {exch store} bdef
% operator abbreviations
/c  /clip ldef
/cc /concat ldef
/cp /closepath ldef
/gr /grestore ldef
/gs /gsave ldef
/mt /moveto ldef
/np /newpath ldef
/cm /currentmatrix ldef
/sm /setmatrix ldef
/rm /rmoveto ldef
/rl /rlineto ldef
/s {show newpath} bdef
/sc {setcmykcolor} bdef
/sr /setrgbcolor ldef
/sg /setgray ldef
/w /setlinewidth ldef
/j /setlinejoin ldef
/cap /setlinecap ldef
/rc {rectclip} bdef
/rf {rectfill} bdef
% page state control
/pgsv () def
/bpage {/pgsv save def} bdef
/epage {pgsv restore} bdef
/bplot /gsave ldef
/eplot {stroke grestore} bdef
% orientation switch
/portraitMode 0 def /landscapeMode 1 def /rotateMode 2 def
% coordinate system mappings
/dpi2point 0 def
% font control
/FontSize 0 def
/FMS {/FontSize xstore findfont [FontSize 0 0 FontSize neg 0 0]
  makefont setfont} bdef
/reencode {exch dup where {pop load} {pop StandardEncoding} ifelse
  exch dup 3 1 roll findfont dup length dict begin
  { 1 index /FID ne {def}{pop pop} ifelse } forall
  /Encoding exch def currentdict end definefont pop} bdef
/isroman {findfont /CharStrings get /Agrave known} bdef
/FMSR {3 1 roll 1 index dup isroman {reencode} {pop pop} ifelse
  exch FMS} bdef
/csm {1 dpi2point div -1 dpi2point div scale neg translate
 dup landscapeMode eq {pop -90 rotate}
  {rotateMode eq {90 rotate} if} ifelse} bdef
% line types: solid, dotted, dashed, dotdash
/SO { [] 0 setdash } bdef
/DO { [.5 dpi2point mul 4 dpi2point mul] 0 setdash } bdef
/DA { [6 dpi2point mul] 0 setdash } bdef
/DD { [.5 dpi2point mul 4 dpi2point mul 6 dpi2point mul 4
  dpi2point mul] 0 setdash } bdef
% macros for lines and objects
/L {lineto stroke} bdef
/MP {3 1 roll moveto 1 sub {rlineto} repeat} bdef
/AP {{rlineto} repeat} bdef
/PDlw -1 def
/W {/PDlw currentlinewidth def setlinewidth} def
/PP {closepath eofill} bdef
/DP {closepath stroke} bdef
/MR {4 -2 roll moveto dup  0 exch rlineto exch 0 rlineto
  neg 0 exch rlineto closepath} bdef
/FR {MR stroke} bdef
/PR {MR fill} bdef
/L1i {{currentfile picstr readhexstring pop} image} bdef
/tMatrix matrix def
/MakeOval {newpath tMatrix currentmatrix pop translate scale
0 0 1 0 360 arc tMatrix setmatrix} bdef
/FO {MakeOval stroke} bdef
/PO {MakeOval fill} bdef
/PD {currentlinewidth 2 div 0 360 arc fill
   PDlw -1 eq not {PDlw w /PDlw -1 def} if} def
/FA {newpath tMatrix currentmatrix pop translate scale
  0 0 1 5 -2 roll arc tMatrix setmatrix stroke} bdef
/PA {newpath tMatrix currentmatrix pop	translate 0 0 moveto scale
  0 0 1 5 -2 roll arc closepath tMatrix setmatrix fill} bdef
/FAn {newpath tMatrix currentmatrix pop translate scale
  0 0 1 5 -2 roll arcn tMatrix setmatrix stroke} bdef
/PAn {newpath tMatrix currentmatrix pop translate 0 0 moveto scale
  0 0 1 5 -2 roll arcn closepath tMatrix setmatrix fill} bdef
/vradius 0 def /hradius 0 def /lry 0 def
/lrx 0 def /uly 0 def /ulx 0 def /rad 0 def
/MRR {/vradius xdef /hradius xdef /lry xdef /lrx xdef /uly xdef
  /ulx xdef newpath tMatrix currentmatrix pop ulx hradius add uly
  vradius add translate hradius vradius scale 0 0 1 180 270 arc 
  tMatrix setmatrix lrx hradius sub uly vradius add translate
  hradius vradius scale 0 0 1 270 360 arc tMatrix setmatrix
  lrx hradius sub lry vradius sub translate hradius vradius scale
  0 0 1 0 90 arc tMatrix setmatrix ulx hradius add lry vradius sub
  translate hradius vradius scale 0 0 1 90 180 arc tMatrix setmatrix
  closepath} bdef
/FRR {MRR stroke } bdef
/PRR {MRR fill } bdef
/MlrRR {/lry xdef /lrx xdef /uly xdef /ulx xdef /rad lry uly sub 2 div def
  newpath tMatrix currentmatrix pop ulx rad add uly rad add translate
  rad rad scale 0 0 1 90 270 arc tMatrix setmatrix lrx rad sub lry rad
  sub translate rad rad scale 0 0 1 270 90 arc tMatrix setmatrix
  closepath} bdef
/FlrRR {MlrRR stroke } bdef
/PlrRR {MlrRR fill } bdef
/MtbRR {/lry xdef /lrx xdef /uly xdef /ulx xdef /rad lrx ulx sub 2 div def
  newpath tMatrix currentmatrix pop ulx rad add uly rad add translate
  rad rad scale 0 0 1 180 360 arc tMatrix setmatrix lrx rad sub lry rad
  sub translate rad rad scale 0 0 1 0 180 arc tMatrix setmatrix
  closepath} bdef
/FtbRR {MtbRR stroke } bdef
/PtbRR {MtbRR fill } bdef
/stri 6 array def /dtri 6 array def
/smat 6 array def /dmat 6 array def
/tmat1 6 array def /tmat2 6 array def /dif 3 array def
/asub {/ind2 exch def /ind1 exch def dup dup
  ind1 get exch ind2 get sub exch } bdef
/tri_to_matrix {
  2 0 asub 3 1 asub 4 0 asub 5 1 asub
  dup 0 get exch 1 get 7 -1 roll astore } bdef
/compute_transform {
  dmat dtri tri_to_matrix tmat1 invertmatrix 
  smat stri tri_to_matrix tmat2 concatmatrix } bdef
/ds {stri astore pop} bdef
/dt {dtri astore pop} bdef
/db {2 copy /cols xdef /rows xdef mul dup 3 mul string
  currentfile 
  3 index 0 eq {/ASCIIHexDecode filter}
  {/ASCII85Decode filter 3 index 2 eq {/RunLengthDecode filter} if }
  ifelse exch readstring pop
  dup 0 3 index getinterval /rbmap xdef
  dup 2 index dup getinterval /gbmap xdef
  1 index dup 2 mul exch getinterval /bbmap xdef pop pop}bdef
/it {gs np dtri aload pop moveto lineto lineto cp c
  cols rows 8 compute_transform 
  rbmap gbmap bbmap true 3 colorimage gr}bdef
/il {newpath moveto lineto stroke}bdef
currentdict end def
%%EndProlog

%%BeginSetup
MathWorks begin

0 cap

end
%%EndSetup

%%Page: 1 1
%%BeginPageSetup
%%PageBoundingBox:    17   211   576   631
MathWorks begin
bpage
%%EndPageSetup

%%BeginObject: obj1
bplot

/dpi2point 12 def
portraitMode 0204 7572 csm

    0     0  6712  5034 rc
92 dict begin %Colortable dictionary
/c0 { 0.000000 0.000000 0.000000 sr} bdef
/c1 { 1.000000 1.000000 1.000000 sr} bdef
/c2 { 0.900000 0.000000 0.000000 sr} bdef
/c3 { 0.000000 0.820000 0.000000 sr} bdef
/c4 { 0.000000 0.000000 0.800000 sr} bdef
/c5 { 0.910000 0.820000 0.320000 sr} bdef
/c6 { 1.000000 0.260000 0.820000 sr} bdef
/c7 { 0.000000 0.820000 0.820000 sr} bdef
c0
1 j
1 sg
   0    0 6713 5035 rf
6 w
0 4102 5201 0 0 -4102 873 4480 4 MP
PP
-5201 0 0 4102 5201 0 0 -4102 873 4480 5 MP stroke
4 w
DO
0 sg
1133 4480 mt 1133  378 L
1133  378 mt 1133  378 L
1783 4480 mt 1783  378 L
1783  378 mt 1783  378 L
2433 4480 mt 2433  378 L
2433  378 mt 2433  378 L
3083 4480 mt 3083  378 L
3083  378 mt 3083  378 L
3733 4480 mt 3733  378 L
3733  378 mt 3733  378 L
4383 4480 mt 4383  378 L
4383  378 mt 4383  378 L
5033 4480 mt 5033  378 L
5033  378 mt 5033  378 L
5683 4480 mt 5683  378 L
5683  378 mt 5683  378 L
 873 4480 mt 6074 4480 L
6074 4480 mt 6074 4480 L
 873 4069 mt 6074 4069 L
6074 4069 mt 6074 4069 L
 873 3659 mt 6074 3659 L
6074 3659 mt 6074 3659 L
 873 3249 mt 6074 3249 L
6074 3249 mt 6074 3249 L
 873 2839 mt 6074 2839 L
6074 2839 mt 6074 2839 L
 873 2429 mt 6074 2429 L
6074 2429 mt 6074 2429 L
 873 2018 mt 6074 2018 L
6074 2018 mt 6074 2018 L
 873 1608 mt 6074 1608 L
6074 1608 mt 6074 1608 L
 873 1198 mt 6074 1198 L
6074 1198 mt 6074 1198 L
 873  788 mt 6074  788 L
6074  788 mt 6074  788 L
 873  378 mt 6074  378 L
6074  378 mt 6074  378 L
SO
6 w
 873 4480 mt 6074 4480 L
 873 4480 mt  873  378 L
1133 4480 mt 1133 4427 L
%%IncludeResource: font Helvetica
/Helvetica /ISOLatin1Encoding 120 FMSR

1033 4625 mt 
(400) s
1783 4480 mt 1783 4427 L
1683 4625 mt 
(450) s
2433 4480 mt 2433 4427 L
2333 4625 mt 
(500) s
3083 4480 mt 3083 4427 L
2983 4625 mt 
(550) s
3733 4480 mt 3733 4427 L
3633 4625 mt 
(600) s
4383 4480 mt 4383 4427 L
4283 4625 mt 
(650) s
5033 4480 mt 5033 4427 L
4933 4625 mt 
(700) s
5683 4480 mt 5683 4427 L
5583 4625 mt 
(750) s
 873 4480 mt  925 4480 L
 772 4524 mt 
(0) s
 873 4069 mt  925 4069 L
 672 4113 mt 
(0.1) s
 873 3659 mt  925 3659 L
 672 3703 mt 
(0.2) s
 873 3249 mt  925 3249 L
 672 3293 mt 
(0.3) s
 873 2839 mt  925 2839 L
 672 2883 mt 
(0.4) s
 873 2429 mt  925 2429 L
 672 2473 mt 
(0.5) s
 873 2018 mt  925 2018 L
 672 2062 mt 
(0.6) s
 873 1608 mt  925 1608 L
 672 1652 mt 
(0.7) s
 873 1198 mt  925 1198 L
 672 1242 mt 
(0.8) s
 873  788 mt  925  788 L
 672  832 mt 
(0.9) s
 873  378 mt  925  378 L
 772  422 mt 
(1) s
2159  283 mt 
(Paper Parameters for ID01/ SCATTER MODEL=0) s
gs 873 378 5202 4103 rc
24 w
/c8 { 0.000000 0.700000 0.000000 sr} bdef
c8
131 -17 130 14 130 10 130 13 130 9 130 21 130 20 130 7 
130 -2 130 13 130 8 130 5 130 18 130 0 130 -8 130 5 
130 2 130 1 130 11 130 8 130 4 130 16 130 12 130 15 
130 9 130 9 130 9 130 11 130 10 130 2 130 -7 130 -10 
130 -5 130 -31 130 -56 130 -114 130 -302 130 -697 130 -754 130 -185 
873 3621 41 MP stroke
/c9 { 0.000000 0.500000 0.700000 sr} bdef
c9
131 -17 130 13 130 8 130 13 130 12 130 23 130 23 130 9 
130 0 130 15 130 12 130 9 130 25 130 7 130 0 130 15 
130 6 130 10 130 17 130 13 130 10 130 20 130 15 130 17 
130 9 130 13 130 13 130 16 130 19 130 11 130 6 130 8 
130 11 130 -5 130 -22 130 -65 130 -223 130 -661 130 -833 130 -228 
873 3353 41 MP stroke
/c10 { 0.600000 0.000000 0.600000 sr} bdef
c10
131 20 130 -5 130 -6 130 -14 130 -10 130 -23 130 -27 130 -14 
130 -15 130 -33 130 -24 130 -27 130 -34 130 -21 130 -27 130 -40 
130 -48 130 -36 130 -36 130 -28 130 -14 130 -30 130 -29 130 -29 
130 -37 130 -39 130 -42 130 -44 130 -34 130 -50 130 -59 130 -76 
130 -122 130 -110 130 -148 130 -238 130 -280 130 -497 130 -314 130 -95 
873 4261 41 MP stroke
0.5 sg
131 -13 130 -14 130 -10 130 -7 130 -14 130 -4 130 -2 130 -6 
130 1 130 -1 130 -2 130 -1 130 -11 130 -3 130 -1 130 0 
130 10 130 1 130 2 130 -1 130 -10 130 -2 130 -1 130 0 
130 6 130 5 130 4 130 -1 130 -8 130 1 130 7 130 24 
130 51 130 68 130 113 130 181 130 433 130 1102 130 -1758 130 2282 
873 1086 41 MP stroke
/c11 { 0.400000 0.400000 0.700000 sr} bdef
c11
131 -21 130 -12 130 -11 130 -7 130 -13 130 0 130 -1 130 -9 
130 -1 130 -2 130 -6 130 -5 130 -5 130 -1 130 -3 130 2 
130 0 130 7 130 9 130 5 130 -11 130 0 130 6 130 7 
130 33 130 14 130 15 130 5 130 -13 130 2 130 16 130 20 
130 0 130 38 130 19 130 -105 130 -1065 130 -334 130 0 130 0 
873 4479 41 MP stroke
0.3 sg
131 7 130 -2 130 0 130 -1 130 1 130 -1 130 -3 130 3 
130 3 130 -3 130 2 130 1 130 0 130 5 130 5 130 2 
130 -1 130 3 130 2 130 3 130 7 130 1 130 1 130 2 
130 0 130 1 130 2 130 1 130 7 130 5 130 8 130 8 
130 1 130 13 130 10 130 -8 130 -13 130 -38 130 -35 130 -14 
873 4463 41 MP stroke
gr

24 w
0.3 sg
0 sg
 832 4547 mt 
( ) s
6034  444 mt 
( ) s
6 w
1 sg
0 1085 792 0 0 -1085 5201 2919 4 MP
PP
-792 0 0 1085 792 0 0 -1085 5201 2919 5 MP stroke
4 w
DO
SO
6 w
0 sg
5201 2919 mt 5993 2919 L
5201 1834 mt 5993 1834 L
5201 2919 mt 5201 1834 L
5993 2919 mt 5993 1834 L
5201 2919 mt 5993 2919 L
5201 2919 mt 5201 1834 L
5201 2919 mt 5993 2919 L
5201 1834 mt 5993 1834 L
5201 2919 mt 5201 1834 L
5993 2919 mt 5993 1834 L
5670 1984 mt 
(rho1) s
gs 5201 1834 793 1086 rc
24 w
c8
360 0 5273 1941 2 MP stroke
gr

24 w
c8
0 sg
5670 2158 mt 
(rho2) s
gs 5201 1834 793 1086 rc
c9
360 0 5273 2115 2 MP stroke
gr

c9
0 sg
5670 2332 mt 
(tau) s
gs 5201 1834 793 1086 rc
c10
360 0 5273 2289 2 MP stroke
gr

c10
0 sg
5670 2506 mt 
(r2t) s
gs 5201 1834 793 1086 rc
0.5 sg
360 0 5273 2463 2 MP stroke
gr

0.5 sg
0 sg
5670 2680 mt 
(rBw) s
gs 5201 1834 793 1086 rc
c11
360 0 5273 2637 2 MP stroke
gr

c11
0 sg
5670 2854 mt 
(rBb) s
gs 5201 1834 793 1086 rc
0.3 sg
360 0 5273 2811 2 MP stroke
6 w
gr

6 w
0.3 sg

end %%Color Dict

eplot
%%EndObject

epage
end

showpage

%%Trailer
%%EOF
