%!PS-Adobe-3.0 EPSF-3.0
%%Creator: MATLAB, The MathWorks, Inc. Version 8.0.0.783 (R2012b). Operating System: Darwin 14.5.0 Darwin Kernel Version 14.5.0: Mon Aug 29 21:14:16 PDT 2016; root:xnu-2782.50.6~1/RELEASE_X86_64 x86_64.
%%Title: /Users/pgh/Documents/MATLAB/rectoverso/data/ID01/graphics/ResSpecPSM=12;ISM=0.01;PWS=Chart;AMM=1;ESC=1;WBW=0.25.eps
%%CreationDate: 10/04/2016  09:56:31
%%DocumentNeededFonts: Helvetica
%%DocumentProcessColors: Cyan Magenta Yellow Black
%%LanguageLevel: 2
%%Pages: 1
%%BoundingBox:    17   211   575   631
%%EndComments

%%BeginProlog
% MathWorks dictionary
/MathWorks 160 dict begin
% definition operators
/bdef {bind def} bind def
/ldef {load def} bind def
/xdef {exch def} bdef
/xstore {exch store} bdef
% operator abbreviations
/c  /clip ldef
/cc /concat ldef
/cp /closepath ldef
/gr /grestore ldef
/gs /gsave ldef
/mt /moveto ldef
/np /newpath ldef
/cm /currentmatrix ldef
/sm /setmatrix ldef
/rm /rmoveto ldef
/rl /rlineto ldef
/s {show newpath} bdef
/sc {setcmykcolor} bdef
/sr /setrgbcolor ldef
/sg /setgray ldef
/w /setlinewidth ldef
/j /setlinejoin ldef
/cap /setlinecap ldef
/rc {rectclip} bdef
/rf {rectfill} bdef
% page state control
/pgsv () def
/bpage {/pgsv save def} bdef
/epage {pgsv restore} bdef
/bplot /gsave ldef
/eplot {stroke grestore} bdef
% orientation switch
/portraitMode 0 def /landscapeMode 1 def /rotateMode 2 def
% coordinate system mappings
/dpi2point 0 def
% font control
/FontSize 0 def
/FMS {/FontSize xstore findfont [FontSize 0 0 FontSize neg 0 0]
  makefont setfont} bdef
/reencode {exch dup where {pop load} {pop StandardEncoding} ifelse
  exch dup 3 1 roll findfont dup length dict begin
  { 1 index /FID ne {def}{pop pop} ifelse } forall
  /Encoding exch def currentdict end definefont pop} bdef
/isroman {findfont /CharStrings get /Agrave known} bdef
/FMSR {3 1 roll 1 index dup isroman {reencode} {pop pop} ifelse
  exch FMS} bdef
/csm {1 dpi2point div -1 dpi2point div scale neg translate
 dup landscapeMode eq {pop -90 rotate}
  {rotateMode eq {90 rotate} if} ifelse} bdef
% line types: solid, dotted, dashed, dotdash
/SO { [] 0 setdash } bdef
/DO { [.5 dpi2point mul 4 dpi2point mul] 0 setdash } bdef
/DA { [6 dpi2point mul] 0 setdash } bdef
/DD { [.5 dpi2point mul 4 dpi2point mul 6 dpi2point mul 4
  dpi2point mul] 0 setdash } bdef
% macros for lines and objects
/L {lineto stroke} bdef
/MP {3 1 roll moveto 1 sub {rlineto} repeat} bdef
/AP {{rlineto} repeat} bdef
/PDlw -1 def
/W {/PDlw currentlinewidth def setlinewidth} def
/PP {closepath eofill} bdef
/DP {closepath stroke} bdef
/MR {4 -2 roll moveto dup  0 exch rlineto exch 0 rlineto
  neg 0 exch rlineto closepath} bdef
/FR {MR stroke} bdef
/PR {MR fill} bdef
/L1i {{currentfile picstr readhexstring pop} image} bdef
/tMatrix matrix def
/MakeOval {newpath tMatrix currentmatrix pop translate scale
0 0 1 0 360 arc tMatrix setmatrix} bdef
/FO {MakeOval stroke} bdef
/PO {MakeOval fill} bdef
/PD {currentlinewidth 2 div 0 360 arc fill
   PDlw -1 eq not {PDlw w /PDlw -1 def} if} def
/FA {newpath tMatrix currentmatrix pop translate scale
  0 0 1 5 -2 roll arc tMatrix setmatrix stroke} bdef
/PA {newpath tMatrix currentmatrix pop	translate 0 0 moveto scale
  0 0 1 5 -2 roll arc closepath tMatrix setmatrix fill} bdef
/FAn {newpath tMatrix currentmatrix pop translate scale
  0 0 1 5 -2 roll arcn tMatrix setmatrix stroke} bdef
/PAn {newpath tMatrix currentmatrix pop translate 0 0 moveto scale
  0 0 1 5 -2 roll arcn closepath tMatrix setmatrix fill} bdef
/vradius 0 def /hradius 0 def /lry 0 def
/lrx 0 def /uly 0 def /ulx 0 def /rad 0 def
/MRR {/vradius xdef /hradius xdef /lry xdef /lrx xdef /uly xdef
  /ulx xdef newpath tMatrix currentmatrix pop ulx hradius add uly
  vradius add translate hradius vradius scale 0 0 1 180 270 arc 
  tMatrix setmatrix lrx hradius sub uly vradius add translate
  hradius vradius scale 0 0 1 270 360 arc tMatrix setmatrix
  lrx hradius sub lry vradius sub translate hradius vradius scale
  0 0 1 0 90 arc tMatrix setmatrix ulx hradius add lry vradius sub
  translate hradius vradius scale 0 0 1 90 180 arc tMatrix setmatrix
  closepath} bdef
/FRR {MRR stroke } bdef
/PRR {MRR fill } bdef
/MlrRR {/lry xdef /lrx xdef /uly xdef /ulx xdef /rad lry uly sub 2 div def
  newpath tMatrix currentmatrix pop ulx rad add uly rad add translate
  rad rad scale 0 0 1 90 270 arc tMatrix setmatrix lrx rad sub lry rad
  sub translate rad rad scale 0 0 1 270 90 arc tMatrix setmatrix
  closepath} bdef
/FlrRR {MlrRR stroke } bdef
/PlrRR {MlrRR fill } bdef
/MtbRR {/lry xdef /lrx xdef /uly xdef /ulx xdef /rad lrx ulx sub 2 div def
  newpath tMatrix currentmatrix pop ulx rad add uly rad add translate
  rad rad scale 0 0 1 180 360 arc tMatrix setmatrix lrx rad sub lry rad
  sub translate rad rad scale 0 0 1 0 180 arc tMatrix setmatrix
  closepath} bdef
/FtbRR {MtbRR stroke } bdef
/PtbRR {MtbRR fill } bdef
/stri 6 array def /dtri 6 array def
/smat 6 array def /dmat 6 array def
/tmat1 6 array def /tmat2 6 array def /dif 3 array def
/asub {/ind2 exch def /ind1 exch def dup dup
  ind1 get exch ind2 get sub exch } bdef
/tri_to_matrix {
  2 0 asub 3 1 asub 4 0 asub 5 1 asub
  dup 0 get exch 1 get 7 -1 roll astore } bdef
/compute_transform {
  dmat dtri tri_to_matrix tmat1 invertmatrix 
  smat stri tri_to_matrix tmat2 concatmatrix } bdef
/ds {stri astore pop} bdef
/dt {dtri astore pop} bdef
/db {2 copy /cols xdef /rows xdef mul dup 3 mul string
  currentfile 
  3 index 0 eq {/ASCIIHexDecode filter}
  {/ASCII85Decode filter 3 index 2 eq {/RunLengthDecode filter} if }
  ifelse exch readstring pop
  dup 0 3 index getinterval /rbmap xdef
  dup 2 index dup getinterval /gbmap xdef
  1 index dup 2 mul exch getinterval /bbmap xdef pop pop}bdef
/it {gs np dtri aload pop moveto lineto lineto cp c
  cols rows 8 compute_transform 
  rbmap gbmap bbmap true 3 colorimage gr}bdef
/il {newpath moveto lineto stroke}bdef
currentdict end def
%%EndProlog

%%BeginSetup
MathWorks begin

0 cap

end
%%EndSetup

%%Page: 1 1
%%BeginPageSetup
%%PageBoundingBox:    17   211   575   631
MathWorks begin
bpage
%%EndPageSetup

%%BeginObject: obj1
bplot

/dpi2point 12 def
portraitMode 0204 7572 csm

    0     0  6700  5034 rc
87 dict begin %Colortable dictionary
/c0 { 0.000000 0.000000 0.000000 sr} bdef
/c1 { 1.000000 1.000000 1.000000 sr} bdef
/c2 { 0.900000 0.000000 0.000000 sr} bdef
/c3 { 0.000000 0.820000 0.000000 sr} bdef
/c4 { 0.000000 0.000000 0.800000 sr} bdef
/c5 { 0.910000 0.820000 0.320000 sr} bdef
/c6 { 1.000000 0.260000 0.820000 sr} bdef
/c7 { 0.000000 0.820000 0.820000 sr} bdef
c0
1 j
1 sg
   0    0 6701 5035 rf
6 w
0 4102 5193 0 0 -4102 871 4480 4 MP
PP
-5193 0 0 4102 5193 0 0 -4102 871 4480 5 MP stroke
4 w
DO
0 sg
1130 4480 mt 1130  378 L
1130  378 mt 1130  378 L
1779 4480 mt 1779  378 L
1779  378 mt 1779  378 L
2428 4480 mt 2428  378 L
2428  378 mt 2428  378 L
3078 4480 mt 3078  378 L
3078  378 mt 3078  378 L
3727 4480 mt 3727  378 L
3727  378 mt 3727  378 L
4376 4480 mt 4376  378 L
4376  378 mt 4376  378 L
5025 4480 mt 5025  378 L
5025  378 mt 5025  378 L
5674 4480 mt 5674  378 L
5674  378 mt 5674  378 L
 871 4480 mt 6064 4480 L
6064 4480 mt 6064 4480 L
 871 3736 mt 6064 3736 L
6064 3736 mt 6064 3736 L
 871 2993 mt 6064 2993 L
6064 2993 mt 6064 2993 L
 871 2249 mt 6064 2249 L
6064 2249 mt 6064 2249 L
 871 1506 mt 6064 1506 L
6064 1506 mt 6064 1506 L
 871  762 mt 6064  762 L
6064  762 mt 6064  762 L
SO
6 w
 871 4480 mt 6064 4480 L
 871 4480 mt  871  378 L
1130 4480 mt 1130 4428 L
%%IncludeResource: font Helvetica
/Helvetica /ISOLatin1Encoding 120 FMSR

1030 4625 mt 
(400) s
1779 4480 mt 1779 4428 L
1679 4625 mt 
(450) s
2428 4480 mt 2428 4428 L
2328 4625 mt 
(500) s
3078 4480 mt 3078 4428 L
2978 4625 mt 
(550) s
3727 4480 mt 3727 4428 L
3627 4625 mt 
(600) s
4376 4480 mt 4376 4428 L
4276 4625 mt 
(650) s
5025 4480 mt 5025 4428 L
4925 4625 mt 
(700) s
5674 4480 mt 5674 4428 L
5574 4625 mt 
(750) s
 871 4480 mt  922 4480 L
 770 4524 mt 
(0) s
 871 3736 mt  922 3736 L
 670 3780 mt 
(0.1) s
 871 2993 mt  922 2993 L
 670 3037 mt 
(0.2) s
 871 2249 mt  922 2249 L
 670 2293 mt 
(0.3) s
 871 1506 mt  922 1506 L
 670 1550 mt 
(0.4) s
 871  762 mt  922  762 L
 670  806 mt 
(0.5) s
2284  283 mt 
(Result spectra-ID01/ SCATTER MODEL=12) s
gs 871 378 5194 4103 rc
24 w
/c8 { 0.210526 0.737113 0.518041 sr} bdef
c8
130 -767 130 -1335 130 -926 130 -628 130 -263 129 -74 130 -66 130 26 
130 19 130 49 130 36 129 -62 130 -32 130 -53 130 -13 130 0 
130 -1 129 9 130 27 130 83 130 65 130 189 129 282 130 331 
130 352 130 227 130 233 130 121 129 -18 130 -126 130 -181 130 -208 
130 -266 130 -181 129 -177 130 -172 130 -139 130 -269 130 -148 129 -14 
871 4448 41 MP stroke
gr

24 w
c8
 835 4448 mt  907 4448 L
 871 4412 mt  871 4484 L
 964 4434 mt 1036 4434 L
1000 4398 mt 1000 4470 L
1094 4286 mt 1166 4286 L
1130 4250 mt 1130 4322 L
1224 4017 mt 1296 4017 L
1260 3981 mt 1260 4053 L
1354 3878 mt 1426 3878 L
1390 3842 mt 1390 3914 L
1484 3706 mt 1556 3706 L
1520 3670 mt 1520 3742 L
1613 3529 mt 1685 3529 L
1649 3493 mt 1649 3565 L
1743 3348 mt 1815 3348 L
1779 3312 mt 1779 3384 L
1873 3082 mt 1945 3082 L
1909 3046 mt 1909 3118 L
2003 2874 mt 2075 2874 L
2039 2838 mt 2039 2910 L
2133 2693 mt 2205 2693 L
2169 2657 mt 2169 2729 L
2263 2567 mt 2335 2567 L
2299 2531 mt 2299 2603 L
2392 2549 mt 2464 2549 L
2428 2513 mt 2428 2585 L
2522 2670 mt 2594 2670 L
2558 2634 mt 2558 2706 L
2652 2903 mt 2724 2903 L
2688 2867 mt 2688 2939 L
2782 3130 mt 2854 3130 L
2818 3094 mt 2818 3166 L
2912 3482 mt 2984 3482 L
2948 3446 mt 2948 3518 L
3042 3813 mt 3114 3813 L
3078 3777 mt 3078 3849 L
3171 4095 mt 3243 4095 L
3207 4059 mt 3207 4131 L
3301 4284 mt 3373 4284 L
3337 4248 mt 3337 4320 L
3431 4349 mt 3503 4349 L
3467 4313 mt 3467 4385 L
3561 4432 mt 3633 4432 L
3597 4396 mt 3597 4468 L
3691 4459 mt 3763 4459 L
3727 4423 mt 3727 4495 L
3820 4468 mt 3892 4468 L
3856 4432 mt 3856 4504 L
3950 4467 mt 4022 4467 L
3986 4431 mt 3986 4503 L
4080 4467 mt 4152 4467 L
4116 4431 mt 4116 4503 L
4210 4454 mt 4282 4454 L
4246 4418 mt 4246 4490 L
4340 4401 mt 4412 4401 L
4376 4365 mt 4376 4437 L
4470 4369 mt 4542 4369 L
4506 4333 mt 4506 4405 L
4599 4307 mt 4671 4307 L
4635 4271 mt 4635 4343 L
4729 4343 mt 4801 4343 L
4765 4307 mt 4765 4379 L
4859 4392 mt 4931 4392 L
4895 4356 mt 4895 4428 L
4989 4411 mt 5061 4411 L
5025 4375 mt 5025 4447 L
5119 4437 mt 5191 4437 L
5155 4401 mt 5155 4473 L
5249 4371 mt 5321 4371 L
5285 4335 mt 5285 4407 L
5378 4297 mt 5450 4297 L
5414 4261 mt 5414 4333 L
5508 4034 mt 5580 4034 L
5544 3998 mt 5544 4070 L
5638 3406 mt 5710 3406 L
5674 3370 mt 5674 3442 L
5768 2480 mt 5840 2480 L
5804 2444 mt 5804 2516 L
5898 1145 mt 5970 1145 L
5934 1109 mt 5934 1181 L
6028  378 mt 6100  378 L
6064  342 mt 6064  414 L
gs 871 378 5194 4103 rc
12 w
130 -770 130 -1349 130 -915 130 -559 130 -249 129 -67 130 -33 130 16 
130 36 130 38 130 7 129 -26 130 -44 130 -22 130 -19 130 -8 
130 1 129 19 130 32 130 49 130 61 130 168 129 281 130 337 
130 356 130 228 130 239 130 130 129 -17 130 -134 130 -201 130 -232 
130 -297 130 -203 129 -194 130 -177 130 -144 130 -240 130 -90 129 -9 
871 4444 41 MP stroke
gr

12 w
 835 4444 mt  907 4444 L
 871 4408 mt  871 4480 L
 964 4435 mt 1036 4435 L
1000 4399 mt 1000 4471 L
1094 4345 mt 1166 4345 L
1130 4309 mt 1130 4381 L
1224 4105 mt 1296 4105 L
1260 4069 mt 1260 4141 L
1354 3961 mt 1426 3961 L
1390 3925 mt 1390 3997 L
1484 3784 mt 1556 3784 L
1520 3748 mt 1520 3820 L
1613 3590 mt 1685 3590 L
1649 3554 mt 1649 3626 L
1743 3387 mt 1815 3387 L
1779 3351 mt 1779 3423 L
1873 3090 mt 1945 3090 L
1909 3054 mt 1909 3126 L
2003 2858 mt 2075 2858 L
2039 2822 mt 2039 2894 L
2133 2657 mt 2205 2657 L
2169 2621 mt 2169 2693 L
2263 2523 mt 2335 2523 L
2299 2487 mt 2299 2559 L
2392 2506 mt 2464 2506 L
2428 2470 mt 2428 2542 L
2522 2636 mt 2594 2636 L
2558 2600 mt 2558 2672 L
2652 2875 mt 2724 2875 L
2688 2839 mt 2688 2911 L
2782 3103 mt 2854 3103 L
2818 3067 mt 2818 3139 L
2912 3459 mt 2984 3459 L
2948 3423 mt 2948 3495 L
3042 3796 mt 3114 3796 L
3078 3760 mt 3078 3832 L
3171 4077 mt 3243 4077 L
3207 4041 mt 3207 4113 L
3301 4245 mt 3373 4245 L
3337 4209 mt 3337 4281 L
3431 4306 mt 3503 4306 L
3467 4270 mt 3467 4342 L
3561 4355 mt 3633 4355 L
3597 4319 mt 3597 4391 L
3691 4387 mt 3763 4387 L
3727 4351 mt 3727 4423 L
3820 4406 mt 3892 4406 L
3856 4370 mt 3856 4442 L
3950 4407 mt 4022 4407 L
3986 4371 mt 3986 4443 L
4080 4399 mt 4152 4399 L
4116 4363 mt 4116 4435 L
4210 4380 mt 4282 4380 L
4246 4344 mt 4246 4416 L
4340 4358 mt 4412 4358 L
4376 4322 mt 4376 4394 L
4470 4314 mt 4542 4314 L
4506 4278 mt 4506 4350 L
4599 4288 mt 4671 4288 L
4635 4252 mt 4635 4324 L
4729 4295 mt 4801 4295 L
4765 4259 mt 4765 4331 L
4859 4333 mt 4931 4333 L
4895 4297 mt 4895 4369 L
4989 4369 mt 5061 4369 L
5025 4333 mt 5025 4405 L
5119 4385 mt 5191 4385 L
5155 4349 mt 5155 4421 L
5249 4352 mt 5321 4352 L
5285 4316 mt 5285 4388 L
5378 4285 mt 5450 4285 L
5414 4249 mt 5414 4321 L
5508 4036 mt 5580 4036 L
5544 4000 mt 5544 4072 L
5638 3477 mt 5710 3477 L
5674 3441 mt 5674 3513 L
5768 2562 mt 5840 2562 L
5804 2526 mt 5804 2598 L
5898 1213 mt 5970 1213 L
5934 1177 mt 5934 1249 L
6028  443 mt 6100  443 L
6064  407 mt 6064  479 L
gs 871 378 5194 4103 rc
24 w
/c9 { 0.094737 0.175258 0.175258 sr} bdef
c9
130 -40 130 -59 130 14 130 -32 130 16 129 -63 130 -8 130 3 
130 -5 130 -5 130 0 129 -4 130 -7 130 -2 130 -1 130 -1 
130 1 129 0 130 3 130 9 130 46 130 10 129 39 130 -8 
130 -6 130 -12 130 29 130 -12 129 -3 130 -2 130 20 130 -42 
130 -19 130 -11 129 24 130 -30 130 11 130 -33 130 -11 129 -1 
871 4477 41 MP stroke
gr

24 w
c9
  36   36  871 4477 FO
  36   36 1000 4476 FO
  36   36 1130 4465 FO
  36   36 1260 4432 FO
  36   36 1390 4443 FO
  36   36 1520 4413 FO
  36   36 1649 4437 FO
  36   36 1779 4426 FO
  36   36 1909 4407 FO
  36   36 2039 4365 FO
  36   36 2169 4385 FO
  36   36 2299 4383 FO
  36   36 2428 4380 FO
  36   36 2558 4368 FO
  36   36 2688 4397 FO
  36   36 2818 4385 FO
  36   36 2948 4379 FO
  36   36 3078 4371 FO
  36   36 3207 4410 FO
  36   36 3337 4420 FO
  36   36 3467 4466 FO
  36   36 3597 4475 FO
  36   36 3727 4478 FO
  36   36 3856 4478 FO
  36   36 3986 4479 FO
  36   36 4116 4478 FO
  36   36 4246 4477 FO
  36   36 4376 4475 FO
  36   36 4506 4468 FO
  36   36 4635 4464 FO
  36   36 4765 4464 FO
  36   36 4895 4459 FO
  36   36 5025 4454 FO
  36   36 5155 4457 FO
  36   36 5285 4449 FO
  36   36 5414 4386 FO
  36   36 5544 4402 FO
  36   36 5674 4370 FO
  36   36 5804 4384 FO
  36   36 5934 4325 FO
  36   36 6064 4285 FO
gs 871 378 5194 4103 rc
12 w
130 -2 130 -15 130 -14 130 -17 130 -14 129 -7 130 -7 130 -3 
130 0 130 -2 130 -2 129 -6 130 -5 130 -3 130 -6 130 -4 
130 -3 129 -1 130 0 130 1 130 1 130 1 129 2 130 1 
130 -2 130 -1 130 -4 130 -4 129 -2 130 -2 130 -3 130 -5 
130 -4 130 -2 129 -7 130 -6 130 -8 130 -17 130 -4 129 0 
871 4480 41 MP stroke
gr

12 w
  36   36  871 4480 FO
  36   36 1000 4480 FO
  36   36 1130 4476 FO
  36   36 1260 4459 FO
  36   36 1390 4451 FO
  36   36 1520 4445 FO
  36   36 1649 4438 FO
  36   36 1779 4436 FO
  36   36 1909 4432 FO
  36   36 2039 4427 FO
  36   36 2169 4424 FO
  36   36 2299 4422 FO
  36   36 2428 4420 FO
  36   36 2558 4416 FO
  36   36 2688 4412 FO
  36   36 2818 4411 FO
  36   36 2948 4409 FO
  36   36 3078 4410 FO
  36   36 3207 4412 FO
  36   36 3337 4413 FO
  36   36 3467 4414 FO
  36   36 3597 4415 FO
  36   36 3727 4415 FO
  36   36 3856 4414 FO
  36   36 3986 4411 FO
  36   36 4116 4407 FO
  36   36 4246 4401 FO
  36   36 4376 4398 FO
  36   36 4506 4393 FO
  36   36 4635 4387 FO
  36   36 4765 4385 FO
  36   36 4895 4383 FO
  36   36 5025 4383 FO
  36   36 5155 4380 FO
  36   36 5285 4373 FO
  36   36 5414 4366 FO
  36   36 5544 4352 FO
  36   36 5674 4335 FO
  36   36 5804 4321 FO
  36   36 5934 4306 FO
  36   36 6064 4304 FO
gs 871 378 5194 4103 rc
gr

0 sg
 818 4559 mt 
( ) s
6012  456 mt 
( ) s
6 w
1 sg
0 737 2325 0 0 -737 1006 1259 4 MP
PP
-2325 0 0 737 2325 0 0 -737 1006 1259 5 MP stroke
4 w
DO
SO
6 w
0 sg
1006 1259 mt 3331 1259 L
1006  522 mt 3331  522 L
1006 1259 mt 1006  522 L
3331 1259 mt 3331  522 L
1006 1259 mt 3331 1259 L
1006 1259 mt 1006  522 L
1006 1259 mt 3331 1259 L
1006  522 mt 3331  522 L
1006 1259 mt 1006  522 L
3331 1259 mt 3331  522 L
1474  672 mt 
(Median=100   30   55    0 dE1.5) s
gs 1006 522 2326 738 rc
24 w
c8
360 0 1077 629 2 MP stroke
gs 1159 531 197 197 rc
1221  629 mt 1293  629 L
1257  593 mt 1257  665 L
gr

gr

24 w
c8
0 sg
1474  846 mt 
(Measured=100   30   55    0) s
gs 1006 522 2326 738 rc
12 w
c8
360 0 1077 803 2 MP stroke
gs 1184 730 147 147 rc
1221  803 mt 1293  803 L
1257  767 mt 1257  839 L
gr

gr

12 w
c8
0 sg
1474 1020 mt 
(Worst=40    0    0  100 dE15.2) s
gs 1006 522 2326 738 rc
24 w
c9
360 0 1077 977 2 MP stroke
gs 1159 879 197 197 rc
  36   36 1257  977 FO
gr

gr

24 w
c9
0 sg
1474 1194 mt 
(Measured=40    0    0  100) s
gs 1006 522 2326 738 rc
12 w
c9
360 0 1077 1151 2 MP stroke
gs 1184 1078 147 147 rc
  36   36 1257 1151 FO
gr

6 w
gr

6 w
c9

end %%Color Dict

eplot
%%EndObject

epage
end

showpage

%%Trailer
%%EOF
