%!PS-Adobe-3.0 EPSF-3.0
%%Creator: MATLAB, The MathWorks, Inc. Version 8.0.0.783 (R2012b). Operating System: Darwin 14.5.0 Darwin Kernel Version 14.5.0: Mon Aug 29 21:14:16 PDT 2016; root:xnu-2782.50.6~1/RELEASE_X86_64 x86_64.
%%Title: /Users/pgh/Documents/MATLAB/rectoverso/data/ID01/graphics/tu1-4PSM=12;ISM=0.01;PWS=Chart;AMM=1;ESC=0;WBW=0.25.eps
%%CreationDate: 10/04/2016  10:17:50
%%DocumentNeededFonts: Helvetica
%%DocumentProcessColors: Cyan Magenta Yellow Black
%%LanguageLevel: 2
%%Pages: 1
%%BoundingBox:    17   211   575   631
%%EndComments

%%BeginProlog
% MathWorks dictionary
/MathWorks 160 dict begin
% definition operators
/bdef {bind def} bind def
/ldef {load def} bind def
/xdef {exch def} bdef
/xstore {exch store} bdef
% operator abbreviations
/c  /clip ldef
/cc /concat ldef
/cp /closepath ldef
/gr /grestore ldef
/gs /gsave ldef
/mt /moveto ldef
/np /newpath ldef
/cm /currentmatrix ldef
/sm /setmatrix ldef
/rm /rmoveto ldef
/rl /rlineto ldef
/s {show newpath} bdef
/sc {setcmykcolor} bdef
/sr /setrgbcolor ldef
/sg /setgray ldef
/w /setlinewidth ldef
/j /setlinejoin ldef
/cap /setlinecap ldef
/rc {rectclip} bdef
/rf {rectfill} bdef
% page state control
/pgsv () def
/bpage {/pgsv save def} bdef
/epage {pgsv restore} bdef
/bplot /gsave ldef
/eplot {stroke grestore} bdef
% orientation switch
/portraitMode 0 def /landscapeMode 1 def /rotateMode 2 def
% coordinate system mappings
/dpi2point 0 def
% font control
/FontSize 0 def
/FMS {/FontSize xstore findfont [FontSize 0 0 FontSize neg 0 0]
  makefont setfont} bdef
/reencode {exch dup where {pop load} {pop StandardEncoding} ifelse
  exch dup 3 1 roll findfont dup length dict begin
  { 1 index /FID ne {def}{pop pop} ifelse } forall
  /Encoding exch def currentdict end definefont pop} bdef
/isroman {findfont /CharStrings get /Agrave known} bdef
/FMSR {3 1 roll 1 index dup isroman {reencode} {pop pop} ifelse
  exch FMS} bdef
/csm {1 dpi2point div -1 dpi2point div scale neg translate
 dup landscapeMode eq {pop -90 rotate}
  {rotateMode eq {90 rotate} if} ifelse} bdef
% line types: solid, dotted, dashed, dotdash
/SO { [] 0 setdash } bdef
/DO { [.5 dpi2point mul 4 dpi2point mul] 0 setdash } bdef
/DA { [6 dpi2point mul] 0 setdash } bdef
/DD { [.5 dpi2point mul 4 dpi2point mul 6 dpi2point mul 4
  dpi2point mul] 0 setdash } bdef
% macros for lines and objects
/L {lineto stroke} bdef
/MP {3 1 roll moveto 1 sub {rlineto} repeat} bdef
/AP {{rlineto} repeat} bdef
/PDlw -1 def
/W {/PDlw currentlinewidth def setlinewidth} def
/PP {closepath eofill} bdef
/DP {closepath stroke} bdef
/MR {4 -2 roll moveto dup  0 exch rlineto exch 0 rlineto
  neg 0 exch rlineto closepath} bdef
/FR {MR stroke} bdef
/PR {MR fill} bdef
/L1i {{currentfile picstr readhexstring pop} image} bdef
/tMatrix matrix def
/MakeOval {newpath tMatrix currentmatrix pop translate scale
0 0 1 0 360 arc tMatrix setmatrix} bdef
/FO {MakeOval stroke} bdef
/PO {MakeOval fill} bdef
/PD {currentlinewidth 2 div 0 360 arc fill
   PDlw -1 eq not {PDlw w /PDlw -1 def} if} def
/FA {newpath tMatrix currentmatrix pop translate scale
  0 0 1 5 -2 roll arc tMatrix setmatrix stroke} bdef
/PA {newpath tMatrix currentmatrix pop	translate 0 0 moveto scale
  0 0 1 5 -2 roll arc closepath tMatrix setmatrix fill} bdef
/FAn {newpath tMatrix currentmatrix pop translate scale
  0 0 1 5 -2 roll arcn tMatrix setmatrix stroke} bdef
/PAn {newpath tMatrix currentmatrix pop translate 0 0 moveto scale
  0 0 1 5 -2 roll arcn closepath tMatrix setmatrix fill} bdef
/vradius 0 def /hradius 0 def /lry 0 def
/lrx 0 def /uly 0 def /ulx 0 def /rad 0 def
/MRR {/vradius xdef /hradius xdef /lry xdef /lrx xdef /uly xdef
  /ulx xdef newpath tMatrix currentmatrix pop ulx hradius add uly
  vradius add translate hradius vradius scale 0 0 1 180 270 arc 
  tMatrix setmatrix lrx hradius sub uly vradius add translate
  hradius vradius scale 0 0 1 270 360 arc tMatrix setmatrix
  lrx hradius sub lry vradius sub translate hradius vradius scale
  0 0 1 0 90 arc tMatrix setmatrix ulx hradius add lry vradius sub
  translate hradius vradius scale 0 0 1 90 180 arc tMatrix setmatrix
  closepath} bdef
/FRR {MRR stroke } bdef
/PRR {MRR fill } bdef
/MlrRR {/lry xdef /lrx xdef /uly xdef /ulx xdef /rad lry uly sub 2 div def
  newpath tMatrix currentmatrix pop ulx rad add uly rad add translate
  rad rad scale 0 0 1 90 270 arc tMatrix setmatrix lrx rad sub lry rad
  sub translate rad rad scale 0 0 1 270 90 arc tMatrix setmatrix
  closepath} bdef
/FlrRR {MlrRR stroke } bdef
/PlrRR {MlrRR fill } bdef
/MtbRR {/lry xdef /lrx xdef /uly xdef /ulx xdef /rad lrx ulx sub 2 div def
  newpath tMatrix currentmatrix pop ulx rad add uly rad add translate
  rad rad scale 0 0 1 180 360 arc tMatrix setmatrix lrx rad sub lry rad
  sub translate rad rad scale 0 0 1 0 180 arc tMatrix setmatrix
  closepath} bdef
/FtbRR {MtbRR stroke } bdef
/PtbRR {MtbRR fill } bdef
/stri 6 array def /dtri 6 array def
/smat 6 array def /dmat 6 array def
/tmat1 6 array def /tmat2 6 array def /dif 3 array def
/asub {/ind2 exch def /ind1 exch def dup dup
  ind1 get exch ind2 get sub exch } bdef
/tri_to_matrix {
  2 0 asub 3 1 asub 4 0 asub 5 1 asub
  dup 0 get exch 1 get 7 -1 roll astore } bdef
/compute_transform {
  dmat dtri tri_to_matrix tmat1 invertmatrix 
  smat stri tri_to_matrix tmat2 concatmatrix } bdef
/ds {stri astore pop} bdef
/dt {dtri astore pop} bdef
/db {2 copy /cols xdef /rows xdef mul dup 3 mul string
  currentfile 
  3 index 0 eq {/ASCIIHexDecode filter}
  {/ASCII85Decode filter 3 index 2 eq {/RunLengthDecode filter} if }
  ifelse exch readstring pop
  dup 0 3 index getinterval /rbmap xdef
  dup 2 index dup getinterval /gbmap xdef
  1 index dup 2 mul exch getinterval /bbmap xdef pop pop}bdef
/it {gs np dtri aload pop moveto lineto lineto cp c
  cols rows 8 compute_transform 
  rbmap gbmap bbmap true 3 colorimage gr}bdef
/il {newpath moveto lineto stroke}bdef
currentdict end def
%%EndProlog

%%BeginSetup
MathWorks begin

0 cap

end
%%EndSetup

%%Page: 1 1
%%BeginPageSetup
%%PageBoundingBox:    17   211   575   631
MathWorks begin
bpage
%%EndPageSetup

%%BeginObject: obj1
bplot

/dpi2point 12 def
portraitMode 0204 7572 csm

    0     0  6700  5034 rc
89 dict begin %Colortable dictionary
/c0 { 0.000000 0.000000 0.000000 sr} bdef
/c1 { 1.000000 1.000000 1.000000 sr} bdef
/c2 { 0.900000 0.000000 0.000000 sr} bdef
/c3 { 0.000000 0.820000 0.000000 sr} bdef
/c4 { 0.000000 0.000000 0.800000 sr} bdef
/c5 { 0.910000 0.820000 0.320000 sr} bdef
/c6 { 1.000000 0.260000 0.820000 sr} bdef
/c7 { 0.000000 0.820000 0.820000 sr} bdef
c0
1 j
1 sg
   0    0 6701 5035 rf
6 w
0 4102 5193 0 0 -4102 871 4480 4 MP
PP
-5193 0 0 4102 5193 0 0 -4102 871 4480 5 MP stroke
4 w
DO
0 sg
1130 4480 mt 1130  378 L
1130  378 mt 1130  378 L
1779 4480 mt 1779  378 L
1779  378 mt 1779  378 L
2428 4480 mt 2428  378 L
2428  378 mt 2428  378 L
3078 4480 mt 3078  378 L
3078  378 mt 3078  378 L
3727 4480 mt 3727  378 L
3727  378 mt 3727  378 L
4376 4480 mt 4376  378 L
4376  378 mt 4376  378 L
5025 4480 mt 5025  378 L
5025  378 mt 5025  378 L
5674 4480 mt 5674  378 L
5674  378 mt 5674  378 L
 871 4480 mt 6064 4480 L
6064 4480 mt 6064 4480 L
 871 4069 mt 6064 4069 L
6064 4069 mt 6064 4069 L
 871 3659 mt 6064 3659 L
6064 3659 mt 6064 3659 L
 871 3249 mt 6064 3249 L
6064 3249 mt 6064 3249 L
 871 2839 mt 6064 2839 L
6064 2839 mt 6064 2839 L
 871 2428 mt 6064 2428 L
6064 2428 mt 6064 2428 L
 871 2018 mt 6064 2018 L
6064 2018 mt 6064 2018 L
 871 1608 mt 6064 1608 L
6064 1608 mt 6064 1608 L
 871 1198 mt 6064 1198 L
6064 1198 mt 6064 1198 L
 871  788 mt 6064  788 L
6064  788 mt 6064  788 L
SO
6 w
 871 4480 mt 6064 4480 L
 871 4480 mt  871  378 L
1130 4480 mt 1130 4428 L
%%IncludeResource: font Helvetica
/Helvetica /ISOLatin1Encoding 120 FMSR

1030 4625 mt 
(400) s
1779 4480 mt 1779 4428 L
1679 4625 mt 
(450) s
2428 4480 mt 2428 4428 L
2328 4625 mt 
(500) s
3078 4480 mt 3078 4428 L
2978 4625 mt 
(550) s
3727 4480 mt 3727 4428 L
3627 4625 mt 
(600) s
4376 4480 mt 4376 4428 L
4276 4625 mt 
(650) s
5025 4480 mt 5025 4428 L
4925 4625 mt 
(700) s
5674 4480 mt 5674 4428 L
5574 4625 mt 
(750) s
 871 4480 mt  922 4480 L
 770 4524 mt 
(0) s
 871 4069 mt  922 4069 L
 670 4113 mt 
(0.1) s
 871 3659 mt  922 3659 L
 670 3703 mt 
(0.2) s
 871 3249 mt  922 3249 L
 670 3293 mt 
(0.3) s
 871 2839 mt  922 2839 L
 670 2883 mt 
(0.4) s
 871 2428 mt  922 2428 L
 670 2472 mt 
(0.5) s
 871 2018 mt  922 2018 L
 670 2062 mt 
(0.6) s
 871 1608 mt  922 1608 L
 670 1652 mt 
(0.7) s
 871 1198 mt  922 1198 L
 670 1242 mt 
(0.8) s
 871  788 mt  922  788 L
 670  832 mt 
(0.9) s
2360  283 mt 
(Ink layer t_u ID01/ SCATTER MODEL=12) s
gs 871 378 5194 4103 rc
DA
24 w
0.3 sg
130 0 130 0 130 1 130 0 130 0 129 0 130 0 130 0 
130 0 130 0 130 0 129 0 130 0 130 0 130 0 130 0 
130 0 129 0 130 0 130 0 130 0 130 0 129 0 130 0 
130 0 130 0 130 0 130 0 129 0 130 0 130 0 130 0 
130 0 130 0 129 0 130 0 130 0 130 -150 130 -182 129 -11 
871 721 41 MP stroke
SO
12 w
130 0 130 0 130 0 130 0 130 0 129 0 130 0 130 0 
130 0 130 0 130 0 129 0 130 0 130 0 130 0 130 0 
130 0 129 0 130 0 130 0 130 0 130 0 129 0 130 0 
130 0 130 0 130 0 130 0 129 0 130 0 130 0 130 0 
130 0 130 0 129 0 130 0 130 0 130 -1 130 -105 129 -29 
871 513 41 MP stroke
gr

12 w
0.3 sg
 829  471 mt  913  555 L
 913  471 mt  829  555 L
 958  442 mt 1042  526 L
1042  442 mt  958  526 L
1088  337 mt 1172  421 L
1172  337 mt 1088  421 L
1218  336 mt 1302  420 L
1302  336 mt 1218  420 L
1348  336 mt 1432  420 L
1432  336 mt 1348  420 L
1478  336 mt 1562  420 L
1562  336 mt 1478  420 L
1607  336 mt 1691  420 L
1691  336 mt 1607  420 L
1737  336 mt 1821  420 L
1821  336 mt 1737  420 L
1867  336 mt 1951  420 L
1951  336 mt 1867  420 L
1997  336 mt 2081  420 L
2081  336 mt 1997  420 L
2127  336 mt 2211  420 L
2211  336 mt 2127  420 L
2257  336 mt 2341  420 L
2341  336 mt 2257  420 L
2386  336 mt 2470  420 L
2470  336 mt 2386  420 L
2516  336 mt 2600  420 L
2600  336 mt 2516  420 L
2646  336 mt 2730  420 L
2730  336 mt 2646  420 L
2776  336 mt 2860  420 L
2860  336 mt 2776  420 L
2906  336 mt 2990  420 L
2990  336 mt 2906  420 L
3036  336 mt 3120  420 L
3120  336 mt 3036  420 L
3165  336 mt 3249  420 L
3249  336 mt 3165  420 L
3295  336 mt 3379  420 L
3379  336 mt 3295  420 L
3425  336 mt 3509  420 L
3509  336 mt 3425  420 L
3555  336 mt 3639  420 L
3639  336 mt 3555  420 L
3685  336 mt 3769  420 L
3769  336 mt 3685  420 L
3814  336 mt 3898  420 L
3898  336 mt 3814  420 L
3944  336 mt 4028  420 L
4028  336 mt 3944  420 L
4074  336 mt 4158  420 L
4158  336 mt 4074  420 L
4204  336 mt 4288  420 L
4288  336 mt 4204  420 L
4334  336 mt 4418  420 L
4418  336 mt 4334  420 L
4464  336 mt 4548  420 L
4548  336 mt 4464  420 L
4593  336 mt 4677  420 L
4677  336 mt 4593  420 L
4723  336 mt 4807  420 L
4807  336 mt 4723  420 L
4853  336 mt 4937  420 L
4937  336 mt 4853  420 L
4983  336 mt 5067  420 L
5067  336 mt 4983  420 L
5113  336 mt 5197  420 L
5197  336 mt 5113  420 L
5243  336 mt 5327  420 L
5327  336 mt 5243  420 L
5372  336 mt 5456  420 L
5456  336 mt 5372  420 L
5502  336 mt 5586  420 L
5586  336 mt 5502  420 L
5632  336 mt 5716  420 L
5716  336 mt 5632  420 L
5762  336 mt 5846  420 L
5846  336 mt 5762  420 L
5892  336 mt 5976  420 L
5976  336 mt 5892  420 L
6022  336 mt 6106  420 L
6106  336 mt 6022  420 L
gs 871 378 5194 4103 rc
24 w
/c8 { 0.210526 1.000000 1.000000 sr} bdef
c8
130 -211 130 -791 130 -1191 130 -1008 130 -425 129 -120 130 -47 130 14 
130 54 130 66 130 16 129 -44 130 -63 130 -38 130 -27 130 -11 
130 9 129 35 130 67 130 117 130 164 130 453 129 722 130 736 
130 723 130 340 130 213 130 123 129 49 130 49 130 27 130 4 
130 -40 130 -121 129 -219 130 -222 130 -224 130 -741 130 -972 129 -158 
871 3204 41 MP stroke
DO
130 -211 130 -791 130 -1192 130 -1013 130 -443 129 -112 130 -54 130 26 
130 63 130 73 130 17 129 -48 130 -71 130 -36 130 -32 130 -13 
130 6 129 39 130 68 130 122 130 159 130 460 129 724 130 736 
130 723 130 340 130 213 130 123 129 49 130 49 130 27 130 4 
130 -40 130 -121 129 -219 130 -222 130 -224 130 -741 130 -1001 129 -141 
871 3216 41 MP stroke
SO
12 w
130 -226 130 -854 130 -1211 130 -927 130 -421 129 -110 130 -54 130 26 
130 64 130 74 130 16 129 -48 130 -71 130 -36 130 -32 130 -14 
130 7 129 39 130 69 130 124 130 161 130 462 129 727 130 761 
130 719 130 329 130 206 130 123 129 51 130 47 130 22 130 1 
130 -45 130 -120 129 -213 130 -218 130 -220 130 -834 130 -880 129 -51 
871 3082 41 MP stroke
gr

c8
 829 3040 mt  913 3124 L
 913 3040 mt  829 3124 L
 958 2989 mt 1042 3073 L
1042 2989 mt  958 3073 L
1088 2109 mt 1172 2193 L
1172 2109 mt 1088 2193 L
1218 1275 mt 1302 1359 L
1302 1275 mt 1218 1359 L
1348 1055 mt 1432 1139 L
1432 1055 mt 1348 1139 L
1478  837 mt 1562  921 L
1562  837 mt 1478  921 L
1607  624 mt 1691  708 L
1691  624 mt 1607  708 L
1737  504 mt 1821  588 L
1821  504 mt 1737  588 L
1867  459 mt 1951  543 L
1951  459 mt 1867  543 L
1997  460 mt 2081  544 L
2081  460 mt 1997  544 L
2127  482 mt 2211  566 L
2211  482 mt 2127  566 L
2257  529 mt 2341  613 L
2341  529 mt 2257  613 L
2386  580 mt 2470  664 L
2470  580 mt 2386  664 L
2516  703 mt 2600  787 L
2600  703 mt 2516  787 L
2646  909 mt 2730  993 L
2730  909 mt 2646  993 L
2776 1238 mt 2860 1322 L
2860 1238 mt 2776 1322 L
2906 1957 mt 2990 2041 L
2990 1957 mt 2906 2041 L
3036 2718 mt 3120 2802 L
3120 2718 mt 3036 2802 L
3165 3445 mt 3249 3529 L
3249 3445 mt 3165 3529 L
3295 3907 mt 3379 3991 L
3379 3907 mt 3295 3991 L
3425 4068 mt 3509 4152 L
3509 4068 mt 3425 4152 L
3555 4192 mt 3639 4276 L
3639 4192 mt 3555 4276 L
3685 4261 mt 3769 4345 L
3769 4261 mt 3685 4345 L
3814 4300 mt 3898 4384 L
3898 4300 mt 3814 4384 L
3944 4307 mt 4028 4391 L
4028 4307 mt 3944 4391 L
4074 4293 mt 4158 4377 L
4158 4293 mt 4074 4377 L
4204 4261 mt 4288 4345 L
4288 4261 mt 4204 4345 L
4334 4225 mt 4418 4309 L
4418 4225 mt 4334 4309 L
4464 4154 mt 4548 4238 L
4548 4154 mt 4464 4238 L
4593 4106 mt 4677 4190 L
4677 4106 mt 4593 4190 L
4723 4122 mt 4807 4206 L
4807 4122 mt 4723 4206 L
4853 4196 mt 4937 4280 L
4937 4196 mt 4853 4280 L
4983 4260 mt 5067 4344 L
5067 4260 mt 4983 4344 L
5113 4286 mt 5197 4370 L
5197 4286 mt 5113 4370 L
5243 4232 mt 5327 4316 L
5327 4232 mt 5243 4316 L
5372 4122 mt 5456 4206 L
5456 4122 mt 5372 4206 L
5502 3701 mt 5586 3785 L
5586 3701 mt 5502 3785 L
5632 2774 mt 5716 2858 L
5716 2774 mt 5632 2858 L
5762 1563 mt 5846 1647 L
5846 1563 mt 5762 1647 L
5892  709 mt 5976  793 L
5976  709 mt 5892  793 L
6022  483 mt 6106  567 L
6106  483 mt 6022  567 L
gs 871 378 5194 4103 rc
24 w
/c9 { 1.000000 0.123711 1.000000 sr} bdef
c9
130 -1 130 0 130 -1 130 -1 130 -1 129 0 130 -2 130 -1 
130 -1 130 -3 130 -1 129 -3 130 -2 130 -2 130 -9 130 -41 
130 -255 129 -546 130 -832 130 -956 130 -558 130 -498 129 -111 130 55 
130 -34 130 46 130 300 130 446 129 222 130 311 130 426 130 414 
130 406 130 252 129 173 130 81 130 -41 130 -355 130 -548 129 -67 
871 2116 41 MP stroke
DO
130 -1 130 0 130 -1 130 -1 130 -1 129 0 130 -2 130 -1 
130 -1 130 -3 130 -1 129 -3 130 -2 130 -2 130 -9 130 -41 
130 -255 129 -546 130 -832 130 -957 130 -558 130 -518 129 -110 130 81 
130 -48 130 36 130 316 130 449 129 220 130 311 130 427 130 414 
130 406 130 252 129 173 130 81 130 -41 130 -355 130 -552 129 -64 
871 2117 41 MP stroke
SO
12 w
130 0 130 0 130 -2 130 -2 130 -1 129 -1 130 -1 130 -2 
130 -1 130 -2 130 -2 129 -2 130 -2 130 -2 130 -10 130 -41 
130 -254 129 -534 130 -841 130 -977 130 -549 130 -509 129 -109 130 79 
130 -47 130 36 130 308 130 445 129 227 130 322 130 442 130 433 
130 420 130 249 129 168 130 81 130 -31 130 -386 130 -939 129 -69 
871 2485 41 MP stroke
gr

c9
 829 2443 mt  913 2527 L
 913 2443 mt  829 2527 L
 958 2374 mt 1042 2458 L
1042 2374 mt  958 2458 L
1088 1435 mt 1172 1519 L
1172 1435 mt 1088 1519 L
1218 1049 mt 1302 1133 L
1302 1049 mt 1218 1133 L
1348 1018 mt 1432 1102 L
1432 1018 mt 1348 1102 L
1478 1099 mt 1562 1183 L
1562 1099 mt 1478 1183 L
1607 1267 mt 1691 1351 L
1691 1267 mt 1607 1351 L
1737 1516 mt 1821 1600 L
1821 1516 mt 1737 1600 L
1867 1936 mt 1951 2020 L
1951 1936 mt 1867 2020 L
1997 2369 mt 2081 2453 L
2081 2369 mt 1997 2453 L
2127 2811 mt 2211 2895 L
2211 2811 mt 2127 2895 L
2257 3133 mt 2341 3217 L
2341 3133 mt 2257 3217 L
2386 3360 mt 2470 3444 L
2470 3360 mt 2386 3444 L
2516 3805 mt 2600 3889 L
2600 3805 mt 2516 3889 L
2646 4113 mt 2730 4197 L
2730 4113 mt 2646 4197 L
2776 4149 mt 2860 4233 L
2860 4149 mt 2776 4233 L
2906 4102 mt 2990 4186 L
2990 4102 mt 2906 4186 L
3036 4181 mt 3120 4265 L
3120 4181 mt 3036 4265 L
3165 4072 mt 3249 4156 L
3249 4072 mt 3165 4156 L
3295 3563 mt 3379 3647 L
3379 3563 mt 3295 3647 L
3425 3014 mt 3509 3098 L
3509 3014 mt 3425 3098 L
3555 2037 mt 3639 2121 L
3639 2037 mt 3555 2121 L
3685 1196 mt 3769 1280 L
3769 1196 mt 3685 1280 L
3814  662 mt 3898  746 L
3898  662 mt 3814  746 L
3944  408 mt 4028  492 L
4028  408 mt 3944  492 L
4074  367 mt 4158  451 L
4158  367 mt 4074  451 L
4204  357 mt 4288  441 L
4288  357 mt 4204  441 L
4334  355 mt 4418  439 L
4418  355 mt 4334  439 L
4464  353 mt 4548  437 L
4548  353 mt 4464  437 L
4593  351 mt 4677  435 L
4677  351 mt 4593  435 L
4723  349 mt 4807  433 L
4807  349 mt 4723  433 L
4853  347 mt 4937  431 L
4937  347 mt 4853  431 L
4983  346 mt 5067  430 L
5067  346 mt 4983  430 L
5113  344 mt 5197  428 L
5197  344 mt 5113  428 L
5243  343 mt 5327  427 L
5327  343 mt 5243  427 L
5372  342 mt 5456  426 L
5456  342 mt 5372  426 L
5502  341 mt 5586  425 L
5586  341 mt 5502  425 L
5632  339 mt 5716  423 L
5716  339 mt 5632  423 L
5762  337 mt 5846  421 L
5846  337 mt 5762  421 L
5892  337 mt 5976  421 L
5976  337 mt 5892  421 L
6022  337 mt 6106  421 L
6106  337 mt 6022  421 L
gs 871 378 5194 4103 rc
24 w
/c10 { 1.000000 1.000000 0.123711 sr} bdef
c10
130 0 130 0 130 0 130 0 130 0 129 0 130 0 130 0 
130 0 130 0 130 0 129 0 130 0 130 0 130 0 130 0 
130 0 129 0 130 0 130 0 130 0 130 0 129 0 130 -2 
130 -26 130 -62 130 -158 130 -362 129 -398 130 -824 130 -870 130 -617 
130 -380 130 -121 129 -55 130 -16 130 17 130 101 130 250 129 -33 
871 3934 41 MP stroke
DO
130 0 130 0 130 0 130 0 130 0 129 0 130 0 130 0 
130 0 130 0 130 0 129 0 130 0 130 0 130 0 130 0 
130 0 129 0 130 0 130 0 130 0 130 0 129 0 130 -2 
130 -26 130 -62 130 -158 130 -362 129 -397 130 -825 130 -870 130 -619 
130 -390 130 -117 129 -55 130 -17 130 -3 130 87 130 352 129 -104 
871 3946 41 MP stroke
SO
12 w
130 0 130 0 130 0 130 0 130 0 129 0 130 0 130 0 
130 0 130 0 130 0 129 0 130 0 130 0 130 0 130 0 
130 0 129 0 130 0 130 0 130 0 130 0 129 0 130 0 
130 -28 130 -63 130 -160 130 -373 129 -422 130 -894 130 -860 130 -562 
130 -358 130 -109 129 -53 130 -14 130 1 130 115 130 867 129 -43 
871 3334 41 MP stroke
gr

c10
 829 3292 mt  913 3376 L
 913 3292 mt  829 3376 L
 958 3249 mt 1042 3333 L
1042 3249 mt  958 3333 L
1088 4116 mt 1172 4200 L
1172 4116 mt 1088 4200 L
1218 4231 mt 1302 4315 L
1302 4231 mt 1218 4315 L
1348 4232 mt 1432 4316 L
1432 4232 mt 1348 4316 L
1478 4218 mt 1562 4302 L
1562 4218 mt 1478 4302 L
1607 4165 mt 1691 4249 L
1691 4165 mt 1607 4249 L
1737 4056 mt 1821 4140 L
1821 4056 mt 1737 4140 L
1867 3698 mt 1951 3782 L
1951 3698 mt 1867 3782 L
1997 3136 mt 2081 3220 L
2081 3136 mt 1997 3220 L
2127 2276 mt 2211 2360 L
2211 2276 mt 2127 2360 L
2257 1382 mt 2341 1466 L
2341 1382 mt 2257 1466 L
2386  960 mt 2470 1044 L
2470  960 mt 2386 1044 L
2516  587 mt 2600  671 L
2600  587 mt 2516  671 L
2646  427 mt 2730  511 L
2730  427 mt 2646  511 L
2776  364 mt 2860  448 L
2860  364 mt 2776  448 L
2906  336 mt 2990  420 L
2990  336 mt 2906  420 L
3036  336 mt 3120  420 L
3120  336 mt 3036  420 L
3165  336 mt 3249  420 L
3249  336 mt 3165  420 L
3295  336 mt 3379  420 L
3379  336 mt 3295  420 L
3425  336 mt 3509  420 L
3509  336 mt 3425  420 L
3555  336 mt 3639  420 L
3639  336 mt 3555  420 L
3685  336 mt 3769  420 L
3769  336 mt 3685  420 L
3814  336 mt 3898  420 L
3898  336 mt 3814  420 L
3944  336 mt 4028  420 L
4028  336 mt 3944  420 L
4074  336 mt 4158  420 L
4158  336 mt 4074  420 L
4204  336 mt 4288  420 L
4288  336 mt 4204  420 L
4334  336 mt 4418  420 L
4418  336 mt 4334  420 L
4464  336 mt 4548  420 L
4548  336 mt 4464  420 L
4593  336 mt 4677  420 L
4677  336 mt 4593  420 L
4723  336 mt 4807  420 L
4807  336 mt 4723  420 L
4853  336 mt 4937  420 L
4937  336 mt 4853  420 L
4983  336 mt 5067  420 L
5067  336 mt 4983  420 L
5113  336 mt 5197  420 L
5197  336 mt 5113  420 L
5243  336 mt 5327  420 L
5327  336 mt 5243  420 L
5372  336 mt 5456  420 L
5456  336 mt 5372  420 L
5502  336 mt 5586  420 L
5586  336 mt 5502  420 L
5632  336 mt 5716  420 L
5716  336 mt 5632  420 L
5762  336 mt 5846  420 L
5846  336 mt 5762  420 L
5892  336 mt 5976  420 L
5976  336 mt 5892  420 L
6022  336 mt 6106  420 L
6106  336 mt 6022  420 L
gs 871 378 5194 4103 rc
gr

0 sg
 830 4547 mt 
( ) s
6024  444 mt 
( ) s
6 w
1 sg
0 1953 1211 0 0 -1953 4174 2888 4 MP
PP
-1211 0 0 1953 1211 0 0 -1953 4174 2888 5 MP stroke
4 w
DO
SO
6 w
0 sg
4174 2888 mt 5385 2888 L
4174  935 mt 5385  935 L
4174 2888 mt 4174  935 L
5385 2888 mt 5385  935 L
4174 2888 mt 5385 2888 L
4174 2888 mt 4174  935 L
4174 2888 mt 5385 2888 L
4174  935 mt 5385  935 L
4174 2888 mt 4174  935 L
5385 2888 mt 5385  935 L
4642 1085 mt 
(W) s
gs 4174 935 1212 1954 rc
DA
24 w
0.3 sg
360 0 4246 1042 2 MP stroke
SO
gr

24 w
0.3 sg
0 sg
4642 1259 mt 
(W from Tran) s
gs 4174 935 1212 1954 rc
12 w
0.3 sg
360 0 4246 1216 2 MP stroke
gs 4305 1095 243 243 rc
4384 1174 mt 4468 1258 L
4468 1174 mt 4384 1258 L
gr

gr

12 w
0.3 sg
0 sg
4642 1433 mt 
(C) s
gs 4174 935 1212 1954 rc
24 w
c8
360 0 4246 1390 2 MP stroke
gr

24 w
c8
0 sg
4642 1606 mt 
(C from Fit1) s
gs 4174 935 1212 1954 rc
DO
c8
360 0 4246 1564 2 MP stroke
SO
gr

c8
0 sg
4642 1780 mt 
(C from Tran) s
gs 4174 935 1212 1954 rc
12 w
c8
360 0 4246 1737 2 MP stroke
gs 4305 1616 243 243 rc
4384 1695 mt 4468 1779 L
4468 1695 mt 4384 1779 L
gr

gr

12 w
c8
0 sg
4642 1954 mt 
(M) s
gs 4174 935 1212 1954 rc
24 w
c9
360 0 4246 1911 2 MP stroke
gr

24 w
c9
0 sg
4642 2128 mt 
(M from Fit1) s
gs 4174 935 1212 1954 rc
DO
c9
360 0 4246 2085 2 MP stroke
SO
gr

c9
0 sg
4642 2302 mt 
(M from Tran) s
gs 4174 935 1212 1954 rc
12 w
c9
360 0 4246 2258 2 MP stroke
gs 4305 2137 243 243 rc
4384 2216 mt 4468 2300 L
4468 2216 mt 4384 2300 L
gr

gr

12 w
c9
0 sg
4642 2475 mt 
(Y) s
gs 4174 935 1212 1954 rc
24 w
c10
360 0 4246 2432 2 MP stroke
gr

24 w
c10
0 sg
4642 2649 mt 
(Y from Fit1) s
gs 4174 935 1212 1954 rc
DO
c10
360 0 4246 2606 2 MP stroke
SO
gr

c10
0 sg
4642 2823 mt 
(Y from Tran) s
gs 4174 935 1212 1954 rc
12 w
c10
360 0 4246 2780 2 MP stroke
gr

12 w
c10
gs 4305 2659 243 243 rc
4384 2738 mt 4468 2822 L
4468 2738 mt 4384 2822 L
gr

gs 4174 935 1212 1954 rc
6 w
gr

6 w

end %%Color Dict

eplot
%%EndObject

epage
end

showpage

%%Trailer
%%EOF
