%!PS-Adobe-3.0 EPSF-3.0
%%Creator: MATLAB, The MathWorks, Inc. Version 8.0.0.783 (R2012b). Operating System: Darwin 14.5.0 Darwin Kernel Version 14.5.0: Mon Aug 29 21:14:16 PDT 2016; root:xnu-2782.50.6~1/RELEASE_X86_64 x86_64.
%%Title: /Users/pgh/Documents/MATLAB/rectoverso/data/ID01/graphics/tu1-4PSM=0;ISM=0.01;PWS=Chart;AMM=1;ESC=0;WBW=0.25.eps
%%CreationDate: 10/03/2016  10:38:50
%%DocumentNeededFonts: Helvetica
%%DocumentProcessColors: Cyan Magenta Yellow Black
%%LanguageLevel: 2
%%Pages: 1
%%BoundingBox:    17   211   575   631
%%EndComments

%%BeginProlog
% MathWorks dictionary
/MathWorks 160 dict begin
% definition operators
/bdef {bind def} bind def
/ldef {load def} bind def
/xdef {exch def} bdef
/xstore {exch store} bdef
% operator abbreviations
/c  /clip ldef
/cc /concat ldef
/cp /closepath ldef
/gr /grestore ldef
/gs /gsave ldef
/mt /moveto ldef
/np /newpath ldef
/cm /currentmatrix ldef
/sm /setmatrix ldef
/rm /rmoveto ldef
/rl /rlineto ldef
/s {show newpath} bdef
/sc {setcmykcolor} bdef
/sr /setrgbcolor ldef
/sg /setgray ldef
/w /setlinewidth ldef
/j /setlinejoin ldef
/cap /setlinecap ldef
/rc {rectclip} bdef
/rf {rectfill} bdef
% page state control
/pgsv () def
/bpage {/pgsv save def} bdef
/epage {pgsv restore} bdef
/bplot /gsave ldef
/eplot {stroke grestore} bdef
% orientation switch
/portraitMode 0 def /landscapeMode 1 def /rotateMode 2 def
% coordinate system mappings
/dpi2point 0 def
% font control
/FontSize 0 def
/FMS {/FontSize xstore findfont [FontSize 0 0 FontSize neg 0 0]
  makefont setfont} bdef
/reencode {exch dup where {pop load} {pop StandardEncoding} ifelse
  exch dup 3 1 roll findfont dup length dict begin
  { 1 index /FID ne {def}{pop pop} ifelse } forall
  /Encoding exch def currentdict end definefont pop} bdef
/isroman {findfont /CharStrings get /Agrave known} bdef
/FMSR {3 1 roll 1 index dup isroman {reencode} {pop pop} ifelse
  exch FMS} bdef
/csm {1 dpi2point div -1 dpi2point div scale neg translate
 dup landscapeMode eq {pop -90 rotate}
  {rotateMode eq {90 rotate} if} ifelse} bdef
% line types: solid, dotted, dashed, dotdash
/SO { [] 0 setdash } bdef
/DO { [.5 dpi2point mul 4 dpi2point mul] 0 setdash } bdef
/DA { [6 dpi2point mul] 0 setdash } bdef
/DD { [.5 dpi2point mul 4 dpi2point mul 6 dpi2point mul 4
  dpi2point mul] 0 setdash } bdef
% macros for lines and objects
/L {lineto stroke} bdef
/MP {3 1 roll moveto 1 sub {rlineto} repeat} bdef
/AP {{rlineto} repeat} bdef
/PDlw -1 def
/W {/PDlw currentlinewidth def setlinewidth} def
/PP {closepath eofill} bdef
/DP {closepath stroke} bdef
/MR {4 -2 roll moveto dup  0 exch rlineto exch 0 rlineto
  neg 0 exch rlineto closepath} bdef
/FR {MR stroke} bdef
/PR {MR fill} bdef
/L1i {{currentfile picstr readhexstring pop} image} bdef
/tMatrix matrix def
/MakeOval {newpath tMatrix currentmatrix pop translate scale
0 0 1 0 360 arc tMatrix setmatrix} bdef
/FO {MakeOval stroke} bdef
/PO {MakeOval fill} bdef
/PD {currentlinewidth 2 div 0 360 arc fill
   PDlw -1 eq not {PDlw w /PDlw -1 def} if} def
/FA {newpath tMatrix currentmatrix pop translate scale
  0 0 1 5 -2 roll arc tMatrix setmatrix stroke} bdef
/PA {newpath tMatrix currentmatrix pop	translate 0 0 moveto scale
  0 0 1 5 -2 roll arc closepath tMatrix setmatrix fill} bdef
/FAn {newpath tMatrix currentmatrix pop translate scale
  0 0 1 5 -2 roll arcn tMatrix setmatrix stroke} bdef
/PAn {newpath tMatrix currentmatrix pop translate 0 0 moveto scale
  0 0 1 5 -2 roll arcn closepath tMatrix setmatrix fill} bdef
/vradius 0 def /hradius 0 def /lry 0 def
/lrx 0 def /uly 0 def /ulx 0 def /rad 0 def
/MRR {/vradius xdef /hradius xdef /lry xdef /lrx xdef /uly xdef
  /ulx xdef newpath tMatrix currentmatrix pop ulx hradius add uly
  vradius add translate hradius vradius scale 0 0 1 180 270 arc 
  tMatrix setmatrix lrx hradius sub uly vradius add translate
  hradius vradius scale 0 0 1 270 360 arc tMatrix setmatrix
  lrx hradius sub lry vradius sub translate hradius vradius scale
  0 0 1 0 90 arc tMatrix setmatrix ulx hradius add lry vradius sub
  translate hradius vradius scale 0 0 1 90 180 arc tMatrix setmatrix
  closepath} bdef
/FRR {MRR stroke } bdef
/PRR {MRR fill } bdef
/MlrRR {/lry xdef /lrx xdef /uly xdef /ulx xdef /rad lry uly sub 2 div def
  newpath tMatrix currentmatrix pop ulx rad add uly rad add translate
  rad rad scale 0 0 1 90 270 arc tMatrix setmatrix lrx rad sub lry rad
  sub translate rad rad scale 0 0 1 270 90 arc tMatrix setmatrix
  closepath} bdef
/FlrRR {MlrRR stroke } bdef
/PlrRR {MlrRR fill } bdef
/MtbRR {/lry xdef /lrx xdef /uly xdef /ulx xdef /rad lrx ulx sub 2 div def
  newpath tMatrix currentmatrix pop ulx rad add uly rad add translate
  rad rad scale 0 0 1 180 360 arc tMatrix setmatrix lrx rad sub lry rad
  sub translate rad rad scale 0 0 1 0 180 arc tMatrix setmatrix
  closepath} bdef
/FtbRR {MtbRR stroke } bdef
/PtbRR {MtbRR fill } bdef
/stri 6 array def /dtri 6 array def
/smat 6 array def /dmat 6 array def
/tmat1 6 array def /tmat2 6 array def /dif 3 array def
/asub {/ind2 exch def /ind1 exch def dup dup
  ind1 get exch ind2 get sub exch } bdef
/tri_to_matrix {
  2 0 asub 3 1 asub 4 0 asub 5 1 asub
  dup 0 get exch 1 get 7 -1 roll astore } bdef
/compute_transform {
  dmat dtri tri_to_matrix tmat1 invertmatrix 
  smat stri tri_to_matrix tmat2 concatmatrix } bdef
/ds {stri astore pop} bdef
/dt {dtri astore pop} bdef
/db {2 copy /cols xdef /rows xdef mul dup 3 mul string
  currentfile 
  3 index 0 eq {/ASCIIHexDecode filter}
  {/ASCII85Decode filter 3 index 2 eq {/RunLengthDecode filter} if }
  ifelse exch readstring pop
  dup 0 3 index getinterval /rbmap xdef
  dup 2 index dup getinterval /gbmap xdef
  1 index dup 2 mul exch getinterval /bbmap xdef pop pop}bdef
/it {gs np dtri aload pop moveto lineto lineto cp c
  cols rows 8 compute_transform 
  rbmap gbmap bbmap true 3 colorimage gr}bdef
/il {newpath moveto lineto stroke}bdef
currentdict end def
%%EndProlog

%%BeginSetup
MathWorks begin

0 cap

end
%%EndSetup

%%Page: 1 1
%%BeginPageSetup
%%PageBoundingBox:    17   211   575   631
MathWorks begin
bpage
%%EndPageSetup

%%BeginObject: obj1
bplot

/dpi2point 12 def
portraitMode 0204 7572 csm

    0     0  6700  5034 rc
89 dict begin %Colortable dictionary
/c0 { 0.000000 0.000000 0.000000 sr} bdef
/c1 { 1.000000 1.000000 1.000000 sr} bdef
/c2 { 0.900000 0.000000 0.000000 sr} bdef
/c3 { 0.000000 0.820000 0.000000 sr} bdef
/c4 { 0.000000 0.000000 0.800000 sr} bdef
/c5 { 0.910000 0.820000 0.320000 sr} bdef
/c6 { 1.000000 0.260000 0.820000 sr} bdef
/c7 { 0.000000 0.820000 0.820000 sr} bdef
c0
1 j
1 sg
   0    0 6701 5035 rf
6 w
0 4102 5193 0 0 -4102 871 4480 4 MP
PP
-5193 0 0 4102 5193 0 0 -4102 871 4480 5 MP stroke
4 w
DO
0 sg
1130 4480 mt 1130  378 L
1130  378 mt 1130  378 L
1779 4480 mt 1779  378 L
1779  378 mt 1779  378 L
2428 4480 mt 2428  378 L
2428  378 mt 2428  378 L
3078 4480 mt 3078  378 L
3078  378 mt 3078  378 L
3727 4480 mt 3727  378 L
3727  378 mt 3727  378 L
4376 4480 mt 4376  378 L
4376  378 mt 4376  378 L
5025 4480 mt 5025  378 L
5025  378 mt 5025  378 L
5674 4480 mt 5674  378 L
5674  378 mt 5674  378 L
 871 4480 mt 6064 4480 L
6064 4480 mt 6064 4480 L
 871 4069 mt 6064 4069 L
6064 4069 mt 6064 4069 L
 871 3659 mt 6064 3659 L
6064 3659 mt 6064 3659 L
 871 3249 mt 6064 3249 L
6064 3249 mt 6064 3249 L
 871 2839 mt 6064 2839 L
6064 2839 mt 6064 2839 L
 871 2428 mt 6064 2428 L
6064 2428 mt 6064 2428 L
 871 2018 mt 6064 2018 L
6064 2018 mt 6064 2018 L
 871 1608 mt 6064 1608 L
6064 1608 mt 6064 1608 L
 871 1198 mt 6064 1198 L
6064 1198 mt 6064 1198 L
 871  788 mt 6064  788 L
6064  788 mt 6064  788 L
SO
6 w
 871 4480 mt 6064 4480 L
 871 4480 mt  871  378 L
1130 4480 mt 1130 4428 L
%%IncludeResource: font Helvetica
/Helvetica /ISOLatin1Encoding 120 FMSR

1030 4625 mt 
(400) s
1779 4480 mt 1779 4428 L
1679 4625 mt 
(450) s
2428 4480 mt 2428 4428 L
2328 4625 mt 
(500) s
3078 4480 mt 3078 4428 L
2978 4625 mt 
(550) s
3727 4480 mt 3727 4428 L
3627 4625 mt 
(600) s
4376 4480 mt 4376 4428 L
4276 4625 mt 
(650) s
5025 4480 mt 5025 4428 L
4925 4625 mt 
(700) s
5674 4480 mt 5674 4428 L
5574 4625 mt 
(750) s
 871 4480 mt  922 4480 L
 770 4524 mt 
(0) s
 871 4069 mt  922 4069 L
 670 4113 mt 
(0.1) s
 871 3659 mt  922 3659 L
 670 3703 mt 
(0.2) s
 871 3249 mt  922 3249 L
 670 3293 mt 
(0.3) s
 871 2839 mt  922 2839 L
 670 2883 mt 
(0.4) s
 871 2428 mt  922 2428 L
 670 2472 mt 
(0.5) s
 871 2018 mt  922 2018 L
 670 2062 mt 
(0.6) s
 871 1608 mt  922 1608 L
 670 1652 mt 
(0.7) s
 871 1198 mt  922 1198 L
 670 1242 mt 
(0.8) s
 871  788 mt  922  788 L
 670  832 mt 
(0.9) s
2393  283 mt 
(Ink layer t_u ID01/ SCATTER MODEL=0) s
gs 871 378 5194 4103 rc
DA
24 w
0.3 sg
130 0 130 0 130 0 130 0 130 0 129 0 130 0 130 0 
130 0 130 0 130 0 129 0 130 0 130 0 130 0 130 0 
130 0 129 0 130 0 130 0 130 0 130 0 129 0 130 0 
130 0 130 0 130 0 130 0 129 0 130 0 130 0 130 0 
130 0 130 0 129 0 130 0 130 0 130 -146 130 -183 129 -12 
871 719 41 MP stroke
SO
12 w
130 0 130 0 130 0 130 0 130 0 129 0 130 0 130 0 
130 0 130 0 130 0 129 0 130 0 130 0 130 0 130 0 
130 0 129 0 130 0 130 0 130 0 130 0 129 0 130 0 
130 0 130 0 130 0 130 0 129 0 130 0 130 0 130 0 
130 0 130 0 129 0 130 0 130 0 130 -31 130 -171 129 -11 
871 591 41 MP stroke
gr

12 w
0.3 sg
 829  549 mt  913  633 L
 913  549 mt  829  633 L
 958  538 mt 1042  622 L
1042  538 mt  958  622 L
1088  367 mt 1172  451 L
1172  367 mt 1088  451 L
1218  336 mt 1302  420 L
1302  336 mt 1218  420 L
1348  336 mt 1432  420 L
1432  336 mt 1348  420 L
1478  336 mt 1562  420 L
1562  336 mt 1478  420 L
1607  336 mt 1691  420 L
1691  336 mt 1607  420 L
1737  336 mt 1821  420 L
1821  336 mt 1737  420 L
1867  336 mt 1951  420 L
1951  336 mt 1867  420 L
1997  336 mt 2081  420 L
2081  336 mt 1997  420 L
2127  336 mt 2211  420 L
2211  336 mt 2127  420 L
2257  336 mt 2341  420 L
2341  336 mt 2257  420 L
2386  336 mt 2470  420 L
2470  336 mt 2386  420 L
2516  336 mt 2600  420 L
2600  336 mt 2516  420 L
2646  336 mt 2730  420 L
2730  336 mt 2646  420 L
2776  336 mt 2860  420 L
2860  336 mt 2776  420 L
2906  336 mt 2990  420 L
2990  336 mt 2906  420 L
3036  336 mt 3120  420 L
3120  336 mt 3036  420 L
3165  336 mt 3249  420 L
3249  336 mt 3165  420 L
3295  336 mt 3379  420 L
3379  336 mt 3295  420 L
3425  336 mt 3509  420 L
3509  336 mt 3425  420 L
3555  336 mt 3639  420 L
3639  336 mt 3555  420 L
3685  336 mt 3769  420 L
3769  336 mt 3685  420 L
3814  336 mt 3898  420 L
3898  336 mt 3814  420 L
3944  336 mt 4028  420 L
4028  336 mt 3944  420 L
4074  336 mt 4158  420 L
4158  336 mt 4074  420 L
4204  336 mt 4288  420 L
4288  336 mt 4204  420 L
4334  336 mt 4418  420 L
4418  336 mt 4334  420 L
4464  336 mt 4548  420 L
4548  336 mt 4464  420 L
4593  336 mt 4677  420 L
4677  336 mt 4593  420 L
4723  336 mt 4807  420 L
4807  336 mt 4723  420 L
4853  336 mt 4937  420 L
4937  336 mt 4853  420 L
4983  336 mt 5067  420 L
5067  336 mt 4983  420 L
5113  336 mt 5197  420 L
5197  336 mt 5113  420 L
5243  336 mt 5327  420 L
5327  336 mt 5243  420 L
5372  336 mt 5456  420 L
5456  336 mt 5372  420 L
5502  336 mt 5586  420 L
5586  336 mt 5502  420 L
5632  336 mt 5716  420 L
5716  336 mt 5632  420 L
5762  336 mt 5846  420 L
5846  336 mt 5762  420 L
5892  336 mt 5976  420 L
5976  336 mt 5892  420 L
6022  336 mt 6106  420 L
6106  336 mt 6022  420 L
gs 871 378 5194 4103 rc
24 w
/c8 { 0.210526 1.000000 1.000000 sr} bdef
c8
130 -246 130 -817 130 -989 130 -764 130 -328 129 -69 130 -41 130 -26 
130 17 130 26 130 17 129 -16 130 -10 130 -16 130 -8 130 2 
130 -2 129 1 130 6 130 23 130 67 130 311 129 576 130 635 
130 715 130 372 130 245 130 145 129 58 130 57 130 32 130 5 
130 -51 130 -149 129 -258 130 -250 130 -237 130 -610 130 -631 129 -29 
871 2792 41 MP stroke
12 w
130 -228 130 -870 130 -1203 130 -915 130 -420 129 -110 130 -54 130 27 
130 63 130 74 130 16 129 -47 130 -72 130 -35 130 -32 130 -14 
130 8 129 40 130 69 130 125 130 164 130 466 129 734 130 765 
130 719 130 324 130 200 130 116 129 50 130 45 130 28 130 6 
130 -41 130 -115 129 -205 130 -216 130 -217 130 -909 130 -895 129 -36 
871 3123 41 MP stroke
gr

c8
 829 3081 mt  913 3165 L
 913 3081 mt  829 3165 L
 958 3045 mt 1042 3129 L
1042 3045 mt  958 3129 L
1088 2150 mt 1172 2234 L
1172 2150 mt 1088 2234 L
1218 1241 mt 1302 1325 L
1302 1241 mt 1218 1325 L
1348 1024 mt 1432 1108 L
1432 1024 mt 1348 1108 L
1478  808 mt 1562  892 L
1562  808 mt 1478  892 L
1607  603 mt 1691  687 L
1691  603 mt 1607  687 L
1737  488 mt 1821  572 L
1821  488 mt 1737  572 L
1867  447 mt 1951  531 L
1951  447 mt 1867  531 L
1997  453 mt 2081  537 L
2081  453 mt 1997  537 L
2127  481 mt 2211  565 L
2211  481 mt 2127  565 L
2257  526 mt 2341  610 L
2341  526 mt 2257  610 L
2386  576 mt 2470  660 L
2470  576 mt 2386  660 L
2516  692 mt 2600  776 L
2600  692 mt 2516  776 L
2646  892 mt 2730  976 L
2730  892 mt 2646  976 L
2776 1216 mt 2860 1300 L
2860 1216 mt 2776 1300 L
2906 1935 mt 2990 2019 L
2990 1935 mt 2906 2019 L
3036 2700 mt 3120 2784 L
3120 2700 mt 3036 2784 L
3165 3434 mt 3249 3518 L
3249 3434 mt 3165 3518 L
3295 3900 mt 3379 3984 L
3379 3900 mt 3295 3984 L
3425 4064 mt 3509 4148 L
3509 4064 mt 3425 4148 L
3555 4189 mt 3639 4273 L
3639 4189 mt 3555 4273 L
3685 4258 mt 3769 4342 L
3769 4258 mt 3685 4342 L
3814 4298 mt 3898 4382 L
3898 4298 mt 3814 4382 L
3944 4306 mt 4028 4390 L
4028 4306 mt 3944 4390 L
4074 4292 mt 4158 4376 L
4158 4292 mt 4074 4376 L
4204 4260 mt 4288 4344 L
4288 4260 mt 4204 4344 L
4334 4225 mt 4418 4309 L
4418 4225 mt 4334 4309 L
4464 4153 mt 4548 4237 L
4548 4153 mt 4464 4237 L
4593 4106 mt 4677 4190 L
4677 4106 mt 4593 4190 L
4723 4122 mt 4807 4206 L
4807 4122 mt 4723 4206 L
4853 4196 mt 4937 4280 L
4937 4196 mt 4853 4280 L
4983 4259 mt 5067 4343 L
5067 4259 mt 4983 4343 L
5113 4286 mt 5197 4370 L
5197 4286 mt 5113 4370 L
5243 4232 mt 5327 4316 L
5327 4232 mt 5243 4316 L
5372 4122 mt 5456 4206 L
5456 4122 mt 5372 4206 L
5502 3702 mt 5586 3786 L
5586 3702 mt 5502 3786 L
5632 2787 mt 5716 2871 L
5716 2787 mt 5632 2871 L
5762 1584 mt 5846 1668 L
5846 1584 mt 5762 1668 L
5892  714 mt 5976  798 L
5976  714 mt 5892  798 L
6022  486 mt 6106  570 L
6106  486 mt 6022  570 L
gs 871 378 5194 4103 rc
24 w
/c9 { 1.000000 0.123711 1.000000 sr} bdef
c9
130 -1 130 -1 130 -1 130 -1 130 -1 129 -1 130 -1 130 -2 
130 -2 130 -3 130 -3 129 -3 130 -3 130 -3 130 -11 130 -48 
130 -299 129 -606 130 -826 130 -836 130 -455 130 -382 129 -68 130 80 
130 -35 130 26 130 213 130 319 129 160 130 255 130 378 130 383 
130 395 130 256 129 179 130 81 130 -62 130 -334 130 -427 129 -29 
871 2112 41 MP stroke
12 w
130 0 130 -2 130 -1 130 0 130 -1 129 0 130 -1 130 -1 
130 -1 130 -3 130 -1 129 -1 130 -1 130 -1 130 -8 130 -39 
130 -247 129 -522 130 -842 130 -987 130 -554 130 -516 129 -110 130 80 
130 -47 130 35 130 311 130 443 129 226 130 321 130 453 130 447 
130 426 130 251 129 168 130 76 130 -29 130 -464 130 -971 129 -49 
871 2543 41 MP stroke
gr

c9
 829 2501 mt  913 2585 L
 913 2501 mt  829 2585 L
 958 2452 mt 1042 2536 L
1042 2452 mt  958 2536 L
1088 1481 mt 1172 1565 L
1172 1481 mt 1088 1565 L
1218 1017 mt 1302 1101 L
1302 1017 mt 1218 1101 L
1348  988 mt 1432 1072 L
1432  988 mt 1348 1072 L
1478 1064 mt 1562 1148 L
1562 1064 mt 1478 1148 L
1607 1232 mt 1691 1316 L
1691 1232 mt 1607 1316 L
1737 1483 mt 1821 1567 L
1821 1483 mt 1737 1567 L
1867 1909 mt 1951 1993 L
1951 1909 mt 1867 1993 L
1997 2356 mt 2081 2440 L
2081 2356 mt 1997 2440 L
2127 2809 mt 2211 2893 L
2211 2809 mt 2127 2893 L
2257 3130 mt 2341 3214 L
2341 3130 mt 2257 3214 L
2386 3356 mt 2470 3440 L
2470 3356 mt 2386 3440 L
2516 3799 mt 2600 3883 L
2600 3799 mt 2516 3883 L
2646 4110 mt 2730 4194 L
2730 4110 mt 2646 4194 L
2776 4145 mt 2860 4229 L
2860 4145 mt 2776 4229 L
2906 4098 mt 2990 4182 L
2990 4098 mt 2906 4182 L
3036 4178 mt 3120 4262 L
3120 4178 mt 3036 4262 L
3165 4068 mt 3249 4152 L
3249 4068 mt 3165 4152 L
3295 3552 mt 3379 3636 L
3379 3552 mt 3295 3636 L
3425 2998 mt 3509 3082 L
3509 2998 mt 3425 3082 L
3555 2011 mt 3639 2095 L
3639 2011 mt 3555 2095 L
3685 1169 mt 3769 1253 L
3769 1169 mt 3685 1253 L
3814  647 mt 3898  731 L
3898  647 mt 3814  731 L
3944  400 mt 4028  484 L
4028  400 mt 3944  484 L
4074  361 mt 4158  445 L
4158  361 mt 4074  445 L
4204  353 mt 4288  437 L
4288  353 mt 4204  437 L
4334  352 mt 4418  436 L
4418  352 mt 4334  436 L
4464  351 mt 4548  435 L
4548  351 mt 4464  435 L
4593  350 mt 4677  434 L
4677  350 mt 4593  434 L
4723  349 mt 4807  433 L
4807  349 mt 4723  433 L
4853  346 mt 4937  430 L
4937  346 mt 4853  430 L
4983  345 mt 5067  429 L
5067  345 mt 4983  429 L
5113  344 mt 5197  428 L
5197  344 mt 5113  428 L
5243  343 mt 5327  427 L
5327  343 mt 5243  427 L
5372  343 mt 5456  427 L
5456  343 mt 5372  427 L
5502  342 mt 5586  426 L
5586  342 mt 5502  426 L
5632  342 mt 5716  426 L
5716  342 mt 5632  426 L
5762  341 mt 5846  425 L
5846  341 mt 5762  425 L
5892  339 mt 5976  423 L
5976  339 mt 5892  423 L
6022  339 mt 6106  423 L
6106  339 mt 6022  423 L
gs 871 378 5194 4103 rc
24 w
/c10 { 1.000000 1.000000 0.123711 sr} bdef
c10
130 0 130 -1 130 0 130 0 130 0 129 0 130 0 130 0 
130 0 130 0 130 0 129 -1 130 1 130 0 130 0 130 0 
130 -1 129 0 130 -1 130 0 130 0 130 -1 129 -2 130 -4 
130 -28 130 -65 130 -168 130 -372 129 -387 130 -733 130 -686 130 -429 
130 -241 130 -81 129 -41 130 -3 130 -3 130 75 130 280 129 -6 
871 3283 41 MP stroke
12 w
130 0 130 0 130 0 130 0 130 0 129 0 130 0 130 0 
130 0 130 0 130 0 129 0 130 0 130 0 130 0 130 0 
130 0 129 0 130 0 130 0 130 0 130 0 129 0 130 0 
130 -19 130 -63 130 -160 130 -375 129 -425 130 -896 130 -853 130 -561 
130 -361 130 -111 129 -53 130 -16 130 2 130 105 130 826 129 -30 
871 3368 41 MP stroke
gr

c10
 829 3326 mt  913 3410 L
 913 3326 mt  829 3410 L
 958 3296 mt 1042 3380 L
1042 3296 mt  958 3380 L
1088 4122 mt 1172 4206 L
1172 4122 mt 1088 4206 L
1218 4227 mt 1302 4311 L
1302 4227 mt 1218 4311 L
1348 4229 mt 1432 4313 L
1432 4229 mt 1348 4313 L
1478 4213 mt 1562 4297 L
1562 4213 mt 1478 4297 L
1607 4160 mt 1691 4244 L
1691 4160 mt 1607 4244 L
1737 4049 mt 1821 4133 L
1821 4049 mt 1737 4133 L
1867 3688 mt 1951 3772 L
1951 3688 mt 1867 3772 L
1997 3127 mt 2081 3211 L
2081 3127 mt 1997 3211 L
2127 2274 mt 2211 2358 L
2211 2274 mt 2127 2358 L
2257 1378 mt 2341 1462 L
2341 1378 mt 2257 1462 L
2386  953 mt 2470 1037 L
2470  953 mt 2386 1037 L
2516  578 mt 2600  662 L
2600  578 mt 2516  662 L
2646  418 mt 2730  502 L
2730  418 mt 2646  502 L
2776  355 mt 2860  439 L
2860  355 mt 2776  439 L
2906  336 mt 2990  420 L
2990  336 mt 2906  420 L
3036  336 mt 3120  420 L
3120  336 mt 3036  420 L
3165  336 mt 3249  420 L
3249  336 mt 3165  420 L
3295  336 mt 3379  420 L
3379  336 mt 3295  420 L
3425  336 mt 3509  420 L
3509  336 mt 3425  420 L
3555  336 mt 3639  420 L
3639  336 mt 3555  420 L
3685  336 mt 3769  420 L
3769  336 mt 3685  420 L
3814  336 mt 3898  420 L
3898  336 mt 3814  420 L
3944  336 mt 4028  420 L
4028  336 mt 3944  420 L
4074  336 mt 4158  420 L
4158  336 mt 4074  420 L
4204  336 mt 4288  420 L
4288  336 mt 4204  420 L
4334  336 mt 4418  420 L
4418  336 mt 4334  420 L
4464  336 mt 4548  420 L
4548  336 mt 4464  420 L
4593  336 mt 4677  420 L
4677  336 mt 4593  420 L
4723  336 mt 4807  420 L
4807  336 mt 4723  420 L
4853  336 mt 4937  420 L
4937  336 mt 4853  420 L
4983  336 mt 5067  420 L
5067  336 mt 4983  420 L
5113  336 mt 5197  420 L
5197  336 mt 5113  420 L
5243  336 mt 5327  420 L
5327  336 mt 5243  420 L
5372  336 mt 5456  420 L
5456  336 mt 5372  420 L
5502  336 mt 5586  420 L
5586  336 mt 5502  420 L
5632  336 mt 5716  420 L
5716  336 mt 5632  420 L
5762  336 mt 5846  420 L
5846  336 mt 5762  420 L
5892  336 mt 5976  420 L
5976  336 mt 5892  420 L
6022  336 mt 6106  420 L
6106  336 mt 6022  420 L
gs 871 378 5194 4103 rc
gr

0 sg
 830 4547 mt 
( ) s
6024  444 mt 
( ) s
6 w
1 sg
0 1432 1211 0 0 -1432 4186 2667 4 MP
PP
-1211 0 0 1432 1211 0 0 -1432 4186 2667 5 MP stroke
4 w
DO
SO
6 w
0 sg
4186 2667 mt 5397 2667 L
4186 1235 mt 5397 1235 L
4186 2667 mt 4186 1235 L
5397 2667 mt 5397 1235 L
4186 2667 mt 5397 2667 L
4186 2667 mt 4186 1235 L
4186 2667 mt 5397 2667 L
4186 1235 mt 5397 1235 L
4186 2667 mt 4186 1235 L
5397 2667 mt 5397 1235 L
4654 1385 mt 
(W) s
gs 4186 1235 1212 1433 rc
DA
24 w
0.3 sg
360 0 4258 1342 2 MP stroke
SO
gr

24 w
0.3 sg
0 sg
4654 1559 mt 
(W from Tran) s
gs 4186 1235 1212 1433 rc
12 w
0.3 sg
360 0 4258 1516 2 MP stroke
gr

12 w
0.3 sg
4396 1474 mt 4480 1558 L
4480 1474 mt 4396 1558 L
gs 4186 1235 1212 1433 rc
gr

0 sg
4654 1733 mt 
(C) s
gs 4186 1235 1212 1433 rc
24 w
c8
360 0 4258 1690 2 MP stroke
gr

24 w
c8
0 sg
4654 1907 mt 
(C from Tran) s
gs 4186 1235 1212 1433 rc
12 w
c8
360 0 4258 1864 2 MP stroke
gr

12 w
c8
4396 1822 mt 4480 1906 L
4480 1822 mt 4396 1906 L
gs 4186 1235 1212 1433 rc
gr

0 sg
4654 2080 mt 
(M) s
gs 4186 1235 1212 1433 rc
24 w
c9
360 0 4258 2037 2 MP stroke
gr

24 w
c9
0 sg
4654 2254 mt 
(M from Tran) s
gs 4186 1235 1212 1433 rc
12 w
c9
360 0 4258 2211 2 MP stroke
gr

12 w
c9
4396 2169 mt 4480 2253 L
4480 2169 mt 4396 2253 L
gs 4186 1235 1212 1433 rc
gr

0 sg
4654 2428 mt 
(Y) s
gs 4186 1235 1212 1433 rc
24 w
c10
360 0 4258 2385 2 MP stroke
gr

24 w
c10
0 sg
4654 2602 mt 
(Y from Tran) s
gs 4186 1235 1212 1433 rc
12 w
c10
360 0 4258 2559 2 MP stroke
gr

12 w
c10
4396 2517 mt 4480 2601 L
4480 2517 mt 4396 2601 L
gs 4186 1235 1212 1433 rc
6 w
gr

6 w

end %%Color Dict

eplot
%%EndObject

epage
end

showpage

%%Trailer
%%EOF
