%!PS-Adobe-3.0 EPSF-3.0
%%Creator: MATLAB, The MathWorks, Inc. Version 8.0.0.783 (R2012b). Operating System: Darwin 14.5.0 Darwin Kernel Version 14.5.0: Mon Aug 29 21:14:16 PDT 2016; root:xnu-2782.50.6~1/RELEASE_X86_64 x86_64.
%%Title: /Users/pgh/Documents/MATLAB/rectoverso/data/ID01/graphics/tu13-16PSM=0;ISM=0.01;PWS=Chart;AMM=1;ESC=0;WBW=0.25.eps
%%CreationDate: 10/03/2016  10:42:56
%%DocumentNeededFonts: Helvetica
%%DocumentProcessColors: Cyan Magenta Yellow Black
%%LanguageLevel: 2
%%Pages: 1
%%BoundingBox:    17   211   576   631
%%EndComments

%%BeginProlog
% MathWorks dictionary
/MathWorks 160 dict begin
% definition operators
/bdef {bind def} bind def
/ldef {load def} bind def
/xdef {exch def} bdef
/xstore {exch store} bdef
% operator abbreviations
/c  /clip ldef
/cc /concat ldef
/cp /closepath ldef
/gr /grestore ldef
/gs /gsave ldef
/mt /moveto ldef
/np /newpath ldef
/cm /currentmatrix ldef
/sm /setmatrix ldef
/rm /rmoveto ldef
/rl /rlineto ldef
/s {show newpath} bdef
/sc {setcmykcolor} bdef
/sr /setrgbcolor ldef
/sg /setgray ldef
/w /setlinewidth ldef
/j /setlinejoin ldef
/cap /setlinecap ldef
/rc {rectclip} bdef
/rf {rectfill} bdef
% page state control
/pgsv () def
/bpage {/pgsv save def} bdef
/epage {pgsv restore} bdef
/bplot /gsave ldef
/eplot {stroke grestore} bdef
% orientation switch
/portraitMode 0 def /landscapeMode 1 def /rotateMode 2 def
% coordinate system mappings
/dpi2point 0 def
% font control
/FontSize 0 def
/FMS {/FontSize xstore findfont [FontSize 0 0 FontSize neg 0 0]
  makefont setfont} bdef
/reencode {exch dup where {pop load} {pop StandardEncoding} ifelse
  exch dup 3 1 roll findfont dup length dict begin
  { 1 index /FID ne {def}{pop pop} ifelse } forall
  /Encoding exch def currentdict end definefont pop} bdef
/isroman {findfont /CharStrings get /Agrave known} bdef
/FMSR {3 1 roll 1 index dup isroman {reencode} {pop pop} ifelse
  exch FMS} bdef
/csm {1 dpi2point div -1 dpi2point div scale neg translate
 dup landscapeMode eq {pop -90 rotate}
  {rotateMode eq {90 rotate} if} ifelse} bdef
% line types: solid, dotted, dashed, dotdash
/SO { [] 0 setdash } bdef
/DO { [.5 dpi2point mul 4 dpi2point mul] 0 setdash } bdef
/DA { [6 dpi2point mul] 0 setdash } bdef
/DD { [.5 dpi2point mul 4 dpi2point mul 6 dpi2point mul 4
  dpi2point mul] 0 setdash } bdef
% macros for lines and objects
/L {lineto stroke} bdef
/MP {3 1 roll moveto 1 sub {rlineto} repeat} bdef
/AP {{rlineto} repeat} bdef
/PDlw -1 def
/W {/PDlw currentlinewidth def setlinewidth} def
/PP {closepath eofill} bdef
/DP {closepath stroke} bdef
/MR {4 -2 roll moveto dup  0 exch rlineto exch 0 rlineto
  neg 0 exch rlineto closepath} bdef
/FR {MR stroke} bdef
/PR {MR fill} bdef
/L1i {{currentfile picstr readhexstring pop} image} bdef
/tMatrix matrix def
/MakeOval {newpath tMatrix currentmatrix pop translate scale
0 0 1 0 360 arc tMatrix setmatrix} bdef
/FO {MakeOval stroke} bdef
/PO {MakeOval fill} bdef
/PD {currentlinewidth 2 div 0 360 arc fill
   PDlw -1 eq not {PDlw w /PDlw -1 def} if} def
/FA {newpath tMatrix currentmatrix pop translate scale
  0 0 1 5 -2 roll arc tMatrix setmatrix stroke} bdef
/PA {newpath tMatrix currentmatrix pop	translate 0 0 moveto scale
  0 0 1 5 -2 roll arc closepath tMatrix setmatrix fill} bdef
/FAn {newpath tMatrix currentmatrix pop translate scale
  0 0 1 5 -2 roll arcn tMatrix setmatrix stroke} bdef
/PAn {newpath tMatrix currentmatrix pop translate 0 0 moveto scale
  0 0 1 5 -2 roll arcn closepath tMatrix setmatrix fill} bdef
/vradius 0 def /hradius 0 def /lry 0 def
/lrx 0 def /uly 0 def /ulx 0 def /rad 0 def
/MRR {/vradius xdef /hradius xdef /lry xdef /lrx xdef /uly xdef
  /ulx xdef newpath tMatrix currentmatrix pop ulx hradius add uly
  vradius add translate hradius vradius scale 0 0 1 180 270 arc 
  tMatrix setmatrix lrx hradius sub uly vradius add translate
  hradius vradius scale 0 0 1 270 360 arc tMatrix setmatrix
  lrx hradius sub lry vradius sub translate hradius vradius scale
  0 0 1 0 90 arc tMatrix setmatrix ulx hradius add lry vradius sub
  translate hradius vradius scale 0 0 1 90 180 arc tMatrix setmatrix
  closepath} bdef
/FRR {MRR stroke } bdef
/PRR {MRR fill } bdef
/MlrRR {/lry xdef /lrx xdef /uly xdef /ulx xdef /rad lry uly sub 2 div def
  newpath tMatrix currentmatrix pop ulx rad add uly rad add translate
  rad rad scale 0 0 1 90 270 arc tMatrix setmatrix lrx rad sub lry rad
  sub translate rad rad scale 0 0 1 270 90 arc tMatrix setmatrix
  closepath} bdef
/FlrRR {MlrRR stroke } bdef
/PlrRR {MlrRR fill } bdef
/MtbRR {/lry xdef /lrx xdef /uly xdef /ulx xdef /rad lrx ulx sub 2 div def
  newpath tMatrix currentmatrix pop ulx rad add uly rad add translate
  rad rad scale 0 0 1 180 360 arc tMatrix setmatrix lrx rad sub lry rad
  sub translate rad rad scale 0 0 1 0 180 arc tMatrix setmatrix
  closepath} bdef
/FtbRR {MtbRR stroke } bdef
/PtbRR {MtbRR fill } bdef
/stri 6 array def /dtri 6 array def
/smat 6 array def /dmat 6 array def
/tmat1 6 array def /tmat2 6 array def /dif 3 array def
/asub {/ind2 exch def /ind1 exch def dup dup
  ind1 get exch ind2 get sub exch } bdef
/tri_to_matrix {
  2 0 asub 3 1 asub 4 0 asub 5 1 asub
  dup 0 get exch 1 get 7 -1 roll astore } bdef
/compute_transform {
  dmat dtri tri_to_matrix tmat1 invertmatrix 
  smat stri tri_to_matrix tmat2 concatmatrix } bdef
/ds {stri astore pop} bdef
/dt {dtri astore pop} bdef
/db {2 copy /cols xdef /rows xdef mul dup 3 mul string
  currentfile 
  3 index 0 eq {/ASCIIHexDecode filter}
  {/ASCII85Decode filter 3 index 2 eq {/RunLengthDecode filter} if }
  ifelse exch readstring pop
  dup 0 3 index getinterval /rbmap xdef
  dup 2 index dup getinterval /gbmap xdef
  1 index dup 2 mul exch getinterval /bbmap xdef pop pop}bdef
/it {gs np dtri aload pop moveto lineto lineto cp c
  cols rows 8 compute_transform 
  rbmap gbmap bbmap true 3 colorimage gr}bdef
/il {newpath moveto lineto stroke}bdef
currentdict end def
%%EndProlog

%%BeginSetup
MathWorks begin

0 cap

end
%%EndSetup

%%Page: 1 1
%%BeginPageSetup
%%PageBoundingBox:    17   211   576   631
MathWorks begin
bpage
%%EndPageSetup

%%BeginObject: obj1
bplot

/dpi2point 12 def
portraitMode 0204 7572 csm

    0     0  6712  5034 rc
87 dict begin %Colortable dictionary
/c0 { 0.000000 0.000000 0.000000 sr} bdef
/c1 { 1.000000 1.000000 1.000000 sr} bdef
/c2 { 0.900000 0.000000 0.000000 sr} bdef
/c3 { 0.000000 0.820000 0.000000 sr} bdef
/c4 { 0.000000 0.000000 0.800000 sr} bdef
/c5 { 0.910000 0.820000 0.320000 sr} bdef
/c6 { 1.000000 0.260000 0.820000 sr} bdef
/c7 { 0.000000 0.820000 0.820000 sr} bdef
c0
1 j
1 sg
   0    0 6713 5035 rf
6 w
0 4103 5201 0 0 -4103 873 4480 4 MP
PP
-5201 0 0 4103 5201 0 0 -4103 873 4480 5 MP stroke
4 w
DO
0 sg
1133 4480 mt 1133  378 L
1133  378 mt 1133  378 L
1783 4480 mt 1783  378 L
1783  378 mt 1783  378 L
2433 4480 mt 2433  378 L
2433  378 mt 2433  378 L
3083 4480 mt 3083  378 L
3083  378 mt 3083  378 L
3733 4480 mt 3733  378 L
3733  378 mt 3733  378 L
4383 4480 mt 4383  378 L
4383  378 mt 4383  378 L
5033 4480 mt 5033  378 L
5033  378 mt 5033  378 L
5683 4480 mt 5683  378 L
5683  378 mt 5683  378 L
 873 4480 mt 6074 4480 L
6074 4480 mt 6074 4480 L
 873 3835 mt 6074 3835 L
6074 3835 mt 6074 3835 L
 873 3191 mt 6074 3191 L
6074 3191 mt 6074 3191 L
 873 2547 mt 6074 2547 L
6074 2547 mt 6074 2547 L
 873 1902 mt 6074 1902 L
6074 1902 mt 6074 1902 L
 873 1258 mt 6074 1258 L
6074 1258 mt 6074 1258 L
 873  614 mt 6074  614 L
6074  614 mt 6074  614 L
SO
6 w
 873 4480 mt 6074 4480 L
 873 4480 mt  873  377 L
1133 4480 mt 1133 4427 L
%%IncludeResource: font Helvetica
/Helvetica /ISOLatin1Encoding 120 FMSR

1033 4625 mt 
(400) s
1783 4480 mt 1783 4427 L
1683 4625 mt 
(450) s
2433 4480 mt 2433 4427 L
2333 4625 mt 
(500) s
3083 4480 mt 3083 4427 L
2983 4625 mt 
(550) s
3733 4480 mt 3733 4427 L
3633 4625 mt 
(600) s
4383 4480 mt 4383 4427 L
4283 4625 mt 
(650) s
5033 4480 mt 5033 4427 L
4933 4625 mt 
(700) s
5683 4480 mt 5683 4427 L
5583 4625 mt 
(750) s
 873 4480 mt  925 4480 L
 772 4524 mt 
(0) s
 873 3835 mt  925 3835 L
 605 3879 mt 
(0.05) s
 873 3191 mt  925 3191 L
 672 3235 mt 
(0.1) s
 873 2547 mt  925 2547 L
 605 2591 mt 
(0.15) s
 873 1902 mt  925 1902 L
 672 1946 mt 
(0.2) s
 873 1258 mt  925 1258 L
 605 1302 mt 
(0.25) s
 873  614 mt  925  614 L
 672  658 mt 
(0.3) s
2399  283 mt 
(Ink layer t_u ID01/ SCATTER MODEL=0) s
gs 873 378 5202 4103 rc
24 w
/c8 { 0.000000 0.000000 0.500000 sr} bdef
c8
130 -28 873 406 2 MP stroke
gr

24 w
c8
873 406 PD
gs 873 378 5202 4103 rc
131 70 130 -77 130 -166 130 -178 130 -98 130 -96 130 -102 130 -3 
130 -110 130 110 130 2 130 2 130 8 130 4 130 4 130 8 
130 6 130 4 130 3 130 1 130 -2 130 0 130 -3 130 -5 
130 -6 130 -7 130 -5 130 100 130 0 130 99 130 6 130 104 
130 112 130 187 130 11 130 73 130 106 130 359 130 839 1003 378 40 MP stroke
gr

1133 1217 PD
1263 1576 PD
1393 1682 PD
1523 1755 PD
1653 1766 PD
1783 1953 PD
1913 2065 PD
2043 2169 PD
2173 2175 PD
2303 2274 PD
2433 2274 PD
2563 2374 PD
2693 2369 PD
2823 2362 PD
2953 2356 PD
3083 2351 PD
3213 2348 PD
3343 2348 PD
3473 2346 PD
3603 2347 PD
3733 2350 PD
3863 2354 PD
3993 2360 PD
4123 2368 PD
4253 2372 PD
4383 2376 PD
4513 2384 PD
4643 2386 PD
4773 2388 PD
4903 2498 PD
5033 2388 PD
5163 2385 PD
5293 2283 PD
5423 2187 PD
5553 2089 PD
5683 1911 PD
5813 1745 PD
5943 1668 PD
6074 1738 PD
gs 873 378 5202 4103 rc
12 w
131 -150 130 -261 130 -216 130 -151 130 -58 130 -32 130 -3 130 -8 
130 8 130 12 130 9 130 -8 130 -12 130 -4 130 -8 130 -4 
130 4 130 0 130 0 130 -3 130 0 130 -3 130 3 130 4 
130 4 130 5 130 25 130 37 130 11 130 24 130 46 130 44 
130 -1 130 -22 130 -53 130 -50 130 -13 130 -64 130 234 130 -6 
873 4248 41 MP stroke
gr

12 w
 831 4206 mt  915 4290 L
 915 4206 mt  831 4290 L
 961 4200 mt 1045 4284 L
1045 4200 mt  961 4284 L
1091 4434 mt 1175 4518 L
1175 4434 mt 1091 4518 L
1221 4370 mt 1305 4454 L
1305 4370 mt 1221 4454 L
1351 4357 mt 1435 4441 L
1435 4357 mt 1351 4441 L
1481 4307 mt 1565 4391 L
1565 4307 mt 1481 4391 L
1611 4254 mt 1695 4338 L
1695 4254 mt 1611 4338 L
1741 4232 mt 1825 4316 L
1825 4232 mt 1741 4316 L
1871 4231 mt 1955 4315 L
1955 4231 mt 1871 4315 L
2001 4275 mt 2085 4359 L
2085 4275 mt 2001 4359 L
2131 4321 mt 2215 4405 L
2215 4321 mt 2131 4405 L
2261 4345 mt 2345 4429 L
2345 4345 mt 2261 4429 L
2391 4356 mt 2475 4440 L
2475 4356 mt 2391 4440 L
2521 4393 mt 2605 4477 L
2605 4393 mt 2521 4477 L
2651 4418 mt 2735 4502 L
2735 4418 mt 2651 4502 L
2781 4423 mt 2865 4507 L
2865 4423 mt 2781 4507 L
2911 4427 mt 2995 4511 L
2995 4427 mt 2911 4511 L
3041 4431 mt 3125 4515 L
3125 4431 mt 3041 4515 L
3171 4434 mt 3255 4518 L
3255 4434 mt 3171 4518 L
3301 4431 mt 3385 4515 L
3385 4431 mt 3301 4515 L
3431 4431 mt 3515 4515 L
3515 4431 mt 3431 4515 L
3561 4428 mt 3645 4512 L
3645 4428 mt 3561 4512 L
3691 4428 mt 3775 4512 L
3775 4428 mt 3691 4512 L
3821 4428 mt 3905 4512 L
3905 4428 mt 3821 4512 L
3951 4432 mt 4035 4516 L
4035 4432 mt 3951 4516 L
4081 4428 mt 4165 4512 L
4165 4428 mt 4081 4512 L
4211 4420 mt 4295 4504 L
4295 4420 mt 4211 4504 L
4341 4416 mt 4425 4500 L
4425 4416 mt 4341 4500 L
4471 4404 mt 4555 4488 L
4555 4404 mt 4471 4488 L
4601 4396 mt 4685 4480 L
4685 4396 mt 4601 4480 L
4731 4405 mt 4815 4489 L
4815 4405 mt 4731 4489 L
4861 4417 mt 4945 4501 L
4945 4417 mt 4861 4501 L
4991 4425 mt 5075 4509 L
5075 4425 mt 4991 4509 L
5121 4417 mt 5205 4501 L
5205 4417 mt 5121 4501 L
5251 4414 mt 5335 4498 L
5335 4414 mt 5251 4498 L
5381 4382 mt 5465 4466 L
5465 4382 mt 5381 4466 L
5511 4324 mt 5595 4408 L
5595 4324 mt 5511 4408 L
5641 4173 mt 5725 4257 L
5725 4173 mt 5641 4257 L
5771 3957 mt 5855 4041 L
5855 3957 mt 5771 4041 L
5901 3696 mt 5985 3780 L
5985 3696 mt 5901 3780 L
6032 3546 mt 6116 3630 L
6116 3546 mt 6032 3630 L
gs 873 378 5202 4103 rc
24 w
/c9 { 0.000000 0.500000 0.000000 sr} bdef
c9
131 -9 130 -73 130 -155 130 -166 130 -179 130 -91 130 1 130 -99 
130 -3 130 2 130 1 130 3 130 107 130 6 130 4 130 8 
130 7 130 5 130 100 130 1 130 -2 130 92 130 86 130 162 
130 148 130 66 130 132 130 62 130 -2 130 -67 130 -65 130 -135 
130 -135 130 -153 130 9 130 76 130 41 130 168 130 752 130 -20 
873 824 41 MP stroke
gr

24 w
c9
873 824 PD
1003 804 PD
1133 1556 PD
1263 1724 PD
1393 1765 PD
1523 1841 PD
1653 1850 PD
1783 1697 PD
1913 1562 PD
2043 1427 PD
2173 1362 PD
2303 1295 PD
2433 1293 PD
2563 1355 PD
2693 1487 PD
2823 1553 PD
2953 1701 PD
3083 1863 PD
3213 1949 PD
3343 2041 PD
3473 2039 PD
3603 2040 PD
3733 2140 PD
3863 2145 PD
3993 2152 PD
4123 2160 PD
4253 2164 PD
4383 2170 PD
4513 2277 PD
4643 2280 PD
4773 2281 PD
4903 2283 PD
5033 2280 PD
5163 2181 PD
5293 2182 PD
5423 2091 PD
5553 1912 PD
5683 1746 PD
5813 1591 PD
5943 1518 PD
6074 1509 PD
gs 873 378 5202 4103 rc
12 w
131 -138 130 -234 130 -209 130 -139 130 -66 130 -20 130 0 130 -7 
130 12 130 4 130 1 130 -13 130 -3 130 -4 130 -8 130 4 
130 0 130 0 130 5 130 14 130 14 130 28 130 57 130 59 
130 46 130 13 130 0 130 -46 130 -38 130 -55 130 -35 130 -36 
130 -36 130 0 130 0 130 0 130 0 130 51 130 -51 130 0 
873 4476 41 MP stroke
gr

12 w
 831 4434 mt  915 4518 L
 915 4434 mt  831 4518 L
 961 4434 mt 1045 4518 L
1045 4434 mt  961 4518 L
1091 4383 mt 1175 4467 L
1175 4383 mt 1091 4467 L
1221 4434 mt 1305 4518 L
1305 4434 mt 1221 4518 L
1351 4434 mt 1435 4518 L
1435 4434 mt 1351 4518 L
1481 4434 mt 1565 4518 L
1565 4434 mt 1481 4518 L
1611 4434 mt 1695 4518 L
1695 4434 mt 1611 4518 L
1741 4434 mt 1825 4518 L
1825 4434 mt 1741 4518 L
1871 4398 mt 1955 4482 L
1955 4398 mt 1871 4482 L
2001 4362 mt 2085 4446 L
2085 4362 mt 2001 4446 L
2131 4327 mt 2215 4411 L
2215 4327 mt 2131 4411 L
2261 4272 mt 2345 4356 L
2345 4272 mt 2261 4356 L
2391 4234 mt 2475 4318 L
2475 4234 mt 2391 4318 L
2521 4188 mt 2605 4272 L
2605 4188 mt 2521 4272 L
2651 4188 mt 2735 4272 L
2735 4188 mt 2651 4272 L
2781 4201 mt 2865 4285 L
2865 4201 mt 2781 4285 L
2911 4247 mt 2995 4331 L
2995 4247 mt 2911 4331 L
3041 4306 mt 3125 4390 L
3125 4306 mt 3041 4390 L
3171 4363 mt 3255 4447 L
3255 4363 mt 3171 4447 L
3301 4391 mt 3385 4475 L
3385 4391 mt 3301 4475 L
3431 4405 mt 3515 4489 L
3515 4405 mt 3431 4489 L
3561 4419 mt 3645 4503 L
3645 4419 mt 3561 4503 L
3691 4424 mt 3775 4508 L
3775 4424 mt 3691 4508 L
3821 4424 mt 3905 4508 L
3905 4424 mt 3821 4508 L
3951 4424 mt 4035 4508 L
4035 4424 mt 3951 4508 L
4081 4428 mt 4165 4512 L
4165 4428 mt 4081 4512 L
4211 4420 mt 4295 4504 L
4295 4420 mt 4211 4504 L
4341 4416 mt 4425 4500 L
4425 4416 mt 4341 4500 L
4471 4413 mt 4555 4497 L
4555 4413 mt 4471 4497 L
4601 4400 mt 4685 4484 L
4685 4400 mt 4601 4484 L
4731 4401 mt 4815 4485 L
4815 4401 mt 4731 4485 L
4861 4405 mt 4945 4489 L
4945 4405 mt 4861 4489 L
4991 4417 mt 5075 4501 L
5075 4417 mt 4991 4501 L
5121 4410 mt 5205 4494 L
5205 4410 mt 5121 4494 L
5251 4410 mt 5335 4494 L
5335 4410 mt 5251 4494 L
5381 4390 mt 5465 4474 L
5465 4390 mt 5381 4474 L
5511 4324 mt 5595 4408 L
5595 4324 mt 5511 4408 L
5641 4185 mt 5725 4269 L
5725 4185 mt 5641 4269 L
5771 3976 mt 5855 4060 L
5855 3976 mt 5771 4060 L
5901 3742 mt 5985 3826 L
5985 3742 mt 5901 3826 L
6032 3604 mt 6116 3688 L
6116 3604 mt 6032 3688 L
gs 873 378 5202 4103 rc
24 w
/c10 { 0.500000 0.000000 0.000000 sr} bdef
c10
131 -91 130 1 130 -1 130 0 130 81 130 5 130 3 130 -1 
130 -2 130 2 130 2 130 3 130 91 130 5 130 5 130 10 
130 9 130 4 130 -78 130 -172 130 -5 130 -92 130 -4 130 -4 
130 84 130 80 130 77 130 155 130 73 130 2 130 4 130 -143 
130 -62 130 -72 130 -79 130 78 130 -27 130 215 130 705 130 -17 
873 976 41 MP stroke
gr

24 w
c10
873 976 PD
1003 959 PD
1133 1664 PD
1263 1879 PD
1393 1852 PD
1523 1930 PD
1653 1851 PD
1783 1779 PD
1913 1717 PD
2043 1574 PD
2173 1578 PD
2303 1580 PD
2433 1653 PD
2563 1808 PD
2693 1885 PD
2823 1965 PD
2953 2049 PD
3083 2045 PD
3213 2041 PD
3343 1949 PD
3473 1944 PD
3603 1772 PD
3733 1694 PD
3863 1698 PD
3993 1707 PD
4123 1717 PD
4253 1722 PD
4383 1727 PD
4513 1818 PD
4643 1821 PD
4773 1823 PD
4903 1825 PD
5033 1823 PD
5163 1822 PD
5293 1825 PD
5423 1830 PD
5553 1911 PD
5683 1911 PD
5813 1910 PD
5943 1911 PD
6074 1820 PD
gs 873 378 5202 4103 rc
12 w
131 -73 130 -35 130 -27 130 -23 130 -26 130 -17 130 -29 130 -23 
130 -29 130 -31 130 -31 130 -18 130 -24 130 -15 130 -28 130 -34 
130 -91 130 -127 130 -140 130 -130 130 -59 130 -59 130 -5 130 5 
130 -4 130 0 130 15 130 1 130 6 130 6 130 -15 130 -10 
130 1 130 -11 130 7 130 10 130 -4 130 15 130 78 130 -3 
873 4364 41 MP stroke
gr

12 w
 831 4322 mt  915 4406 L
 915 4322 mt  831 4406 L
 961 4319 mt 1045 4403 L
1045 4319 mt  961 4403 L
1091 4397 mt 1175 4481 L
1175 4397 mt 1091 4481 L
1221 4412 mt 1305 4496 L
1305 4412 mt 1221 4496 L
1351 4408 mt 1435 4492 L
1435 4408 mt 1351 4492 L
1481 4418 mt 1565 4502 L
1565 4418 mt 1481 4502 L
1611 4425 mt 1695 4509 L
1695 4425 mt 1611 4509 L
1741 4414 mt 1825 4498 L
1825 4414 mt 1741 4498 L
1871 4415 mt 1955 4499 L
1955 4415 mt 1871 4499 L
2001 4405 mt 2085 4489 L
2085 4405 mt 2001 4489 L
2131 4390 mt 2215 4474 L
2215 4390 mt 2131 4474 L
2261 4396 mt 2345 4480 L
2345 4396 mt 2261 4480 L
2391 4402 mt 2475 4486 L
2475 4402 mt 2391 4486 L
2521 4403 mt 2605 4487 L
2605 4403 mt 2521 4487 L
2651 4418 mt 2735 4502 L
2735 4418 mt 2651 4502 L
2781 4418 mt 2865 4502 L
2865 4418 mt 2781 4502 L
2911 4414 mt 2995 4498 L
2995 4414 mt 2911 4498 L
3041 4419 mt 3125 4503 L
3125 4419 mt 3041 4503 L
3171 4414 mt 3255 4498 L
3255 4414 mt 3171 4498 L
3301 4355 mt 3385 4439 L
3385 4355 mt 3301 4439 L
3431 4296 mt 3515 4380 L
3515 4296 mt 3431 4380 L
3561 4166 mt 3645 4250 L
3645 4166 mt 3561 4250 L
3691 4026 mt 3775 4110 L
3775 4026 mt 3691 4110 L
3821 3899 mt 3905 3983 L
3905 3899 mt 3821 3983 L
3951 3808 mt 4035 3892 L
4035 3808 mt 3951 3892 L
4081 3774 mt 4165 3858 L
4165 3774 mt 4081 3858 L
4211 3746 mt 4295 3830 L
4295 3746 mt 4211 3830 L
4341 3731 mt 4425 3815 L
4425 3731 mt 4341 3815 L
4471 3707 mt 4555 3791 L
4555 3707 mt 4471 3791 L
4601 3689 mt 4685 3773 L
4685 3689 mt 4601 3773 L
4731 3658 mt 4815 3742 L
4815 3658 mt 4731 3742 L
4861 3627 mt 4945 3711 L
4945 3627 mt 4861 3711 L
4991 3598 mt 5075 3682 L
5075 3598 mt 4991 3682 L
5121 3575 mt 5205 3659 L
5205 3575 mt 5121 3659 L
5251 3546 mt 5335 3630 L
5335 3546 mt 5251 3630 L
5381 3529 mt 5465 3613 L
5465 3529 mt 5381 3613 L
5511 3503 mt 5595 3587 L
5595 3503 mt 5511 3587 L
5641 3480 mt 5725 3564 L
5725 3480 mt 5641 3564 L
5771 3453 mt 5855 3537 L
5855 3453 mt 5771 3537 L
5901 3418 mt 5985 3502 L
5985 3418 mt 5901 3502 L
6032 3345 mt 6116 3429 L
6116 3345 mt 6032 3429 L
gs 873 378 5202 4103 rc
24 w
0 sg
131 62 130 -144 130 -236 130 -171 130 -94 130 -90 130 1 130 -99 
130 -3 130 2 130 2 130 101 130 9 130 5 130 5 130 102 
130 -87 130 3 130 4 130 1 130 -3 130 0 130 -2 130 90 
130 -6 130 85 130 163 130 77 130 76 130 78 130 5 130 -66 
130 -58 130 -68 130 -76 130 -9 130 126 130 271 130 913 130 -23 
873 563 41 MP stroke
gr

24 w
0 sg
873 563 PD
1003 540 PD
1133 1453 PD
1263 1724 PD
1393 1850 PD
1523 1841 PD
1653 1765 PD
1783 1697 PD
1913 1639 PD
2043 1573 PD
2173 1578 PD
2303 1656 PD
2433 1732 PD
2563 1809 PD
2693 1972 PD
2823 2057 PD
2953 2051 PD
3083 2141 PD
3213 2139 PD
3343 2139 PD
3473 2136 PD
3603 2137 PD
3733 2141 PD
3863 2144 PD
3993 2057 PD
4123 2159 PD
4253 2164 PD
4383 2169 PD
4513 2178 PD
4643 2279 PD
4773 2281 PD
4903 2283 PD
5033 2280 PD
5163 2181 PD
5293 2182 PD
5423 2092 PD
5553 1998 PD
5683 1827 PD
5813 1591 PD
5943 1447 PD
6074 1509 PD
gs 873 378 5202 4103 rc
12 w
131 -119 130 -249 130 -232 130 -151 130 -81 130 -20 130 -4 130 1 
130 12 130 9 130 -4 130 -4 130 -8 130 -12 130 -4 130 -4 
130 5 130 -5 130 1 130 -5 130 -4 130 0 130 1 130 0 
130 4 130 5 130 15 130 6 130 -4 130 0 130 1 130 7 
130 -37 130 -4 130 0 130 0 130 0 130 0 130 115 130 -3 
873 4364 41 MP stroke
gr

12 w
 831 4322 mt  915 4406 L
 915 4322 mt  831 4406 L
 961 4319 mt 1045 4403 L
1045 4319 mt  961 4403 L
1091 4434 mt 1175 4518 L
1175 4434 mt 1091 4518 L
1221 4434 mt 1305 4518 L
1305 4434 mt 1221 4518 L
1351 4434 mt 1435 4518 L
1435 4434 mt 1351 4518 L
1481 4434 mt 1565 4518 L
1565 4434 mt 1481 4518 L
1611 4434 mt 1695 4518 L
1695 4434 mt 1611 4518 L
1741 4430 mt 1825 4514 L
1825 4430 mt 1741 4514 L
1871 4393 mt 1955 4477 L
1955 4393 mt 1871 4477 L
2001 4400 mt 2085 4484 L
2085 4400 mt 2001 4484 L
2131 4401 mt 2215 4485 L
2215 4401 mt 2131 4485 L
2261 4401 mt 2345 4485 L
2345 4401 mt 2261 4485 L
2391 4397 mt 2475 4481 L
2475 4397 mt 2391 4481 L
2521 4403 mt 2605 4487 L
2605 4403 mt 2521 4487 L
2651 4418 mt 2735 4502 L
2735 4418 mt 2651 4502 L
2781 4423 mt 2865 4507 L
2865 4423 mt 2781 4507 L
2911 4427 mt 2995 4511 L
2995 4427 mt 2911 4511 L
3041 4427 mt 3125 4511 L
3125 4427 mt 3041 4511 L
3171 4428 mt 3255 4512 L
3255 4428 mt 3171 4512 L
3301 4428 mt 3385 4512 L
3385 4428 mt 3301 4512 L
3431 4424 mt 3515 4508 L
3515 4424 mt 3431 4508 L
3561 4419 mt 3645 4503 L
3645 4419 mt 3561 4503 L
3691 4420 mt 3775 4504 L
3775 4420 mt 3691 4504 L
3821 4415 mt 3905 4499 L
3905 4415 mt 3821 4499 L
3951 4420 mt 4035 4504 L
4035 4420 mt 3951 4504 L
4081 4416 mt 4165 4500 L
4165 4416 mt 4081 4500 L
4211 4412 mt 4295 4496 L
4295 4412 mt 4211 4496 L
4341 4400 mt 4425 4484 L
4425 4400 mt 4341 4484 L
4471 4392 mt 4555 4476 L
4555 4392 mt 4471 4476 L
4601 4388 mt 4685 4472 L
4685 4388 mt 4601 4472 L
4731 4384 mt 4815 4468 L
4815 4384 mt 4731 4468 L
4861 4393 mt 4945 4477 L
4945 4393 mt 4861 4477 L
4991 4405 mt 5075 4489 L
5075 4405 mt 4991 4489 L
5121 4406 mt 5205 4490 L
5205 4406 mt 5121 4490 L
5251 4402 mt 5335 4486 L
5335 4402 mt 5251 4486 L
5381 4382 mt 5465 4466 L
5465 4382 mt 5381 4466 L
5511 4301 mt 5595 4385 L
5595 4301 mt 5511 4385 L
5641 4150 mt 5725 4234 L
5725 4150 mt 5641 4234 L
5771 3918 mt 5855 4002 L
5855 3918 mt 5771 4002 L
5901 3669 mt 5985 3753 L
5985 3669 mt 5901 3753 L
6032 3550 mt 6116 3634 L
6116 3550 mt 6032 3634 L
gs 873 378 5202 4103 rc
gr

 832 4547 mt 
( ) s
6034  444 mt 
( ) s
6 w
1 sg
0 1432 1451 0 0 -1432 1006 3985 4 MP
PP
-1451 0 0 1432 1451 0 0 -1432 1006 3985 5 MP stroke
4 w
DO
SO
6 w
0 sg
1006 3985 mt 2457 3985 L
1006 2553 mt 2457 2553 L
1006 3985 mt 1006 2553 L
2457 3985 mt 2457 2553 L
1006 3985 mt 2457 3985 L
1006 3985 mt 1006 2553 L
1006 3985 mt 2457 3985 L
1006 2553 mt 2457 2553 L
1006 3985 mt 1006 2553 L
2457 3985 mt 2457 2553 L
1474 2703 mt 
(CMK) s
gs 1006 2553 1452 1433 rc
24 w
c8
360 0 1078 2660 2 MP stroke
gr

24 w
c8
1258 2660 PD
gs 1006 2553 1452 1433 rc
gr

0 sg
1474 2877 mt 
(CMK from Tran) s
gs 1006 2553 1452 1433 rc
12 w
c8
360 0 1078 2834 2 MP stroke
gr

12 w
c8
1216 2792 mt 1300 2876 L
1300 2792 mt 1216 2876 L
gs 1006 2553 1452 1433 rc
gr

0 sg
1474 3051 mt 
(CYK) s
gs 1006 2553 1452 1433 rc
24 w
c9
360 0 1078 3008 2 MP stroke
gr

24 w
c9
1258 3008 PD
gs 1006 2553 1452 1433 rc
gr

0 sg
1474 3225 mt 
(CYK from Tran) s
gs 1006 2553 1452 1433 rc
12 w
c9
360 0 1078 3182 2 MP stroke
gr

12 w
c9
1216 3140 mt 1300 3224 L
1300 3140 mt 1216 3224 L
gs 1006 2553 1452 1433 rc
gr

0 sg
1474 3398 mt 
(MYK) s
gs 1006 2553 1452 1433 rc
24 w
c10
360 0 1078 3355 2 MP stroke
gr

24 w
c10
1258 3355 PD
gs 1006 2553 1452 1433 rc
gr

0 sg
1474 3572 mt 
(MYK from Tran) s
gs 1006 2553 1452 1433 rc
12 w
c10
360 0 1078 3529 2 MP stroke
gr

12 w
c10
1216 3487 mt 1300 3571 L
1300 3487 mt 1216 3571 L
gs 1006 2553 1452 1433 rc
gr

0 sg
1474 3746 mt 
(CMYK) s
gs 1006 2553 1452 1433 rc
24 w
360 0 1078 3703 2 MP stroke
gr

24 w
1258 3703 PD
gs 1006 2553 1452 1433 rc
gr

1474 3920 mt 
(CMYK from Tran) s
gs 1006 2553 1452 1433 rc
12 w
360 0 1078 3877 2 MP stroke
gr

12 w
1216 3835 mt 1300 3919 L
1300 3835 mt 1216 3919 L
gs 1006 2553 1452 1433 rc
6 w
gr

6 w

end %%Color Dict

eplot
%%EndObject

epage
end

showpage

%%Trailer
%%EOF
