%!PS-Adobe-3.0 EPSF-3.0
%%Creator: MATLAB, The MathWorks, Inc. Version 8.0.0.783 (R2012b). Operating System: Darwin 14.5.0 Darwin Kernel Version 14.5.0: Mon Aug 29 21:14:16 PDT 2016; root:xnu-2782.50.6~1/RELEASE_X86_64 x86_64.
%%Title: /Users/pgh/Documents/MATLAB/rectoverso/data/ID01/graphics/tu13-16PSM=12;ISM=0.01;PWS=Chart;AMM=1;ESC=0;WBW=0.25.eps
%%CreationDate: 10/04/2016  10:19:53
%%DocumentNeededFonts: Helvetica
%%DocumentProcessColors: Cyan Magenta Yellow Black
%%LanguageLevel: 2
%%Pages: 1
%%BoundingBox:    17   211   575   631
%%EndComments

%%BeginProlog
% MathWorks dictionary
/MathWorks 160 dict begin
% definition operators
/bdef {bind def} bind def
/ldef {load def} bind def
/xdef {exch def} bdef
/xstore {exch store} bdef
% operator abbreviations
/c  /clip ldef
/cc /concat ldef
/cp /closepath ldef
/gr /grestore ldef
/gs /gsave ldef
/mt /moveto ldef
/np /newpath ldef
/cm /currentmatrix ldef
/sm /setmatrix ldef
/rm /rmoveto ldef
/rl /rlineto ldef
/s {show newpath} bdef
/sc {setcmykcolor} bdef
/sr /setrgbcolor ldef
/sg /setgray ldef
/w /setlinewidth ldef
/j /setlinejoin ldef
/cap /setlinecap ldef
/rc {rectclip} bdef
/rf {rectfill} bdef
% page state control
/pgsv () def
/bpage {/pgsv save def} bdef
/epage {pgsv restore} bdef
/bplot /gsave ldef
/eplot {stroke grestore} bdef
% orientation switch
/portraitMode 0 def /landscapeMode 1 def /rotateMode 2 def
% coordinate system mappings
/dpi2point 0 def
% font control
/FontSize 0 def
/FMS {/FontSize xstore findfont [FontSize 0 0 FontSize neg 0 0]
  makefont setfont} bdef
/reencode {exch dup where {pop load} {pop StandardEncoding} ifelse
  exch dup 3 1 roll findfont dup length dict begin
  { 1 index /FID ne {def}{pop pop} ifelse } forall
  /Encoding exch def currentdict end definefont pop} bdef
/isroman {findfont /CharStrings get /Agrave known} bdef
/FMSR {3 1 roll 1 index dup isroman {reencode} {pop pop} ifelse
  exch FMS} bdef
/csm {1 dpi2point div -1 dpi2point div scale neg translate
 dup landscapeMode eq {pop -90 rotate}
  {rotateMode eq {90 rotate} if} ifelse} bdef
% line types: solid, dotted, dashed, dotdash
/SO { [] 0 setdash } bdef
/DO { [.5 dpi2point mul 4 dpi2point mul] 0 setdash } bdef
/DA { [6 dpi2point mul] 0 setdash } bdef
/DD { [.5 dpi2point mul 4 dpi2point mul 6 dpi2point mul 4
  dpi2point mul] 0 setdash } bdef
% macros for lines and objects
/L {lineto stroke} bdef
/MP {3 1 roll moveto 1 sub {rlineto} repeat} bdef
/AP {{rlineto} repeat} bdef
/PDlw -1 def
/W {/PDlw currentlinewidth def setlinewidth} def
/PP {closepath eofill} bdef
/DP {closepath stroke} bdef
/MR {4 -2 roll moveto dup  0 exch rlineto exch 0 rlineto
  neg 0 exch rlineto closepath} bdef
/FR {MR stroke} bdef
/PR {MR fill} bdef
/L1i {{currentfile picstr readhexstring pop} image} bdef
/tMatrix matrix def
/MakeOval {newpath tMatrix currentmatrix pop translate scale
0 0 1 0 360 arc tMatrix setmatrix} bdef
/FO {MakeOval stroke} bdef
/PO {MakeOval fill} bdef
/PD {currentlinewidth 2 div 0 360 arc fill
   PDlw -1 eq not {PDlw w /PDlw -1 def} if} def
/FA {newpath tMatrix currentmatrix pop translate scale
  0 0 1 5 -2 roll arc tMatrix setmatrix stroke} bdef
/PA {newpath tMatrix currentmatrix pop	translate 0 0 moveto scale
  0 0 1 5 -2 roll arc closepath tMatrix setmatrix fill} bdef
/FAn {newpath tMatrix currentmatrix pop translate scale
  0 0 1 5 -2 roll arcn tMatrix setmatrix stroke} bdef
/PAn {newpath tMatrix currentmatrix pop translate 0 0 moveto scale
  0 0 1 5 -2 roll arcn closepath tMatrix setmatrix fill} bdef
/vradius 0 def /hradius 0 def /lry 0 def
/lrx 0 def /uly 0 def /ulx 0 def /rad 0 def
/MRR {/vradius xdef /hradius xdef /lry xdef /lrx xdef /uly xdef
  /ulx xdef newpath tMatrix currentmatrix pop ulx hradius add uly
  vradius add translate hradius vradius scale 0 0 1 180 270 arc 
  tMatrix setmatrix lrx hradius sub uly vradius add translate
  hradius vradius scale 0 0 1 270 360 arc tMatrix setmatrix
  lrx hradius sub lry vradius sub translate hradius vradius scale
  0 0 1 0 90 arc tMatrix setmatrix ulx hradius add lry vradius sub
  translate hradius vradius scale 0 0 1 90 180 arc tMatrix setmatrix
  closepath} bdef
/FRR {MRR stroke } bdef
/PRR {MRR fill } bdef
/MlrRR {/lry xdef /lrx xdef /uly xdef /ulx xdef /rad lry uly sub 2 div def
  newpath tMatrix currentmatrix pop ulx rad add uly rad add translate
  rad rad scale 0 0 1 90 270 arc tMatrix setmatrix lrx rad sub lry rad
  sub translate rad rad scale 0 0 1 270 90 arc tMatrix setmatrix
  closepath} bdef
/FlrRR {MlrRR stroke } bdef
/PlrRR {MlrRR fill } bdef
/MtbRR {/lry xdef /lrx xdef /uly xdef /ulx xdef /rad lrx ulx sub 2 div def
  newpath tMatrix currentmatrix pop ulx rad add uly rad add translate
  rad rad scale 0 0 1 180 360 arc tMatrix setmatrix lrx rad sub lry rad
  sub translate rad rad scale 0 0 1 0 180 arc tMatrix setmatrix
  closepath} bdef
/FtbRR {MtbRR stroke } bdef
/PtbRR {MtbRR fill } bdef
/stri 6 array def /dtri 6 array def
/smat 6 array def /dmat 6 array def
/tmat1 6 array def /tmat2 6 array def /dif 3 array def
/asub {/ind2 exch def /ind1 exch def dup dup
  ind1 get exch ind2 get sub exch } bdef
/tri_to_matrix {
  2 0 asub 3 1 asub 4 0 asub 5 1 asub
  dup 0 get exch 1 get 7 -1 roll astore } bdef
/compute_transform {
  dmat dtri tri_to_matrix tmat1 invertmatrix 
  smat stri tri_to_matrix tmat2 concatmatrix } bdef
/ds {stri astore pop} bdef
/dt {dtri astore pop} bdef
/db {2 copy /cols xdef /rows xdef mul dup 3 mul string
  currentfile 
  3 index 0 eq {/ASCIIHexDecode filter}
  {/ASCII85Decode filter 3 index 2 eq {/RunLengthDecode filter} if }
  ifelse exch readstring pop
  dup 0 3 index getinterval /rbmap xdef
  dup 2 index dup getinterval /gbmap xdef
  1 index dup 2 mul exch getinterval /bbmap xdef pop pop}bdef
/it {gs np dtri aload pop moveto lineto lineto cp c
  cols rows 8 compute_transform 
  rbmap gbmap bbmap true 3 colorimage gr}bdef
/il {newpath moveto lineto stroke}bdef
currentdict end def
%%EndProlog

%%BeginSetup
MathWorks begin

0 cap

end
%%EndSetup

%%Page: 1 1
%%BeginPageSetup
%%PageBoundingBox:    17   211   575   631
MathWorks begin
bpage
%%EndPageSetup

%%BeginObject: obj1
bplot

/dpi2point 12 def
portraitMode 0204 7572 csm

    0     0  6700  5034 rc
87 dict begin %Colortable dictionary
/c0 { 0.000000 0.000000 0.000000 sr} bdef
/c1 { 1.000000 1.000000 1.000000 sr} bdef
/c2 { 0.900000 0.000000 0.000000 sr} bdef
/c3 { 0.000000 0.820000 0.000000 sr} bdef
/c4 { 0.000000 0.000000 0.800000 sr} bdef
/c5 { 0.910000 0.820000 0.320000 sr} bdef
/c6 { 1.000000 0.260000 0.820000 sr} bdef
/c7 { 0.000000 0.820000 0.820000 sr} bdef
c0
1 j
1 sg
   0    0 6701 5035 rf
6 w
0 4102 5193 0 0 -4102 871 4480 4 MP
PP
-5193 0 0 4102 5193 0 0 -4102 871 4480 5 MP stroke
4 w
DO
0 sg
1130 4480 mt 1130  378 L
1130  378 mt 1130  378 L
1779 4480 mt 1779  378 L
1779  378 mt 1779  378 L
2428 4480 mt 2428  378 L
2428  378 mt 2428  378 L
3078 4480 mt 3078  378 L
3078  378 mt 3078  378 L
3727 4480 mt 3727  378 L
3727  378 mt 3727  378 L
4376 4480 mt 4376  378 L
4376  378 mt 4376  378 L
5025 4480 mt 5025  378 L
5025  378 mt 5025  378 L
5674 4480 mt 5674  378 L
5674  378 mt 5674  378 L
 871 4480 mt 6064 4480 L
6064 4480 mt 6064 4480 L
 871 3998 mt 6064 3998 L
6064 3998 mt 6064 3998 L
 871 3516 mt 6064 3516 L
6064 3516 mt 6064 3516 L
 871 3034 mt 6064 3034 L
6064 3034 mt 6064 3034 L
 871 2552 mt 6064 2552 L
6064 2552 mt 6064 2552 L
 871 2070 mt 6064 2070 L
6064 2070 mt 6064 2070 L
 871 1588 mt 6064 1588 L
6064 1588 mt 6064 1588 L
 871 1106 mt 6064 1106 L
6064 1106 mt 6064 1106 L
 871  624 mt 6064  624 L
6064  624 mt 6064  624 L
SO
6 w
 871 4480 mt 6064 4480 L
 871 4480 mt  871  378 L
1130 4480 mt 1130 4428 L
%%IncludeResource: font Helvetica
/Helvetica /ISOLatin1Encoding 120 FMSR

1030 4625 mt 
(400) s
1779 4480 mt 1779 4428 L
1679 4625 mt 
(450) s
2428 4480 mt 2428 4428 L
2328 4625 mt 
(500) s
3078 4480 mt 3078 4428 L
2978 4625 mt 
(550) s
3727 4480 mt 3727 4428 L
3627 4625 mt 
(600) s
4376 4480 mt 4376 4428 L
4276 4625 mt 
(650) s
5025 4480 mt 5025 4428 L
4925 4625 mt 
(700) s
5674 4480 mt 5674 4428 L
5574 4625 mt 
(750) s
 871 4480 mt  922 4480 L
 770 4524 mt 
(0) s
 871 3998 mt  922 3998 L
 603 4042 mt 
(0.01) s
 871 3516 mt  922 3516 L
 603 3560 mt 
(0.02) s
 871 3034 mt  922 3034 L
 603 3078 mt 
(0.03) s
 871 2552 mt  922 2552 L
 603 2596 mt 
(0.04) s
 871 2070 mt  922 2070 L
 603 2114 mt 
(0.05) s
 871 1588 mt  922 1588 L
 603 1632 mt 
(0.06) s
 871 1106 mt  922 1106 L
 603 1150 mt 
(0.07) s
 871  624 mt  922  624 L
 603  668 mt 
(0.08) s
2360  283 mt 
(Ink layer t_u ID01/ SCATTER MODEL=12) s
gs 871 378 5194 4103 rc
24 w
/c8 { 0.000000 0.000000 0.500000 sr} bdef
c8
130 -490 130 -986 130 -842 130 -433 130 -105 129 -24 130 -4 130 -1 
130 1 130 4 130 3 129 -3 130 -3 130 -2 130 -1 130 0 
130 0 129 0 130 0 130 0 130 0 130 0 129 0 130 1 
130 0 130 2 130 11 130 26 129 18 130 40 130 87 130 108 
130 13 130 -44 129 -121 130 -78 130 -14 130 40 130 182 129 -36 
871 3731 41 MP stroke
gr

24 w
c8
871 3731 PD
1000 3695 PD
1130 3877 PD
1260 3917 PD
1390 3903 PD
1520 3825 PD
1649 3704 PD
1779 3660 PD
1909 3673 PD
2039 3781 PD
2169 3868 PD
2299 3908 PD
2428 3926 PD
2558 3952 PD
2688 3963 PD
2818 3965 PD
2948 3965 PD
3078 3966 PD
3207 3966 PD
3337 3966 PD
3467 3966 PD
3597 3966 PD
3727 3966 PD
3856 3966 PD
3986 3966 PD
4116 3966 PD
4246 3965 PD
4376 3963 PD
4506 3960 PD
4635 3957 PD
4765 3960 PD
4895 3964 PD
5025 3965 PD
5155 3964 PD
5285 3960 PD
5414 3936 PD
5544 3831 PD
5674 3398 PD
5804 2556 PD
5934 1570 PD
6064 1080 PD
gs 871 378 5194 4103 rc
DO
130 -488 130 -994 130 -884 130 -604 130 -225 129 -119 130 -15 130 -29 
130 30 130 46 130 31 129 -29 130 -45 130 -15 130 -31 130 -15 
130 16 129 0 130 1 130 -17 130 0 130 -16 129 17 130 17 
130 18 130 19 130 91 130 137 129 43 130 93 130 169 130 172 
130 10 130 -50 129 -217 130 -195 130 -60 130 -254 130 1052 129 -517 
871 3934 41 MP stroke
SO
12 w
130 -555 130 -971 130 -821 130 -573 130 -219 129 -117 130 -15 130 -28 
130 29 130 47 130 31 129 -29 130 -46 130 -15 130 -29 130 -12 
130 13 129 0 130 0 130 -13 130 0 130 -10 129 11 130 14 
130 17 130 18 130 94 130 136 129 44 130 87 130 169 130 159 
130 -7 130 -80 129 -196 130 -182 130 -47 130 -237 130 913 129 -34 
871 3588 41 MP stroke
gr

12 w
 829 3546 mt  913 3630 L
 913 3546 mt  829 3630 L
 958 3512 mt 1042 3596 L
1042 3512 mt  958 3596 L
1088 4425 mt 1172 4509 L
1172 4425 mt 1088 4509 L
1218 4188 mt 1302 4272 L
1302 4188 mt 1218 4272 L
1348 4141 mt 1432 4225 L
1432 4141 mt 1348 4225 L
1478 3959 mt 1562 4043 L
1562 3959 mt 1478 4043 L
1607 3763 mt 1691 3847 L
1691 3763 mt 1607 3847 L
1737 3683 mt 1821 3767 L
1821 3683 mt 1737 3767 L
1867 3676 mt 1951 3760 L
1951 3676 mt 1867 3760 L
1997 3835 mt 2081 3919 L
2081 3835 mt 1997 3919 L
2127 4004 mt 2211 4088 L
2211 4004 mt 2127 4088 L
2257 4091 mt 2341 4175 L
2341 4091 mt 2257 4175 L
2386 4135 mt 2470 4219 L
2470 4135 mt 2386 4219 L
2516 4271 mt 2600 4355 L
2600 4271 mt 2516 4355 L
2646 4365 mt 2730 4449 L
2730 4365 mt 2646 4449 L
2776 4383 mt 2860 4467 L
2860 4383 mt 2776 4467 L
2906 4400 mt 2990 4484 L
2990 4400 mt 2906 4484 L
3036 4414 mt 3120 4498 L
3120 4414 mt 3036 4498 L
3165 4425 mt 3249 4509 L
3249 4425 mt 3165 4509 L
3295 4415 mt 3379 4499 L
3379 4415 mt 3295 4499 L
3425 4415 mt 3509 4499 L
3509 4415 mt 3425 4499 L
3555 4402 mt 3639 4486 L
3639 4402 mt 3555 4486 L
3685 4402 mt 3769 4486 L
3769 4402 mt 3685 4486 L
3814 4402 mt 3898 4486 L
3898 4402 mt 3814 4486 L
3944 4415 mt 4028 4499 L
4028 4415 mt 3944 4499 L
4074 4403 mt 4158 4487 L
4158 4403 mt 4074 4487 L
4204 4374 mt 4288 4458 L
4288 4374 mt 4204 4458 L
4334 4359 mt 4418 4443 L
4418 4359 mt 4334 4443 L
4464 4313 mt 4548 4397 L
4548 4313 mt 4464 4397 L
4593 4284 mt 4677 4368 L
4677 4284 mt 4593 4368 L
4723 4315 mt 4807 4399 L
4807 4315 mt 4723 4399 L
4853 4362 mt 4937 4446 L
4937 4362 mt 4853 4446 L
4983 4391 mt 5067 4475 L
5067 4391 mt 4983 4475 L
5113 4363 mt 5197 4447 L
5197 4363 mt 5113 4447 L
5243 4348 mt 5327 4432 L
5327 4348 mt 5243 4432 L
5372 4231 mt 5456 4315 L
5456 4231 mt 5372 4315 L
5502 4012 mt 5586 4096 L
5586 4012 mt 5502 4096 L
5632 3439 mt 5716 3523 L
5716 3439 mt 5632 3523 L
5762 2618 mt 5846 2702 L
5846 2618 mt 5762 2702 L
5892 1647 mt 5976 1731 L
5976 1647 mt 5892 1731 L
6022 1092 mt 6106 1176 L
6106 1092 mt 6022 1176 L
gs 871 378 5194 4103 rc
24 w
/c9 { 0.000000 0.500000 0.000000 sr} bdef
c9
130 -492 130 -882 130 -803 130 -449 130 -159 129 -43 130 -9 130 -4 
130 3 130 2 130 0 129 -4 130 -2 130 -2 130 -1 130 0 
130 1 129 0 130 3 130 7 130 18 130 49 129 120 130 186 
130 185 130 78 130 24 130 -150 129 -159 130 -177 130 -101 130 -56 
130 -22 130 -5 129 -1 130 1 130 2 130 5 130 -2 129 -1 
871 4124 41 MP stroke
gr

24 w
c9
871 4124 PD
1000 4123 PD
1130 4121 PD
1260 4126 PD
1390 4128 PD
1520 4129 PD
1649 4128 PD
1779 4123 PD
1909 4101 PD
2039 4045 PD
2169 3944 PD
2299 3767 PD
2428 3608 PD
2558 3458 PD
2688 3482 PD
2818 3560 PD
2948 3745 PD
3078 3931 PD
3207 4051 PD
3337 4100 PD
3467 4118 PD
3597 4125 PD
3727 4128 PD
3856 4128 PD
3986 4129 PD
4116 4129 PD
4246 4128 PD
4376 4126 PD
4506 4124 PD
4635 4120 PD
4765 4120 PD
4895 4122 PD
5025 4125 PD
5155 4121 PD
5285 4112 PD
5414 4069 PD
5544 3910 PD
5674 3461 PD
5804 2658 PD
5934 1776 PD
6064 1284 PD
gs 871 378 5194 4103 rc
DO
130 -491 130 -889 130 -842 130 -550 130 -253 129 -73 130 1 130 -29 
130 44 130 16 130 1 129 -44 130 -14 130 -15 130 -30 130 16 
130 0 129 1 130 17 130 51 130 51 130 107 129 217 130 238 
130 205 130 70 130 37 130 -170 129 -161 130 -244 130 -156 130 -157 
130 -152 130 0 129 0 130 1 130 0 130 165 130 -151 129 1 
871 4462 41 MP stroke
SO
12 w
130 -511 130 -871 130 -791 130 -529 130 -249 129 -73 130 1 130 -29 
130 45 130 17 130 1 129 -45 130 -15 130 -15 130 -29 130 15 
130 0 129 1 130 17 130 51 130 52 130 105 129 213 130 216 
130 170 130 49 130 0 130 -167 129 -140 130 -203 130 -132 130 -137 
130 -132 130 0 129 0 130 0 130 0 130 196 130 -196 129 -1 
871 4468 41 MP stroke
gr

12 w
 829 4426 mt  913 4510 L
 913 4426 mt  829 4510 L
 958 4425 mt 1042 4509 L
1042 4425 mt  958 4509 L
1088 4229 mt 1172 4313 L
1172 4229 mt 1088 4313 L
1218 4425 mt 1302 4509 L
1302 4425 mt 1218 4509 L
1348 4425 mt 1432 4509 L
1432 4425 mt 1348 4509 L
1478 4425 mt 1562 4509 L
1562 4425 mt 1478 4509 L
1607 4425 mt 1691 4509 L
1691 4425 mt 1607 4509 L
1737 4425 mt 1821 4509 L
1821 4425 mt 1737 4509 L
1867 4293 mt 1951 4377 L
1951 4293 mt 1867 4377 L
1997 4156 mt 2081 4240 L
2081 4156 mt 1997 4240 L
2127 4024 mt 2211 4108 L
2211 4024 mt 2127 4108 L
2257 3821 mt 2341 3905 L
2341 3821 mt 2257 3905 L
2386 3681 mt 2470 3765 L
2470 3681 mt 2386 3765 L
2516 3514 mt 2600 3598 L
2600 3514 mt 2516 3598 L
2646 3514 mt 2730 3598 L
2730 3514 mt 2646 3598 L
2776 3563 mt 2860 3647 L
2860 3563 mt 2776 3647 L
2906 3733 mt 2990 3817 L
2990 3733 mt 2906 3817 L
3036 3949 mt 3120 4033 L
3120 3949 mt 3036 4033 L
3165 4162 mt 3249 4246 L
3249 4162 mt 3165 4246 L
3295 4267 mt 3379 4351 L
3379 4267 mt 3295 4351 L
3425 4319 mt 3509 4403 L
3509 4319 mt 3425 4403 L
3555 4370 mt 3639 4454 L
3639 4370 mt 3555 4454 L
3685 4387 mt 3769 4471 L
3769 4387 mt 3685 4471 L
3814 4388 mt 3898 4472 L
3898 4388 mt 3814 4472 L
3944 4388 mt 4028 4472 L
4028 4388 mt 3944 4472 L
4074 4403 mt 4158 4487 L
4158 4403 mt 4074 4487 L
4204 4374 mt 4288 4458 L
4288 4374 mt 4204 4458 L
4334 4359 mt 4418 4443 L
4418 4359 mt 4334 4443 L
4464 4344 mt 4548 4428 L
4548 4344 mt 4464 4428 L
4593 4299 mt 4677 4383 L
4677 4299 mt 4593 4383 L
4723 4300 mt 4807 4384 L
4807 4300 mt 4723 4384 L
4853 4317 mt 4937 4401 L
4937 4317 mt 4853 4401 L
4983 4362 mt 5067 4446 L
5067 4362 mt 4983 4446 L
5113 4333 mt 5197 4417 L
5197 4333 mt 5113 4417 L
5243 4334 mt 5327 4418 L
5327 4334 mt 5243 4418 L
5372 4261 mt 5456 4345 L
5456 4261 mt 5372 4345 L
5502 4012 mt 5586 4096 L
5586 4012 mt 5502 4096 L
5632 3483 mt 5716 3567 L
5716 3483 mt 5632 3567 L
5762 2692 mt 5846 2776 L
5846 2692 mt 5762 2776 L
5892 1821 mt 5976 1905 L
5976 1821 mt 5892 1905 L
6022 1310 mt 6106 1394 L
6106 1310 mt 6022 1394 L
gs 871 378 5194 4103 rc
24 w
/c10 { 0.500000 0.000000 0.000000 sr} bdef
c10
130 -262 130 -115 130 -113 130 -102 130 -86 129 -68 130 -102 130 -90 
130 -106 130 -116 130 -112 129 -73 130 -77 130 -67 130 -107 130 -152 
130 -339 129 -430 130 -387 130 -245 130 -98 130 -40 129 -11 130 -2 
130 -1 130 0 130 2 130 1 129 2 130 0 130 -2 130 -3 
130 -1 130 -1 129 -1 130 0 130 -1 130 0 130 2 129 0 
871 3702 41 MP stroke
gr

24 w
c10
871 3702 PD
1000 3702 PD
1130 3704 PD
1260 3704 PD
1390 3703 PD
1520 3703 PD
1649 3702 PD
1779 3701 PD
1909 3700 PD
2039 3697 PD
2169 3695 PD
2299 3695 PD
2428 3697 PD
2558 3698 PD
2688 3700 PD
2818 3700 PD
2948 3699 PD
3078 3697 PD
3207 3686 PD
3337 3646 PD
3467 3548 PD
3597 3303 PD
3727 2916 PD
3856 2486 PD
3986 2147 PD
4116 1995 PD
4246 1888 PD
4376 1821 PD
4506 1744 PD
4635 1671 PD
4765 1559 PD
4895 1443 PD
5025 1337 PD
5155 1247 PD
5285 1145 PD
5414 1077 PD
5544 991 PD
5674 889 PD
5804 776 PD
5934 661 PD
6064 399 PD
gs 871 378 5194 4103 rc
DO
130 -279 130 -108 130 -113 130 -102 130 -88 129 -64 130 -105 130 -88 
130 -107 130 -116 130 -116 129 -69 130 -78 130 -62 130 -106 130 -131 
130 -348 129 -478 130 -522 130 -487 130 -218 130 -220 129 -16 130 18 
130 -16 130 1 130 57 130 5 129 23 130 24 130 -58 130 -40 
130 3 130 -41 129 26 130 35 130 -15 130 51 130 152 129 -53 
871 4238 41 MP stroke
SO
12 w
130 -265 130 -111 130 -115 130 -105 130 -104 129 -67 130 -107 130 -89 
130 -106 130 -118 130 -117 129 -69 130 -94 130 -62 130 -105 130 -132 
130 -348 129 -473 130 -512 130 -478 130 -218 130 -220 129 -16 130 18 
130 -17 130 1 130 57 130 3 129 22 130 23 130 -57 130 -38 
130 4 130 -40 129 25 130 36 130 -14 130 63 130 306 129 -17 
871 4034 41 MP stroke
gr

12 w
 829 3992 mt  913 4076 L
 913 3992 mt  829 4076 L
 958 3975 mt 1042 4059 L
1042 3975 mt  958 4059 L
1088 4281 mt 1172 4365 L
1172 4281 mt 1088 4365 L
1218 4344 mt 1302 4428 L
1302 4344 mt 1218 4428 L
1348 4330 mt 1432 4414 L
1432 4330 mt 1348 4414 L
1478 4366 mt 1562 4450 L
1562 4366 mt 1478 4450 L
1607 4391 mt 1691 4475 L
1691 4391 mt 1607 4475 L
1737 4351 mt 1821 4435 L
1821 4351 mt 1737 4435 L
1867 4355 mt 1951 4439 L
1951 4355 mt 1867 4439 L
1997 4317 mt 2081 4401 L
2081 4317 mt 1997 4401 L
2127 4260 mt 2211 4344 L
2211 4260 mt 2127 4344 L
2257 4283 mt 2341 4367 L
2341 4283 mt 2257 4367 L
2386 4305 mt 2470 4389 L
2470 4305 mt 2386 4389 L
2516 4308 mt 2600 4392 L
2600 4308 mt 2516 4392 L
2646 4365 mt 2730 4449 L
2730 4365 mt 2646 4449 L
2776 4366 mt 2860 4450 L
2860 4366 mt 2776 4450 L
2906 4349 mt 2990 4433 L
2990 4349 mt 2906 4433 L
3036 4367 mt 3120 4451 L
3120 4367 mt 3036 4451 L
3165 4351 mt 3249 4435 L
3249 4351 mt 3165 4435 L
3295 4131 mt 3379 4215 L
3379 4131 mt 3295 4215 L
3425 3913 mt 3509 3997 L
3509 3913 mt 3425 3997 L
3555 3435 mt 3639 3519 L
3639 3435 mt 3555 3519 L
3685 2923 mt 3769 3007 L
3769 2923 mt 3685 3007 L
3814 2450 mt 3898 2534 L
3898 2450 mt 3814 2534 L
3944 2102 mt 4028 2186 L
4028 2102 mt 3944 2186 L
4074 1970 mt 4158 2054 L
4158 1970 mt 4074 2054 L
4204 1865 mt 4288 1949 L
4288 1865 mt 4204 1949 L
4334 1803 mt 4418 1887 L
4418 1803 mt 4334 1887 L
4464 1709 mt 4548 1793 L
4548 1709 mt 4464 1793 L
4593 1640 mt 4677 1724 L
4677 1640 mt 4593 1724 L
4723 1523 mt 4807 1607 L
4807 1523 mt 4723 1607 L
4853 1405 mt 4937 1489 L
4937 1405 mt 4853 1489 L
4983 1299 mt 5067 1383 L
5067 1299 mt 4983 1383 L
5113 1210 mt 5197 1294 L
5197 1210 mt 5113 1294 L
5243 1103 mt 5327 1187 L
5327 1103 mt 5243 1187 L
5372 1036 mt 5456 1120 L
5456 1036 mt 5372 1120 L
5502  932 mt 5586 1016 L
5586  932 mt 5502 1016 L
5632  827 mt 5716  911 L
5716  827 mt 5632  911 L
5762  712 mt 5846  796 L
5846  712 mt 5762  796 L
5892  601 mt 5976  685 L
5976  601 mt 5892  685 L
6022  336 mt 6106  420 L
6106  336 mt 6022  420 L
gs 871 378 5194 4103 rc
24 w
0 sg
130 -385 130 -970 130 -915 130 -465 130 -140 129 -25 130 -4 130 0 
130 5 130 4 130 -1 129 -2 130 -4 130 -4 130 -2 130 0 
130 0 129 0 130 0 130 -1 130 0 130 0 129 -1 130 1 
130 0 130 1 130 5 130 3 129 -1 130 1 130 0 130 2 
130 -10 130 -1 129 0 130 0 130 1 130 4 130 10 129 0 
871 3950 41 MP stroke
gr

24 w
0 sg
871 3950 PD
1000 3950 PD
1130 3960 PD
1260 3964 PD
1390 3965 PD
1520 3965 PD
1649 3965 PD
1779 3964 PD
1909 3954 PD
2039 3956 PD
2169 3956 PD
2299 3957 PD
2428 3956 PD
2558 3959 PD
2688 3964 PD
2818 3965 PD
2948 3965 PD
3078 3966 PD
3207 3965 PD
3337 3965 PD
3467 3965 PD
3597 3964 PD
3727 3964 PD
3856 3964 PD
3986 3964 PD
4116 3964 PD
4246 3962 PD
4376 3958 PD
4506 3954 PD
4635 3952 PD
4765 3951 PD
4895 3955 PD
5025 3960 PD
5155 3960 PD
5285 3956 PD
5414 3931 PD
5544 3791 PD
5674 3326 PD
5804 2411 PD
5934 1441 PD
6064 1056 PD
gs 871 378 5194 4103 rc
DO
130 -382 130 -977 130 -955 130 -596 130 -311 129 -74 130 -13 130 -1 
130 45 130 31 130 -13 129 -12 130 -29 130 -46 130 -15 130 -14 
130 16 129 -16 130 2 130 -16 130 -17 130 1 129 0 130 1 
130 18 130 19 130 61 130 25 129 -16 130 6 130 3 130 24 
130 -153 130 -21 129 0 130 1 130 0 130 4 130 263 129 -87 
871 4297 41 MP stroke
SO
12 w
130 -439 130 -927 130 -879 130 -573 130 -307 129 -73 130 -14 130 1 
130 45 130 33 130 -14 129 -14 130 -29 130 -47 130 -15 130 -15 
130 17 129 -15 130 1 130 -16 130 -15 130 0 129 1 130 0 
130 17 130 18 130 57 130 22 129 -17 130 3 130 3 130 24 
130 -138 130 -14 129 0 130 0 130 0 130 0 130 450 129 -17 
871 4034 41 MP stroke
gr

12 w
 829 3992 mt  913 4076 L
 913 3992 mt  829 4076 L
 958 3975 mt 1042 4059 L
1042 3975 mt  958 4059 L
1088 4425 mt 1172 4509 L
1172 4425 mt 1088 4509 L
1218 4425 mt 1302 4509 L
1302 4425 mt 1218 4509 L
1348 4425 mt 1432 4509 L
1432 4425 mt 1348 4509 L
1478 4425 mt 1562 4509 L
1562 4425 mt 1478 4509 L
1607 4425 mt 1691 4509 L
1691 4425 mt 1607 4509 L
1737 4411 mt 1821 4495 L
1821 4411 mt 1737 4495 L
1867 4273 mt 1951 4357 L
1951 4273 mt 1867 4357 L
1997 4297 mt 2081 4381 L
2081 4297 mt 1997 4381 L
2127 4300 mt 2211 4384 L
2211 4300 mt 2127 4384 L
2257 4303 mt 2341 4387 L
2341 4303 mt 2257 4387 L
2386 4286 mt 2470 4370 L
2470 4286 mt 2386 4370 L
2516 4308 mt 2600 4392 L
2600 4308 mt 2516 4392 L
2646 4365 mt 2730 4449 L
2730 4365 mt 2646 4449 L
2776 4383 mt 2860 4467 L
2860 4383 mt 2776 4467 L
2906 4400 mt 2990 4484 L
2990 4400 mt 2906 4484 L
3036 4400 mt 3120 4484 L
3120 4400 mt 3036 4484 L
3165 4401 mt 3249 4485 L
3249 4401 mt 3165 4485 L
3295 4401 mt 3379 4485 L
3379 4401 mt 3295 4485 L
3425 4386 mt 3509 4470 L
3509 4386 mt 3425 4470 L
3555 4370 mt 3639 4454 L
3639 4370 mt 3555 4454 L
3685 4371 mt 3769 4455 L
3769 4371 mt 3685 4455 L
3814 4356 mt 3898 4440 L
3898 4356 mt 3814 4440 L
3944 4373 mt 4028 4457 L
4028 4373 mt 3944 4457 L
4074 4358 mt 4158 4442 L
4158 4358 mt 4074 4442 L
4204 4343 mt 4288 4427 L
4288 4343 mt 4204 4427 L
4334 4296 mt 4418 4380 L
4418 4296 mt 4334 4380 L
4464 4267 mt 4548 4351 L
4548 4267 mt 4464 4351 L
4593 4253 mt 4677 4337 L
4677 4253 mt 4593 4337 L
4723 4239 mt 4807 4323 L
4807 4239 mt 4723 4323 L
4853 4272 mt 4937 4356 L
4937 4272 mt 4853 4356 L
4983 4317 mt 5067 4401 L
5067 4317 mt 4983 4401 L
5113 4318 mt 5197 4402 L
5197 4318 mt 5113 4402 L
5243 4304 mt 5327 4388 L
5327 4304 mt 5243 4388 L
5372 4231 mt 5456 4315 L
5456 4231 mt 5372 4315 L
5502 3924 mt 5586 4008 L
5586 3924 mt 5502 4008 L
5632 3351 mt 5716 3435 L
5716 3351 mt 5632 3435 L
5762 2472 mt 5846 2556 L
5846 2472 mt 5762 2556 L
5892 1545 mt 5976 1629 L
5976 1545 mt 5892 1629 L
6022 1106 mt 6106 1190 L
6106 1106 mt 6022 1190 L
gs 871 378 5194 4103 rc
gr

 818 4559 mt 
( ) s
6012  456 mt 
( ) s
6 w
1 sg
0 2127 1450 0 0 -2127 1011 2567 4 MP
PP
-1450 0 0 2127 1450 0 0 -2127 1011 2567 5 MP stroke
4 w
DO
SO
6 w
0 sg
1011 2567 mt 2461 2567 L
1011  440 mt 2461  440 L
1011 2567 mt 1011  440 L
2461 2567 mt 2461  440 L
1011 2567 mt 2461 2567 L
1011 2567 mt 1011  440 L
1011 2567 mt 2461 2567 L
1011  440 mt 2461  440 L
1011 2567 mt 1011  440 L
2461 2567 mt 2461  440 L
1479  590 mt 
(CMK) s
gs 1011 440 1451 2128 rc
24 w
c8
360 0 1082 547 2 MP stroke
gs 1164 449 197 197 rc
1262 547 PD
gr

gr

24 w
c8
0 sg
1479  764 mt 
(CMK from Fit1) s
gs 1011 440 1451 2128 rc
DO
c8
360 0 1082 721 2 MP stroke
SO
gr

c8
0 sg
1479  938 mt 
(CMK from Tran) s
gs 1011 440 1451 2128 rc
12 w
c8
360 0 1082 895 2 MP stroke
gs 1141 774 243 243 rc
1220  853 mt 1304  937 L
1304  853 mt 1220  937 L
gr

gr

12 w
c8
0 sg
1479 1111 mt 
(CYK) s
gs 1011 440 1451 2128 rc
24 w
c9
360 0 1082 1069 2 MP stroke
gs 1164 971 197 197 rc
1262 1069 PD
gr

gr

24 w
c9
0 sg
1479 1285 mt 
(CYK from Fit1) s
gs 1011 440 1451 2128 rc
DO
c9
360 0 1082 1242 2 MP stroke
SO
gr

c9
0 sg
1479 1459 mt 
(CYK from Tran) s
gs 1011 440 1451 2128 rc
12 w
c9
360 0 1082 1416 2 MP stroke
gs 1141 1295 243 243 rc
1220 1374 mt 1304 1458 L
1304 1374 mt 1220 1458 L
gr

gr

12 w
c9
0 sg
1479 1633 mt 
(MYK) s
gs 1011 440 1451 2128 rc
24 w
c10
360 0 1082 1590 2 MP stroke
gs 1164 1492 197 197 rc
1262 1590 PD
gr

gr

24 w
c10
0 sg
1479 1807 mt 
(MYK from Fit1) s
gs 1011 440 1451 2128 rc
DO
c10
360 0 1082 1764 2 MP stroke
SO
gr

c10
0 sg
1479 1981 mt 
(MYK from Tran) s
gs 1011 440 1451 2128 rc
12 w
c10
360 0 1082 1937 2 MP stroke
gs 1141 1816 243 243 rc
1220 1895 mt 1304 1979 L
1304 1895 mt 1220 1979 L
gr

gr

12 w
c10
0 sg
1479 2154 mt 
(CMYK) s
gs 1011 440 1451 2128 rc
24 w
360 0 1082 2111 2 MP stroke
gs 1164 2013 197 197 rc
1262 2111 PD
gr

gr

24 w
1479 2328 mt 
(CMYK from Fit1) s
gs 1011 440 1451 2128 rc
DO
360 0 1082 2285 2 MP stroke
SO
gr

1479 2502 mt 
(CMYK from Tran) s
gs 1011 440 1451 2128 rc
12 w
360 0 1082 2459 2 MP stroke
gr

12 w
gs 1141 2338 243 243 rc
1220 2417 mt 1304 2501 L
1304 2417 mt 1220 2501 L
gr

gs 1011 440 1451 2128 rc
6 w
gr

6 w

end %%Color Dict

eplot
%%EndObject

epage
end

showpage

%%Trailer
%%EOF
