%!PS-Adobe-3.0 EPSF-3.0
%%Creator: MATLAB, The MathWorks, Inc. Version 8.0.0.783 (R2012b). Operating System: Darwin 14.5.0 Darwin Kernel Version 14.5.0: Mon Aug 29 21:14:16 PDT 2016; root:xnu-2782.50.6~1/RELEASE_X86_64 x86_64.
%%Title: /Users/pgh/Documents/MATLAB/rectoverso/data/ID01/graphics/tu5-8PSM=0;ISM=0.01;PWS=Chart;AMM=1;ESC=0;WBW=0.25.eps
%%CreationDate: 10/03/2016  10:41:02
%%DocumentNeededFonts: Helvetica
%%DocumentProcessColors: Cyan Magenta Yellow Black
%%LanguageLevel: 2
%%Pages: 1
%%BoundingBox:    17   211   576   631
%%EndComments

%%BeginProlog
% MathWorks dictionary
/MathWorks 160 dict begin
% definition operators
/bdef {bind def} bind def
/ldef {load def} bind def
/xdef {exch def} bdef
/xstore {exch store} bdef
% operator abbreviations
/c  /clip ldef
/cc /concat ldef
/cp /closepath ldef
/gr /grestore ldef
/gs /gsave ldef
/mt /moveto ldef
/np /newpath ldef
/cm /currentmatrix ldef
/sm /setmatrix ldef
/rm /rmoveto ldef
/rl /rlineto ldef
/s {show newpath} bdef
/sc {setcmykcolor} bdef
/sr /setrgbcolor ldef
/sg /setgray ldef
/w /setlinewidth ldef
/j /setlinejoin ldef
/cap /setlinecap ldef
/rc {rectclip} bdef
/rf {rectfill} bdef
% page state control
/pgsv () def
/bpage {/pgsv save def} bdef
/epage {pgsv restore} bdef
/bplot /gsave ldef
/eplot {stroke grestore} bdef
% orientation switch
/portraitMode 0 def /landscapeMode 1 def /rotateMode 2 def
% coordinate system mappings
/dpi2point 0 def
% font control
/FontSize 0 def
/FMS {/FontSize xstore findfont [FontSize 0 0 FontSize neg 0 0]
  makefont setfont} bdef
/reencode {exch dup where {pop load} {pop StandardEncoding} ifelse
  exch dup 3 1 roll findfont dup length dict begin
  { 1 index /FID ne {def}{pop pop} ifelse } forall
  /Encoding exch def currentdict end definefont pop} bdef
/isroman {findfont /CharStrings get /Agrave known} bdef
/FMSR {3 1 roll 1 index dup isroman {reencode} {pop pop} ifelse
  exch FMS} bdef
/csm {1 dpi2point div -1 dpi2point div scale neg translate
 dup landscapeMode eq {pop -90 rotate}
  {rotateMode eq {90 rotate} if} ifelse} bdef
% line types: solid, dotted, dashed, dotdash
/SO { [] 0 setdash } bdef
/DO { [.5 dpi2point mul 4 dpi2point mul] 0 setdash } bdef
/DA { [6 dpi2point mul] 0 setdash } bdef
/DD { [.5 dpi2point mul 4 dpi2point mul 6 dpi2point mul 4
  dpi2point mul] 0 setdash } bdef
% macros for lines and objects
/L {lineto stroke} bdef
/MP {3 1 roll moveto 1 sub {rlineto} repeat} bdef
/AP {{rlineto} repeat} bdef
/PDlw -1 def
/W {/PDlw currentlinewidth def setlinewidth} def
/PP {closepath eofill} bdef
/DP {closepath stroke} bdef
/MR {4 -2 roll moveto dup  0 exch rlineto exch 0 rlineto
  neg 0 exch rlineto closepath} bdef
/FR {MR stroke} bdef
/PR {MR fill} bdef
/L1i {{currentfile picstr readhexstring pop} image} bdef
/tMatrix matrix def
/MakeOval {newpath tMatrix currentmatrix pop translate scale
0 0 1 0 360 arc tMatrix setmatrix} bdef
/FO {MakeOval stroke} bdef
/PO {MakeOval fill} bdef
/PD {currentlinewidth 2 div 0 360 arc fill
   PDlw -1 eq not {PDlw w /PDlw -1 def} if} def
/FA {newpath tMatrix currentmatrix pop translate scale
  0 0 1 5 -2 roll arc tMatrix setmatrix stroke} bdef
/PA {newpath tMatrix currentmatrix pop	translate 0 0 moveto scale
  0 0 1 5 -2 roll arc closepath tMatrix setmatrix fill} bdef
/FAn {newpath tMatrix currentmatrix pop translate scale
  0 0 1 5 -2 roll arcn tMatrix setmatrix stroke} bdef
/PAn {newpath tMatrix currentmatrix pop translate 0 0 moveto scale
  0 0 1 5 -2 roll arcn closepath tMatrix setmatrix fill} bdef
/vradius 0 def /hradius 0 def /lry 0 def
/lrx 0 def /uly 0 def /ulx 0 def /rad 0 def
/MRR {/vradius xdef /hradius xdef /lry xdef /lrx xdef /uly xdef
  /ulx xdef newpath tMatrix currentmatrix pop ulx hradius add uly
  vradius add translate hradius vradius scale 0 0 1 180 270 arc 
  tMatrix setmatrix lrx hradius sub uly vradius add translate
  hradius vradius scale 0 0 1 270 360 arc tMatrix setmatrix
  lrx hradius sub lry vradius sub translate hradius vradius scale
  0 0 1 0 90 arc tMatrix setmatrix ulx hradius add lry vradius sub
  translate hradius vradius scale 0 0 1 90 180 arc tMatrix setmatrix
  closepath} bdef
/FRR {MRR stroke } bdef
/PRR {MRR fill } bdef
/MlrRR {/lry xdef /lrx xdef /uly xdef /ulx xdef /rad lry uly sub 2 div def
  newpath tMatrix currentmatrix pop ulx rad add uly rad add translate
  rad rad scale 0 0 1 90 270 arc tMatrix setmatrix lrx rad sub lry rad
  sub translate rad rad scale 0 0 1 270 90 arc tMatrix setmatrix
  closepath} bdef
/FlrRR {MlrRR stroke } bdef
/PlrRR {MlrRR fill } bdef
/MtbRR {/lry xdef /lrx xdef /uly xdef /ulx xdef /rad lrx ulx sub 2 div def
  newpath tMatrix currentmatrix pop ulx rad add uly rad add translate
  rad rad scale 0 0 1 180 360 arc tMatrix setmatrix lrx rad sub lry rad
  sub translate rad rad scale 0 0 1 0 180 arc tMatrix setmatrix
  closepath} bdef
/FtbRR {MtbRR stroke } bdef
/PtbRR {MtbRR fill } bdef
/stri 6 array def /dtri 6 array def
/smat 6 array def /dmat 6 array def
/tmat1 6 array def /tmat2 6 array def /dif 3 array def
/asub {/ind2 exch def /ind1 exch def dup dup
  ind1 get exch ind2 get sub exch } bdef
/tri_to_matrix {
  2 0 asub 3 1 asub 4 0 asub 5 1 asub
  dup 0 get exch 1 get 7 -1 roll astore } bdef
/compute_transform {
  dmat dtri tri_to_matrix tmat1 invertmatrix 
  smat stri tri_to_matrix tmat2 concatmatrix } bdef
/ds {stri astore pop} bdef
/dt {dtri astore pop} bdef
/db {2 copy /cols xdef /rows xdef mul dup 3 mul string
  currentfile 
  3 index 0 eq {/ASCIIHexDecode filter}
  {/ASCII85Decode filter 3 index 2 eq {/RunLengthDecode filter} if }
  ifelse exch readstring pop
  dup 0 3 index getinterval /rbmap xdef
  dup 2 index dup getinterval /gbmap xdef
  1 index dup 2 mul exch getinterval /bbmap xdef pop pop}bdef
/it {gs np dtri aload pop moveto lineto lineto cp c
  cols rows 8 compute_transform 
  rbmap gbmap bbmap true 3 colorimage gr}bdef
/il {newpath moveto lineto stroke}bdef
currentdict end def
%%EndProlog

%%BeginSetup
MathWorks begin

0 cap

end
%%EndSetup

%%Page: 1 1
%%BeginPageSetup
%%PageBoundingBox:    17   211   576   631
MathWorks begin
bpage
%%EndPageSetup

%%BeginObject: obj1
bplot

/dpi2point 12 def
portraitMode 0204 7572 csm

    0     0  6712  5034 rc
89 dict begin %Colortable dictionary
/c0 { 0.000000 0.000000 0.000000 sr} bdef
/c1 { 1.000000 1.000000 1.000000 sr} bdef
/c2 { 0.900000 0.000000 0.000000 sr} bdef
/c3 { 0.000000 0.820000 0.000000 sr} bdef
/c4 { 0.000000 0.000000 0.800000 sr} bdef
/c5 { 0.910000 0.820000 0.320000 sr} bdef
/c6 { 1.000000 0.260000 0.820000 sr} bdef
/c7 { 0.000000 0.820000 0.820000 sr} bdef
c0
1 j
1 sg
   0    0 6713 5035 rf
6 w
0 4102 5201 0 0 -4102 873 4480 4 MP
PP
-5201 0 0 4102 5201 0 0 -4102 873 4480 5 MP stroke
4 w
DO
0 sg
1133 4480 mt 1133  378 L
1133  378 mt 1133  378 L
1783 4480 mt 1783  378 L
1783  378 mt 1783  378 L
2433 4480 mt 2433  378 L
2433  378 mt 2433  378 L
3083 4480 mt 3083  378 L
3083  378 mt 3083  378 L
3733 4480 mt 3733  378 L
3733  378 mt 3733  378 L
4383 4480 mt 4383  378 L
4383  378 mt 4383  378 L
5033 4480 mt 5033  378 L
5033  378 mt 5033  378 L
5683 4480 mt 5683  378 L
5683  378 mt 5683  378 L
 873 4480 mt 6074 4480 L
6074 4480 mt 6074 4480 L
 873 4067 mt 6074 4067 L
6074 4067 mt 6074 4067 L
 873 3654 mt 6074 3654 L
6074 3654 mt 6074 3654 L
 873 3241 mt 6074 3241 L
6074 3241 mt 6074 3241 L
 873 2828 mt 6074 2828 L
6074 2828 mt 6074 2828 L
 873 2415 mt 6074 2415 L
6074 2415 mt 6074 2415 L
 873 2002 mt 6074 2002 L
6074 2002 mt 6074 2002 L
 873 1590 mt 6074 1590 L
6074 1590 mt 6074 1590 L
 873 1177 mt 6074 1177 L
6074 1177 mt 6074 1177 L
 873  764 mt 6074  764 L
6074  764 mt 6074  764 L
SO
6 w
 873 4480 mt 6074 4480 L
 873 4480 mt  873  378 L
1133 4480 mt 1133 4427 L
%%IncludeResource: font Helvetica
/Helvetica /ISOLatin1Encoding 120 FMSR

1033 4625 mt 
(400) s
1783 4480 mt 1783 4427 L
1683 4625 mt 
(450) s
2433 4480 mt 2433 4427 L
2333 4625 mt 
(500) s
3083 4480 mt 3083 4427 L
2983 4625 mt 
(550) s
3733 4480 mt 3733 4427 L
3633 4625 mt 
(600) s
4383 4480 mt 4383 4427 L
4283 4625 mt 
(650) s
5033 4480 mt 5033 4427 L
4933 4625 mt 
(700) s
5683 4480 mt 5683 4427 L
5583 4625 mt 
(750) s
 873 4480 mt  925 4480 L
 772 4524 mt 
(0) s
 873 4067 mt  925 4067 L
 672 4111 mt 
(0.1) s
 873 3654 mt  925 3654 L
 672 3698 mt 
(0.2) s
 873 3241 mt  925 3241 L
 672 3285 mt 
(0.3) s
 873 2828 mt  925 2828 L
 672 2872 mt 
(0.4) s
 873 2415 mt  925 2415 L
 672 2459 mt 
(0.5) s
 873 2002 mt  925 2002 L
 672 2046 mt 
(0.6) s
 873 1590 mt  925 1590 L
 672 1634 mt 
(0.7) s
 873 1177 mt  925 1177 L
 672 1221 mt 
(0.8) s
 873  764 mt  925  764 L
 672  808 mt 
(0.9) s
2399  283 mt 
(Ink layer t_u ID01/ SCATTER MODEL=0) s
gs 873 378 5202 4103 rc
24 w
/c8 { 0.210526 0.123711 1.000000 sr} bdef
c8
131 -245 130 -819 130 -995 130 -776 130 -341 130 -68 130 -33 130 -20 
130 -1 130 31 130 19 130 -8 130 -12 130 -4 130 1 130 2 
130 -3 130 -19 130 -10 130 -11 130 -29 130 -42 130 -32 130 -2 
130 -14 130 45 130 198 130 300 130 167 130 262 130 379 130 360 
130 328 130 115 130 -30 130 -118 130 -196 130 -514 130 -471 130 -28 
873 3166 41 MP stroke
12 w
131 -234 130 -870 130 -1178 130 -905 130 -430 130 -118 130 -61 130 25 
130 66 130 76 130 17 130 -50 130 -75 130 -38 130 -34 130 -15 
130 -3 130 7 130 -2 130 -26 130 -22 130 -21 130 31 130 86 
130 20 130 73 130 318 130 436 130 226 130 323 130 438 130 414 
130 344 130 103 130 -50 130 -166 130 -264 130 -969 130 -1010 130 -12 
873 4062 41 MP stroke
gr

12 w
c8
 831 4020 mt  915 4104 L
 915 4020 mt  831 4104 L
 961 4008 mt 1045 4092 L
1045 4008 mt  961 4092 L
1091 2998 mt 1175 3082 L
1175 2998 mt 1091 3082 L
1221 2029 mt 1305 2113 L
1305 2029 mt 1221 2113 L
1351 1765 mt 1435 1849 L
1435 1765 mt 1351 1849 L
1481 1599 mt 1565 1683 L
1565 1599 mt 1481 1683 L
1611 1549 mt 1695 1633 L
1695 1549 mt 1611 1633 L
1741 1652 mt 1825 1736 L
1825 1652 mt 1741 1736 L
1871 1996 mt 1955 2080 L
1955 1996 mt 1871 2080 L
2001 2410 mt 2085 2494 L
2085 2410 mt 2001 2494 L
2131 2848 mt 2215 2932 L
2215 2848 mt 2131 2932 L
2261 3171 mt 2345 3255 L
2345 3171 mt 2261 3255 L
2391 3397 mt 2475 3481 L
2475 3397 mt 2391 3481 L
2521 3833 mt 2605 3917 L
2605 3833 mt 2521 3917 L
2651 4151 mt 2735 4235 L
2735 4151 mt 2651 4235 L
2781 4224 mt 2865 4308 L
2865 4224 mt 2781 4308 L
2911 4244 mt 2995 4328 L
2995 4244 mt 2911 4328 L
3041 4330 mt 3125 4414 L
3125 4330 mt 3041 4414 L
3171 4361 mt 3255 4445 L
3255 4361 mt 3171 4445 L
3301 4340 mt 3385 4424 L
3385 4340 mt 3301 4424 L
3431 4318 mt 3515 4402 L
3515 4318 mt 3431 4402 L
3561 4292 mt 3645 4376 L
3645 4292 mt 3561 4376 L
3691 4290 mt 3775 4374 L
3775 4290 mt 3691 4374 L
3821 4297 mt 3905 4381 L
3905 4297 mt 3821 4381 L
3951 4294 mt 4035 4378 L
4035 4294 mt 3951 4378 L
4081 4279 mt 4165 4363 L
4165 4279 mt 4081 4363 L
4211 4245 mt 4295 4329 L
4295 4245 mt 4211 4329 L
4341 4207 mt 4425 4291 L
4425 4207 mt 4341 4291 L
4471 4132 mt 4555 4216 L
4555 4132 mt 4471 4216 L
4601 4082 mt 4685 4166 L
4685 4082 mt 4601 4166 L
4731 4099 mt 4815 4183 L
4815 4099 mt 4731 4183 L
4861 4175 mt 4945 4259 L
4945 4175 mt 4861 4259 L
4991 4241 mt 5075 4325 L
5075 4241 mt 4991 4325 L
5121 4266 mt 5205 4350 L
5205 4266 mt 5121 4350 L
5251 4205 mt 5335 4289 L
5335 4205 mt 5251 4289 L
5381 4087 mt 5465 4171 L
5465 4087 mt 5381 4171 L
5511 3657 mt 5595 3741 L
5595 3657 mt 5511 3741 L
5641 2752 mt 5725 2836 L
5725 2752 mt 5641 2836 L
5771 1574 mt 5855 1658 L
5855 1574 mt 5771 1658 L
5901  704 mt 5985  788 L
5985  704 mt 5901  788 L
6032  470 mt 6116  554 L
6116  470 mt 6032  554 L
gs 873 378 5202 4103 rc
24 w
/c9 { 0.210526 1.000000 0.123711 sr} bdef
c9
131 -255 130 -829 130 -963 130 -725 130 -311 130 -63 130 -37 130 -22 
130 8 130 47 130 9 130 -3 130 -18 130 -3 130 -3 130 3 
130 3 130 22 130 14 130 37 130 67 130 246 130 468 130 564 
130 664 130 321 130 104 130 -166 130 -259 130 -560 130 -596 130 -432 
130 -251 130 -62 130 -39 130 -10 130 -8 130 51 130 212 130 -7 
873 3320 41 MP stroke
12 w
131 -248 130 -909 130 -1172 130 -870 130 -409 130 -113 130 -59 130 22 
130 62 130 70 130 14 130 -47 130 -72 130 -36 130 -33 130 -17 
130 5 130 39 130 65 130 110 130 141 130 398 130 633 130 702 
130 725 130 311 130 80 130 -210 130 -316 130 -721 130 -755 130 -554 
130 -383 130 -141 130 -84 130 -43 130 -27 130 -2 130 275 130 -10 
873 4100 41 MP stroke
gr

c9
 831 4058 mt  915 4142 L
 915 4058 mt  831 4142 L
 961 4048 mt 1045 4132 L
1045 4048 mt  961 4132 L
1091 4323 mt 1175 4407 L
1175 4323 mt 1091 4407 L
1221 4321 mt 1305 4405 L
1305 4321 mt 1221 4405 L
1351 4294 mt 1435 4378 L
1435 4294 mt 1351 4378 L
1481 4251 mt 1565 4335 L
1565 4251 mt 1481 4335 L
1611 4167 mt 1695 4251 L
1695 4167 mt 1611 4251 L
1741 4026 mt 1825 4110 L
1825 4026 mt 1741 4110 L
1871 3643 mt 1955 3727 L
1955 3643 mt 1871 3727 L
2001 3089 mt 2085 3173 L
2085 3089 mt 2001 3173 L
2131 2334 mt 2215 2418 L
2215 2334 mt 2131 2418 L
2261 1613 mt 2345 1697 L
2345 1613 mt 2261 1697 L
2391 1297 mt 2475 1381 L
2475 1297 mt 2391 1381 L
2521 1087 mt 2605 1171 L
2605 1087 mt 2521 1171 L
2651 1167 mt 2735 1251 L
2735 1167 mt 2651 1251 L
2781 1478 mt 2865 1562 L
2865 1478 mt 2781 1562 L
2911 2203 mt 2995 2287 L
2995 2203 mt 2911 2287 L
3041 2905 mt 3125 2989 L
3125 2905 mt 3041 2989 L
3171 3538 mt 3255 3622 L
3255 3538 mt 3171 3622 L
3301 3936 mt 3385 4020 L
3385 3936 mt 3301 4020 L
3431 4077 mt 3515 4161 L
3515 4077 mt 3431 4161 L
3561 4187 mt 3645 4271 L
3645 4187 mt 3561 4271 L
3691 4252 mt 3775 4336 L
3775 4252 mt 3691 4336 L
3821 4291 mt 3905 4375 L
3905 4291 mt 3821 4375 L
3951 4296 mt 4035 4380 L
4035 4296 mt 3951 4380 L
4081 4279 mt 4165 4363 L
4165 4279 mt 4081 4363 L
4211 4246 mt 4295 4330 L
4295 4246 mt 4211 4330 L
4341 4210 mt 4425 4294 L
4425 4210 mt 4341 4294 L
4471 4138 mt 4555 4222 L
4555 4138 mt 4471 4222 L
4601 4091 mt 4685 4175 L
4685 4091 mt 4601 4175 L
4731 4105 mt 4815 4189 L
4815 4105 mt 4731 4189 L
4861 4175 mt 4945 4259 L
4945 4175 mt 4861 4259 L
4991 4237 mt 5075 4321 L
5075 4237 mt 4991 4321 L
5121 4259 mt 5205 4343 L
5205 4259 mt 5121 4343 L
5251 4200 mt 5335 4284 L
5335 4200 mt 5251 4284 L
5381 4087 mt 5465 4171 L
5465 4087 mt 5381 4171 L
5511 3678 mt 5595 3762 L
5595 3678 mt 5511 3762 L
5641 2808 mt 5725 2892 L
5725 2808 mt 5641 2892 L
5771 1636 mt 5855 1720 L
5855 1636 mt 5771 1720 L
5901  727 mt 5985  811 L
5985  727 mt 5901  811 L
6032  479 mt 6116  563 L
6116  479 mt 6032  563 L
gs 873 378 5202 4103 rc
24 w
/c10 { 1.000000 0.123711 0.123711 sr} bdef
c10
131 -1 130 -1 130 -1 130 -1 130 -1 130 -1 130 -1 130 -2 
130 -2 130 -4 130 -3 130 -3 130 -4 130 -3 130 -13 130 -55 
130 -331 130 -662 130 -840 130 -763 130 -373 130 -284 130 -3 130 62 
130 23 130 51 130 138 130 156 130 34 130 -24 130 -73 130 -106 
130 -153 130 -78 130 -29 130 -21 130 -27 130 0 130 111 130 -1 
873 3667 41 MP stroke
12 w
131 -1 130 -1 130 0 130 -1 130 -1 130 0 130 -1 130 -2 
130 -1 130 -3 130 -2 130 -2 130 -2 130 -1 130 -11 130 -46 
130 -293 130 -613 130 -912 130 -947 130 -497 130 -452 130 -98 130 62 
130 -45 130 11 130 183 130 202 130 36 130 -51 130 -86 130 -124 
130 -165 130 -73 130 -39 130 -22 130 -18 130 4 130 226 130 -9 
873 4173 41 MP stroke
gr

c10
 831 4131 mt  915 4215 L
 915 4131 mt  831 4215 L
 961 4122 mt 1045 4206 L
1045 4122 mt  961 4206 L
1091 4348 mt 1175 4432 L
1175 4348 mt 1091 4432 L
1221 4352 mt 1305 4436 L
1305 4352 mt 1221 4436 L
1351 4334 mt 1435 4418 L
1435 4334 mt 1351 4418 L
1481 4312 mt 1565 4396 L
1565 4312 mt 1481 4396 L
1611 4273 mt 1695 4357 L
1695 4273 mt 1611 4357 L
1741 4200 mt 1825 4284 L
1825 4200 mt 1741 4284 L
1871 4035 mt 1955 4119 L
1955 4035 mt 1871 4119 L
2001 3911 mt 2085 3995 L
2085 3911 mt 2001 3995 L
2131 3825 mt 2215 3909 L
2215 3825 mt 2131 3909 L
2261 3774 mt 2345 3858 L
2345 3774 mt 2261 3858 L
2391 3810 mt 2475 3894 L
2475 3810 mt 2391 3894 L
2521 4012 mt 2605 4096 L
2605 4012 mt 2521 4096 L
2651 4195 mt 2735 4279 L
2735 4195 mt 2651 4279 L
2781 4206 mt 2865 4290 L
2865 4206 mt 2781 4290 L
2911 4161 mt 2995 4245 L
2995 4161 mt 2911 4245 L
3041 4223 mt 3125 4307 L
3125 4223 mt 3041 4307 L
3171 4125 mt 3255 4209 L
3255 4125 mt 3171 4209 L
3301 3673 mt 3385 3757 L
3385 3673 mt 3301 3757 L
3431 3176 mt 3515 3260 L
3515 3176 mt 3431 3260 L
3561 2229 mt 3645 2313 L
3645 2229 mt 3561 2313 L
3691 1317 mt 3775 1401 L
3775 1317 mt 3691 1401 L
3821  704 mt 3905  788 L
3905  704 mt 3821  788 L
3951  411 mt 4035  495 L
4035  411 mt 3951  495 L
4081  365 mt 4165  449 L
4165  365 mt 4081  449 L
4211  354 mt 4295  438 L
4295  354 mt 4211  438 L
4341  353 mt 4425  437 L
4425  353 mt 4341  437 L
4471  351 mt 4555  435 L
4555  351 mt 4471  435 L
4601  349 mt 4685  433 L
4685  349 mt 4601  433 L
4731  347 mt 4815  431 L
4815  347 mt 4731  431 L
4861  344 mt 4945  428 L
4945  344 mt 4861  428 L
4991  343 mt 5075  427 L
5075  343 mt 4991  427 L
5121  341 mt 5205  425 L
5205  341 mt 5121  425 L
5251  340 mt 5335  424 L
5335  340 mt 5251  424 L
5381  340 mt 5465  424 L
5465  340 mt 5381  424 L
5511  339 mt 5595  423 L
5595  339 mt 5511  423 L
5641  338 mt 5725  422 L
5725  338 mt 5641  422 L
5771  338 mt 5855  422 L
5855  338 mt 5771  422 L
5901  337 mt 5985  421 L
5985  337 mt 5901  421 L
6032  336 mt 6116  420 L
6116  336 mt 6032  420 L
gs 873 378 5202 4103 rc
24 w
/c11 { 0.210526 0.123711 0.123711 sr} bdef
c11
131 -255 130 -826 130 -956 130 -724 130 -298 130 -81 130 -28 130 -31 
130 30 130 30 130 28 130 -27 130 3 130 1 130 -27 130 32 
130 2 130 2 130 -29 130 0 130 -32 130 -32 130 -1 130 31 
130 58 130 27 130 146 130 163 130 37 130 18 130 -34 130 -73 
130 -100 130 -67 130 3 130 -3 130 8 130 69 130 180 130 -8 
873 3308 41 MP stroke
12 w
131 -254 130 -911 130 -1155 130 -850 130 -402 130 -115 130 -63 130 25 
130 58 130 69 130 13 130 -47 130 -72 130 -37 130 -31 130 -17 
130 -8 130 5 130 -8 130 -30 130 -22 130 -22 130 21 130 62 
130 5 130 43 130 182 130 202 130 42 130 -25 130 -59 130 -97 
130 -158 130 -87 130 -65 130 -40 130 -32 130 -42 130 21 130 -1 
873 4442 41 MP stroke
gr

c11
 831 4400 mt  915 4484 L
 915 4400 mt  831 4484 L
 961 4399 mt 1045 4483 L
1045 4399 mt  961 4483 L
1091 4420 mt 1175 4504 L
1175 4420 mt 1091 4504 L
1221 4378 mt 1305 4462 L
1305 4378 mt 1221 4462 L
1351 4346 mt 1435 4430 L
1435 4346 mt 1351 4430 L
1481 4306 mt 1565 4390 L
1565 4306 mt 1481 4390 L
1611 4241 mt 1695 4325 L
1695 4241 mt 1611 4325 L
1741 4154 mt 1825 4238 L
1825 4154 mt 1741 4238 L
1871 3996 mt 1955 4080 L
1955 3996 mt 1871 4080 L
2001 3899 mt 2085 3983 L
2085 3899 mt 2001 3983 L
2131 3840 mt 2215 3924 L
2215 3840 mt 2131 3924 L
2261 3815 mt 2345 3899 L
2345 3815 mt 2261 3899 L
2391 3857 mt 2475 3941 L
2475 3857 mt 2391 3941 L
2521 4059 mt 2605 4143 L
2605 4059 mt 2521 4143 L
2651 4241 mt 2735 4325 L
2735 4241 mt 2651 4325 L
2781 4284 mt 2865 4368 L
2865 4284 mt 2781 4368 L
2911 4289 mt 2995 4373 L
2995 4289 mt 2911 4373 L
3041 4351 mt 3125 4435 L
3125 4351 mt 3041 4435 L
3171 4372 mt 3255 4456 L
3255 4372 mt 3171 4456 L
3301 4350 mt 3385 4434 L
3385 4350 mt 3301 4434 L
3431 4328 mt 3515 4412 L
3515 4328 mt 3431 4412 L
3561 4298 mt 3645 4382 L
3645 4298 mt 3561 4382 L
3691 4290 mt 3775 4374 L
3775 4290 mt 3691 4374 L
3821 4295 mt 3905 4379 L
3905 4295 mt 3821 4379 L
3951 4287 mt 4035 4371 L
4035 4287 mt 3951 4371 L
4081 4270 mt 4165 4354 L
4165 4270 mt 4081 4354 L
4211 4239 mt 4295 4323 L
4295 4239 mt 4211 4323 L
4341 4202 mt 4425 4286 L
4425 4202 mt 4341 4286 L
4471 4130 mt 4555 4214 L
4555 4130 mt 4471 4214 L
4601 4083 mt 4685 4167 L
4685 4083 mt 4601 4167 L
4731 4096 mt 4815 4180 L
4815 4096 mt 4731 4180 L
4861 4165 mt 4945 4249 L
4945 4165 mt 4861 4249 L
4991 4223 mt 5075 4307 L
5075 4223 mt 4991 4307 L
5121 4248 mt 5205 4332 L
5205 4248 mt 5121 4332 L
5251 4185 mt 5335 4269 L
5335 4185 mt 5251 4269 L
5381 4070 mt 5465 4154 L
5465 4070 mt 5381 4154 L
5511 3668 mt 5595 3752 L
5595 3668 mt 5511 3752 L
5641 2818 mt 5725 2902 L
5725 2818 mt 5641 2902 L
5771 1663 mt 5855 1747 L
5855 1663 mt 5771 1747 L
5901  752 mt 5985  836 L
5985  752 mt 5901  836 L
6032  498 mt 6116  582 L
6116  498 mt 6032  582 L
gs 873 378 5202 4103 rc
gr

0 sg
 832 4547 mt 
( ) s
6034  444 mt 
( ) s
6 w
1 sg
0 1432 1367 0 0 -1432 4182 2032 4 MP
PP
-1367 0 0 1432 1367 0 0 -1432 4182 2032 5 MP stroke
4 w
DO
SO
6 w
0 sg
4182 2032 mt 5549 2032 L
4182  600 mt 5549  600 L
4182 2032 mt 4182  600 L
5549 2032 mt 5549  600 L
4182 2032 mt 5549 2032 L
4182 2032 mt 4182  600 L
4182 2032 mt 5549 2032 L
4182  600 mt 5549  600 L
4182 2032 mt 4182  600 L
5549 2032 mt 5549  600 L
4650  750 mt 
(CM) s
gs 4182 600 1368 1433 rc
24 w
c8
360 0 4254 707 2 MP stroke
gr

24 w
c8
0 sg
4650  924 mt 
(CM from Tran) s
gs 4182 600 1368 1433 rc
12 w
c8
360 0 4254 881 2 MP stroke
gs 4313 760 243 243 rc
4392  839 mt 4476  923 L
4476  839 mt 4392  923 L
gr

gr

12 w
c8
0 sg
4650 1098 mt 
(CY) s
gs 4182 600 1368 1433 rc
24 w
c9
360 0 4254 1055 2 MP stroke
gr

24 w
c9
0 sg
4650 1272 mt 
(CY from Tran) s
gs 4182 600 1368 1433 rc
12 w
c9
360 0 4254 1229 2 MP stroke
gs 4313 1108 243 243 rc
4392 1187 mt 4476 1271 L
4476 1187 mt 4392 1271 L
gr

gr

12 w
c9
0 sg
4650 1445 mt 
(MY) s
gs 4182 600 1368 1433 rc
24 w
c10
360 0 4254 1402 2 MP stroke
gr

24 w
c10
0 sg
4650 1619 mt 
(MY from Tran) s
gs 4182 600 1368 1433 rc
12 w
c10
360 0 4254 1576 2 MP stroke
gs 4313 1455 243 243 rc
4392 1534 mt 4476 1618 L
4476 1534 mt 4392 1618 L
gr

gr

12 w
c10
0 sg
4650 1793 mt 
(CMY) s
gs 4182 600 1368 1433 rc
24 w
c11
360 0 4254 1750 2 MP stroke
gr

24 w
c11
0 sg
4650 1967 mt 
(CMY from Tran) s
gs 4182 600 1368 1433 rc
12 w
c11
360 0 4254 1924 2 MP stroke
gr

12 w
c11
gs 4313 1803 243 243 rc
4392 1882 mt 4476 1966 L
4476 1882 mt 4392 1966 L
gr

gs 4182 600 1368 1433 rc
6 w
gr

6 w

end %%Color Dict

eplot
%%EndObject

epage
end

showpage

%%Trailer
%%EOF
