%!PS-Adobe-3.0 EPSF-3.0
%%Creator: MATLAB, The MathWorks, Inc. Version 8.0.0.783 (R2012b). Operating System: Darwin 14.5.0 Darwin Kernel Version 14.5.0: Mon Aug 29 21:14:16 PDT 2016; root:xnu-2782.50.6~1/RELEASE_X86_64 x86_64.
%%Title: /Users/pgh/Documents/MATLAB/rectoverso/data/ID01/graphics/tu5-8PSM=12;ISM=0.01;PWS=Chart;AMM=1;ESC=0;WBW=0.25.eps
%%CreationDate: 10/04/2016  10:18:47
%%DocumentNeededFonts: Helvetica
%%DocumentProcessColors: Cyan Magenta Yellow Black
%%LanguageLevel: 2
%%Pages: 1
%%BoundingBox:    17   211   575   631
%%EndComments

%%BeginProlog
% MathWorks dictionary
/MathWorks 160 dict begin
% definition operators
/bdef {bind def} bind def
/ldef {load def} bind def
/xdef {exch def} bdef
/xstore {exch store} bdef
% operator abbreviations
/c  /clip ldef
/cc /concat ldef
/cp /closepath ldef
/gr /grestore ldef
/gs /gsave ldef
/mt /moveto ldef
/np /newpath ldef
/cm /currentmatrix ldef
/sm /setmatrix ldef
/rm /rmoveto ldef
/rl /rlineto ldef
/s {show newpath} bdef
/sc {setcmykcolor} bdef
/sr /setrgbcolor ldef
/sg /setgray ldef
/w /setlinewidth ldef
/j /setlinejoin ldef
/cap /setlinecap ldef
/rc {rectclip} bdef
/rf {rectfill} bdef
% page state control
/pgsv () def
/bpage {/pgsv save def} bdef
/epage {pgsv restore} bdef
/bplot /gsave ldef
/eplot {stroke grestore} bdef
% orientation switch
/portraitMode 0 def /landscapeMode 1 def /rotateMode 2 def
% coordinate system mappings
/dpi2point 0 def
% font control
/FontSize 0 def
/FMS {/FontSize xstore findfont [FontSize 0 0 FontSize neg 0 0]
  makefont setfont} bdef
/reencode {exch dup where {pop load} {pop StandardEncoding} ifelse
  exch dup 3 1 roll findfont dup length dict begin
  { 1 index /FID ne {def}{pop pop} ifelse } forall
  /Encoding exch def currentdict end definefont pop} bdef
/isroman {findfont /CharStrings get /Agrave known} bdef
/FMSR {3 1 roll 1 index dup isroman {reencode} {pop pop} ifelse
  exch FMS} bdef
/csm {1 dpi2point div -1 dpi2point div scale neg translate
 dup landscapeMode eq {pop -90 rotate}
  {rotateMode eq {90 rotate} if} ifelse} bdef
% line types: solid, dotted, dashed, dotdash
/SO { [] 0 setdash } bdef
/DO { [.5 dpi2point mul 4 dpi2point mul] 0 setdash } bdef
/DA { [6 dpi2point mul] 0 setdash } bdef
/DD { [.5 dpi2point mul 4 dpi2point mul 6 dpi2point mul 4
  dpi2point mul] 0 setdash } bdef
% macros for lines and objects
/L {lineto stroke} bdef
/MP {3 1 roll moveto 1 sub {rlineto} repeat} bdef
/AP {{rlineto} repeat} bdef
/PDlw -1 def
/W {/PDlw currentlinewidth def setlinewidth} def
/PP {closepath eofill} bdef
/DP {closepath stroke} bdef
/MR {4 -2 roll moveto dup  0 exch rlineto exch 0 rlineto
  neg 0 exch rlineto closepath} bdef
/FR {MR stroke} bdef
/PR {MR fill} bdef
/L1i {{currentfile picstr readhexstring pop} image} bdef
/tMatrix matrix def
/MakeOval {newpath tMatrix currentmatrix pop translate scale
0 0 1 0 360 arc tMatrix setmatrix} bdef
/FO {MakeOval stroke} bdef
/PO {MakeOval fill} bdef
/PD {currentlinewidth 2 div 0 360 arc fill
   PDlw -1 eq not {PDlw w /PDlw -1 def} if} def
/FA {newpath tMatrix currentmatrix pop translate scale
  0 0 1 5 -2 roll arc tMatrix setmatrix stroke} bdef
/PA {newpath tMatrix currentmatrix pop	translate 0 0 moveto scale
  0 0 1 5 -2 roll arc closepath tMatrix setmatrix fill} bdef
/FAn {newpath tMatrix currentmatrix pop translate scale
  0 0 1 5 -2 roll arcn tMatrix setmatrix stroke} bdef
/PAn {newpath tMatrix currentmatrix pop translate 0 0 moveto scale
  0 0 1 5 -2 roll arcn closepath tMatrix setmatrix fill} bdef
/vradius 0 def /hradius 0 def /lry 0 def
/lrx 0 def /uly 0 def /ulx 0 def /rad 0 def
/MRR {/vradius xdef /hradius xdef /lry xdef /lrx xdef /uly xdef
  /ulx xdef newpath tMatrix currentmatrix pop ulx hradius add uly
  vradius add translate hradius vradius scale 0 0 1 180 270 arc 
  tMatrix setmatrix lrx hradius sub uly vradius add translate
  hradius vradius scale 0 0 1 270 360 arc tMatrix setmatrix
  lrx hradius sub lry vradius sub translate hradius vradius scale
  0 0 1 0 90 arc tMatrix setmatrix ulx hradius add lry vradius sub
  translate hradius vradius scale 0 0 1 90 180 arc tMatrix setmatrix
  closepath} bdef
/FRR {MRR stroke } bdef
/PRR {MRR fill } bdef
/MlrRR {/lry xdef /lrx xdef /uly xdef /ulx xdef /rad lry uly sub 2 div def
  newpath tMatrix currentmatrix pop ulx rad add uly rad add translate
  rad rad scale 0 0 1 90 270 arc tMatrix setmatrix lrx rad sub lry rad
  sub translate rad rad scale 0 0 1 270 90 arc tMatrix setmatrix
  closepath} bdef
/FlrRR {MlrRR stroke } bdef
/PlrRR {MlrRR fill } bdef
/MtbRR {/lry xdef /lrx xdef /uly xdef /ulx xdef /rad lrx ulx sub 2 div def
  newpath tMatrix currentmatrix pop ulx rad add uly rad add translate
  rad rad scale 0 0 1 180 360 arc tMatrix setmatrix lrx rad sub lry rad
  sub translate rad rad scale 0 0 1 0 180 arc tMatrix setmatrix
  closepath} bdef
/FtbRR {MtbRR stroke } bdef
/PtbRR {MtbRR fill } bdef
/stri 6 array def /dtri 6 array def
/smat 6 array def /dmat 6 array def
/tmat1 6 array def /tmat2 6 array def /dif 3 array def
/asub {/ind2 exch def /ind1 exch def dup dup
  ind1 get exch ind2 get sub exch } bdef
/tri_to_matrix {
  2 0 asub 3 1 asub 4 0 asub 5 1 asub
  dup 0 get exch 1 get 7 -1 roll astore } bdef
/compute_transform {
  dmat dtri tri_to_matrix tmat1 invertmatrix 
  smat stri tri_to_matrix tmat2 concatmatrix } bdef
/ds {stri astore pop} bdef
/dt {dtri astore pop} bdef
/db {2 copy /cols xdef /rows xdef mul dup 3 mul string
  currentfile 
  3 index 0 eq {/ASCIIHexDecode filter}
  {/ASCII85Decode filter 3 index 2 eq {/RunLengthDecode filter} if }
  ifelse exch readstring pop
  dup 0 3 index getinterval /rbmap xdef
  dup 2 index dup getinterval /gbmap xdef
  1 index dup 2 mul exch getinterval /bbmap xdef pop pop}bdef
/it {gs np dtri aload pop moveto lineto lineto cp c
  cols rows 8 compute_transform 
  rbmap gbmap bbmap true 3 colorimage gr}bdef
/il {newpath moveto lineto stroke}bdef
currentdict end def
%%EndProlog

%%BeginSetup
MathWorks begin

0 cap

end
%%EndSetup

%%Page: 1 1
%%BeginPageSetup
%%PageBoundingBox:    17   211   575   631
MathWorks begin
bpage
%%EndPageSetup

%%BeginObject: obj1
bplot

/dpi2point 12 def
portraitMode 0204 7572 csm

    0     0  6700  5034 rc
89 dict begin %Colortable dictionary
/c0 { 0.000000 0.000000 0.000000 sr} bdef
/c1 { 1.000000 1.000000 1.000000 sr} bdef
/c2 { 0.900000 0.000000 0.000000 sr} bdef
/c3 { 0.000000 0.820000 0.000000 sr} bdef
/c4 { 0.000000 0.000000 0.800000 sr} bdef
/c5 { 0.910000 0.820000 0.320000 sr} bdef
/c6 { 1.000000 0.260000 0.820000 sr} bdef
/c7 { 0.000000 0.820000 0.820000 sr} bdef
c0
1 j
1 sg
   0    0 6701 5035 rf
6 w
0 4102 5193 0 0 -4102 871 4480 4 MP
PP
-5193 0 0 4102 5193 0 0 -4102 871 4480 5 MP stroke
4 w
DO
0 sg
1130 4480 mt 1130  378 L
1130  378 mt 1130  378 L
1779 4480 mt 1779  378 L
1779  378 mt 1779  378 L
2428 4480 mt 2428  378 L
2428  378 mt 2428  378 L
3078 4480 mt 3078  378 L
3078  378 mt 3078  378 L
3727 4480 mt 3727  378 L
3727  378 mt 3727  378 L
4376 4480 mt 4376  378 L
4376  378 mt 4376  378 L
5025 4480 mt 5025  378 L
5025  378 mt 5025  378 L
5674 4480 mt 5674  378 L
5674  378 mt 5674  378 L
 871 4480 mt 6064 4480 L
6064 4480 mt 6064 4480 L
 871 4067 mt 6064 4067 L
6064 4067 mt 6064 4067 L
 871 3655 mt 6064 3655 L
6064 3655 mt 6064 3655 L
 871 3242 mt 6064 3242 L
6064 3242 mt 6064 3242 L
 871 2830 mt 6064 2830 L
6064 2830 mt 6064 2830 L
 871 2417 mt 6064 2417 L
6064 2417 mt 6064 2417 L
 871 2005 mt 6064 2005 L
6064 2005 mt 6064 2005 L
 871 1592 mt 6064 1592 L
6064 1592 mt 6064 1592 L
 871 1180 mt 6064 1180 L
6064 1180 mt 6064 1180 L
 871  767 mt 6064  767 L
6064  767 mt 6064  767 L
SO
6 w
 871 4480 mt 6064 4480 L
 871 4480 mt  871  378 L
1130 4480 mt 1130 4428 L
%%IncludeResource: font Helvetica
/Helvetica /ISOLatin1Encoding 120 FMSR

1030 4625 mt 
(400) s
1779 4480 mt 1779 4428 L
1679 4625 mt 
(450) s
2428 4480 mt 2428 4428 L
2328 4625 mt 
(500) s
3078 4480 mt 3078 4428 L
2978 4625 mt 
(550) s
3727 4480 mt 3727 4428 L
3627 4625 mt 
(600) s
4376 4480 mt 4376 4428 L
4276 4625 mt 
(650) s
5025 4480 mt 5025 4428 L
4925 4625 mt 
(700) s
5674 4480 mt 5674 4428 L
5574 4625 mt 
(750) s
 871 4480 mt  922 4480 L
 770 4524 mt 
(0) s
 871 4067 mt  922 4067 L
 670 4111 mt 
(0.1) s
 871 3655 mt  922 3655 L
 670 3699 mt 
(0.2) s
 871 3242 mt  922 3242 L
 670 3286 mt 
(0.3) s
 871 2830 mt  922 2830 L
 670 2874 mt 
(0.4) s
 871 2417 mt  922 2417 L
 670 2461 mt 
(0.5) s
 871 2005 mt  922 2005 L
 670 2049 mt 
(0.6) s
 871 1592 mt  922 1592 L
 670 1636 mt 
(0.7) s
 871 1180 mt  922 1180 L
 670 1224 mt 
(0.8) s
 871  767 mt  922  767 L
 670  811 mt 
(0.9) s
2360  283 mt 
(Ink layer t_u ID01/ SCATTER MODEL=12) s
gs 871 378 5194 4103 rc
24 w
/c8 { 0.210526 0.123711 1.000000 sr} bdef
c8
130 -225 130 -812 130 -1148 130 -973 130 -442 129 -127 130 -54 130 15 
130 59 130 71 130 17 129 -47 130 -70 130 -40 130 -31 130 -16 
130 -5 129 0 130 -5 130 -17 130 -14 130 -2 129 23 130 55 
130 34 130 82 130 295 130 422 129 216 130 305 130 411 130 383 
130 336 130 110 129 -37 130 -136 130 -232 130 -741 130 -922 129 -170 
871 3941 41 MP stroke
DO
130 -225 130 -812 130 -1148 130 -978 130 -453 129 -121 130 -61 130 24 
130 65 130 76 130 18 129 -50 130 -75 130 -38 130 -34 130 -15 
130 -5 129 7 130 -2 130 -26 130 -21 130 -22 129 31 130 83 
130 19 130 71 130 313 130 425 129 215 130 305 130 411 130 383 
130 336 130 110 129 -37 130 -136 130 -232 130 -739 130 -1047 129 -121 
871 4015 41 MP stroke
SO
12 w
130 -231 130 -854 130 -1186 130 -915 130 -431 129 -118 130 -61 130 25 
130 65 130 76 130 17 129 -50 130 -75 130 -38 130 -34 130 -15 
130 -4 129 7 130 -2 130 -26 130 -21 130 -21 129 31 130 84 
130 20 130 73 130 315 130 437 129 228 130 323 130 427 130 399 
130 337 130 98 129 -52 130 -162 130 -262 130 -905 130 -1020 129 -16 
871 4049 41 MP stroke
gr

12 w
c8
 829 4007 mt  913 4091 L
 913 4007 mt  829 4091 L
 958 3991 mt 1042 4075 L
1042 3991 mt  958 4075 L
1088 2971 mt 1172 3055 L
1172 2971 mt 1088 3055 L
1218 2066 mt 1302 2150 L
1302 2066 mt 1218 2150 L
1348 1804 mt 1432 1888 L
1432 1804 mt 1348 1888 L
1478 1642 mt 1562 1726 L
1562 1642 mt 1478 1726 L
1607 1590 mt 1691 1674 L
1691 1590 mt 1607 1674 L
1737 1688 mt 1821 1772 L
1821 1688 mt 1737 1772 L
1867 2025 mt 1951 2109 L
1951 2025 mt 1867 2109 L
1997 2424 mt 2081 2508 L
2081 2424 mt 1997 2508 L
2127 2851 mt 2211 2935 L
2211 2851 mt 2127 2935 L
2257 3174 mt 2341 3258 L
2341 3174 mt 2257 3258 L
2386 3402 mt 2470 3486 L
2470 3402 mt 2386 3486 L
2516 3839 mt 2600 3923 L
2600 3839 mt 2516 3923 L
2646 4154 mt 2730 4238 L
2730 4154 mt 2646 4238 L
2776 4227 mt 2860 4311 L
2860 4227 mt 2776 4311 L
2906 4247 mt 2990 4331 L
2990 4247 mt 2906 4331 L
3036 4331 mt 3120 4415 L
3120 4331 mt 3036 4415 L
3165 4362 mt 3249 4446 L
3249 4362 mt 3165 4446 L
3295 4341 mt 3379 4425 L
3379 4341 mt 3295 4425 L
3425 4320 mt 3509 4404 L
3509 4320 mt 3425 4404 L
3555 4294 mt 3639 4378 L
3639 4294 mt 3555 4378 L
3685 4292 mt 3769 4376 L
3769 4292 mt 3685 4376 L
3814 4299 mt 3898 4383 L
3898 4299 mt 3814 4383 L
3944 4295 mt 4028 4379 L
4028 4295 mt 3944 4379 L
4074 4280 mt 4158 4364 L
4158 4280 mt 4074 4364 L
4204 4246 mt 4288 4330 L
4288 4246 mt 4204 4330 L
4334 4208 mt 4418 4292 L
4418 4208 mt 4334 4292 L
4464 4133 mt 4548 4217 L
4548 4133 mt 4464 4217 L
4593 4083 mt 4677 4167 L
4677 4083 mt 4593 4167 L
4723 4100 mt 4807 4184 L
4807 4100 mt 4723 4184 L
4853 4176 mt 4937 4260 L
4937 4176 mt 4853 4260 L
4983 4241 mt 5067 4325 L
5067 4241 mt 4983 4325 L
5113 4266 mt 5197 4350 L
5197 4266 mt 5113 4350 L
5243 4205 mt 5327 4289 L
5327 4205 mt 5243 4289 L
5372 4087 mt 5456 4171 L
5456 4087 mt 5372 4171 L
5502 3656 mt 5586 3740 L
5586 3656 mt 5502 3740 L
5632 2741 mt 5716 2825 L
5716 2741 mt 5632 2825 L
5762 1555 mt 5846 1639 L
5846 1555 mt 5762 1639 L
5892  701 mt 5976  785 L
5976  701 mt 5892  785 L
6022  470 mt 6106  554 L
6106  470 mt 6022  554 L
gs 871 378 5194 4103 rc
24 w
/c9 { 0.210526 1.000000 0.123711 sr} bdef
c9
130 -246 130 -858 130 -1136 130 -930 130 -417 129 -121 130 -53 130 14 
130 55 130 66 130 13 129 -45 130 -65 130 -38 130 -30 130 -14 
130 6 129 35 130 62 130 106 130 144 130 392 129 621 130 666 
130 711 130 325 130 100 130 -179 129 -281 130 -647 130 -758 130 -611 
130 -410 130 -150 129 -83 130 -41 130 -16 130 10 130 35 129 4 
871 4291 41 MP stroke
DO
130 -246 130 -858 130 -1137 130 -933 130 -427 129 -115 130 -60 130 22 
130 60 130 71 130 13 129 -46 130 -71 130 -36 130 -33 130 -17 
130 4 129 39 130 63 130 109 130 140 130 397 129 622 130 666 
130 711 130 325 130 100 130 -179 129 -281 130 -647 130 -758 130 -613 
130 -418 130 -147 129 -87 130 -44 130 -29 130 -5 130 144 129 -48 
871 4276 41 MP stroke
SO
12 w
130 -246 130 -892 130 -1180 130 -879 130 -410 129 -114 130 -59 130 22 
130 62 130 70 130 13 129 -47 130 -71 130 -37 130 -33 130 -17 
130 4 129 38 130 64 130 110 130 138 130 394 129 627 130 696 
130 721 130 314 130 85 130 -202 129 -312 130 -718 130 -761 130 -555 
130 -379 130 -139 129 -83 130 -42 130 -26 130 3 130 288 129 -15 
871 4089 41 MP stroke
gr

c9
 829 4047 mt  913 4131 L
 913 4047 mt  829 4131 L
 958 4032 mt 1042 4116 L
1042 4032 mt  958 4116 L
1088 4320 mt 1172 4404 L
1172 4320 mt 1088 4404 L
1218 4323 mt 1302 4407 L
1302 4323 mt 1218 4407 L
1348 4297 mt 1432 4381 L
1432 4297 mt 1348 4381 L
1478 4255 mt 1562 4339 L
1562 4255 mt 1478 4339 L
1607 4172 mt 1691 4256 L
1691 4172 mt 1607 4256 L
1737 4033 mt 1821 4117 L
1821 4033 mt 1737 4117 L
1867 3654 mt 1951 3738 L
1951 3654 mt 1867 3738 L
1997 3099 mt 2081 3183 L
2081 3099 mt 1997 3183 L
2127 2338 mt 2211 2422 L
2211 2338 mt 2127 2422 L
2257 1620 mt 2341 1704 L
2341 1620 mt 2257 1704 L
2386 1308 mt 2470 1392 L
2470 1308 mt 2386 1392 L
2516 1106 mt 2600 1190 L
2600 1106 mt 2516 1190 L
2646 1191 mt 2730 1275 L
2730 1191 mt 2646 1275 L
2776 1505 mt 2860 1589 L
2860 1505 mt 2776 1589 L
2906 2226 mt 2990 2310 L
2990 2226 mt 2906 2310 L
3036 2922 mt 3120 3006 L
3120 2922 mt 3036 3006 L
3165 3549 mt 3249 3633 L
3249 3549 mt 3165 3633 L
3295 3943 mt 3379 4027 L
3379 3943 mt 3295 4027 L
3425 4081 mt 3509 4165 L
3509 4081 mt 3425 4165 L
3555 4191 mt 3639 4275 L
3639 4191 mt 3555 4275 L
3685 4255 mt 3769 4339 L
3769 4255 mt 3685 4339 L
3814 4293 mt 3898 4377 L
3898 4293 mt 3814 4377 L
3944 4297 mt 4028 4381 L
4028 4297 mt 3944 4381 L
4074 4280 mt 4158 4364 L
4158 4280 mt 4074 4364 L
4204 4247 mt 4288 4331 L
4288 4247 mt 4204 4331 L
4334 4210 mt 4418 4294 L
4418 4210 mt 4334 4294 L
4464 4139 mt 4548 4223 L
4548 4139 mt 4464 4223 L
4593 4092 mt 4677 4176 L
4677 4092 mt 4593 4176 L
4723 4105 mt 4807 4189 L
4807 4105 mt 4723 4189 L
4853 4175 mt 4937 4259 L
4937 4175 mt 4853 4259 L
4983 4237 mt 5067 4321 L
5067 4237 mt 4983 4321 L
5113 4259 mt 5197 4343 L
5197 4259 mt 5113 4343 L
5243 4200 mt 5327 4284 L
5327 4200 mt 5243 4284 L
5372 4086 mt 5456 4170 L
5456 4086 mt 5372 4170 L
5502 3676 mt 5586 3760 L
5586 3676 mt 5502 3760 L
5632 2797 mt 5716 2881 L
5716 2797 mt 5632 2881 L
5762 1617 mt 5846 1701 L
5846 1617 mt 5762 1701 L
5892  725 mt 5976  809 L
5976  725 mt 5892  809 L
6022  479 mt 6106  563 L
6106  479 mt 6022  563 L
gs 871 378 5194 4103 rc
24 w
/c10 { 1.000000 0.123711 0.123711 sr} bdef
c10
130 -1 130 0 130 -1 130 -1 130 -1 129 -1 130 -2 130 -1 
130 -2 130 -3 130 -3 129 -3 130 -3 130 -3 130 -13 130 -51 
130 -317 129 -655 130 -891 130 -903 130 -494 130 -426 129 -97 130 36 
130 -29 130 24 130 179 130 225 129 46 130 -52 130 -103 130 -143 
130 -165 130 -76 129 -39 130 -20 130 -8 130 4 130 13 129 2 
871 4356 41 MP stroke
DO
130 -1 130 0 130 -1 130 -1 130 -1 129 -1 130 -2 130 -1 
130 -2 130 -3 130 -3 129 -3 130 -3 130 -3 130 -13 130 -51 
130 -317 129 -655 130 -891 130 -904 130 -494 130 -447 129 -95 130 63 
130 -43 130 14 130 195 130 228 129 45 130 -53 130 -103 130 -142 
130 -178 130 -76 129 -39 130 -22 130 -19 130 0 130 86 129 -25 
871 4339 41 MP stroke
SO
12 w
130 0 130 1 130 -2 130 -3 130 -1 129 -1 130 -2 130 -1 
130 -2 130 -3 130 -3 129 -3 130 -3 130 -2 130 -12 130 -49 
130 -301 129 -625 130 -907 130 -936 130 -491 130 -446 129 -96 130 60 
130 -44 130 11 130 182 130 203 129 37 130 -50 130 -89 130 -126 
130 -163 130 -72 129 -39 130 -21 130 -17 130 7 130 237 129 -12 
871 4163 41 MP stroke
gr

c10
 829 4121 mt  913 4205 L
 913 4121 mt  829 4205 L
 958 4109 mt 1042 4193 L
1042 4109 mt  958 4193 L
1088 4346 mt 1172 4430 L
1172 4346 mt 1088 4430 L
1218 4353 mt 1302 4437 L
1302 4353 mt 1218 4437 L
1348 4336 mt 1432 4420 L
1432 4336 mt 1348 4420 L
1478 4315 mt 1562 4399 L
1562 4315 mt 1478 4399 L
1607 4276 mt 1691 4360 L
1691 4276 mt 1607 4360 L
1737 4204 mt 1821 4288 L
1821 4204 mt 1737 4288 L
1867 4041 mt 1951 4125 L
1951 4041 mt 1867 4125 L
1997 3915 mt 2081 3999 L
2081 3915 mt 1997 3999 L
2127 3826 mt 2211 3910 L
2211 3826 mt 2127 3910 L
2257 3776 mt 2341 3860 L
2341 3776 mt 2257 3860 L
2386 3813 mt 2470 3897 L
2470 3813 mt 2386 3897 L
2516 4016 mt 2600 4100 L
2600 4016 mt 2516 4100 L
2646 4198 mt 2730 4282 L
2730 4198 mt 2646 4282 L
2776 4209 mt 2860 4293 L
2860 4209 mt 2776 4293 L
2906 4165 mt 2990 4249 L
2990 4165 mt 2906 4249 L
3036 4225 mt 3120 4309 L
3120 4225 mt 3036 4309 L
3165 4129 mt 3249 4213 L
3249 4129 mt 3165 4213 L
3295 3683 mt 3379 3767 L
3379 3683 mt 3295 3767 L
3425 3192 mt 3509 3276 L
3509 3192 mt 3425 3276 L
3555 2256 mt 3639 2340 L
3639 2256 mt 3555 2340 L
3685 1349 mt 3769 1433 L
3769 1349 mt 3685 1433 L
3814  724 mt 3898  808 L
3898  724 mt 3814  808 L
3944  423 mt 4028  507 L
4028  423 mt 3944  507 L
4074  374 mt 4158  458 L
4158  374 mt 4074  458 L
4204  362 mt 4288  446 L
4288  362 mt 4204  446 L
4334  360 mt 4418  444 L
4418  360 mt 4334  444 L
4464  357 mt 4548  441 L
4548  357 mt 4464  441 L
4593  354 mt 4677  438 L
4677  354 mt 4593  438 L
4723  351 mt 4807  435 L
4807  351 mt 4723  435 L
4853  348 mt 4937  432 L
4937  348 mt 4853  432 L
4983  346 mt 5067  430 L
5067  346 mt 4983  430 L
5113  345 mt 5197  429 L
5197  345 mt 5113  429 L
5243  343 mt 5327  427 L
5327  343 mt 5243  427 L
5372  342 mt 5456  426 L
5456  342 mt 5372  426 L
5502  341 mt 5586  425 L
5586  341 mt 5502  425 L
5632  338 mt 5716  422 L
5716  338 mt 5632  422 L
5762  336 mt 5846  420 L
5846  336 mt 5762  420 L
5892  337 mt 5976  421 L
5976  337 mt 5892  421 L
6022  337 mt 6106  421 L
6106  337 mt 6022  421 L
gs 871 378 5194 4103 rc
24 w
/c11 { 0.210526 0.123711 0.123711 sr} bdef
c11
130 -255 130 -869 130 -1116 130 -905 130 -410 129 -123 130 -56 130 16 
130 53 130 65 130 13 129 -46 130 -65 130 -39 130 -29 130 -17 
130 -8 129 -1 130 -9 130 -20 130 -14 130 -7 129 13 130 34 
130 21 130 52 130 172 130 220 129 52 130 -17 130 -68 130 -113 
130 -164 130 -92 129 -59 130 -34 130 -19 130 -9 130 -2 129 -1 
871 4401 41 MP stroke
DO
130 -255 130 -869 130 -1117 130 -908 130 -418 129 -117 130 -63 130 24 
130 58 130 67 130 14 129 -47 130 -70 130 -37 130 -32 130 -16 
130 -8 129 4 130 -8 130 -29 130 -23 130 -21 129 20 130 61 
130 6 130 43 130 189 130 225 129 50 130 -18 130 -67 130 -113 
130 -171 130 -93 129 -65 130 -40 130 -33 130 -41 130 10 129 -5 
871 4458 41 MP stroke
SO
12 w
130 -251 130 -895 130 -1162 130 -861 130 -403 129 -115 130 -63 130 25 
130 58 130 68 130 13 129 -47 130 -72 130 -37 130 -31 130 -18 
130 -8 129 5 130 -8 130 -29 130 -23 130 -21 129 21 130 61 
130 5 130 42 130 181 130 203 129 43 130 -24 130 -62 130 -99 
130 -157 130 -86 129 -64 130 -38 130 -32 130 -40 130 21 129 -1 
871 4441 41 MP stroke
gr

c11
 829 4399 mt  913 4483 L
 913 4399 mt  829 4483 L
 958 4398 mt 1042 4482 L
1042 4398 mt  958 4482 L
1088 4419 mt 1172 4503 L
1172 4419 mt 1088 4503 L
1218 4379 mt 1302 4463 L
1302 4379 mt 1218 4463 L
1348 4347 mt 1432 4431 L
1432 4347 mt 1348 4431 L
1478 4309 mt 1562 4393 L
1562 4309 mt 1478 4393 L
1607 4245 mt 1691 4329 L
1691 4245 mt 1607 4329 L
1737 4159 mt 1821 4243 L
1821 4159 mt 1737 4243 L
1867 4002 mt 1951 4086 L
1951 4002 mt 1867 4086 L
1997 3903 mt 2081 3987 L
2081 3903 mt 1997 3987 L
2127 3841 mt 2211 3925 L
2211 3841 mt 2127 3925 L
2257 3817 mt 2341 3901 L
2341 3817 mt 2257 3901 L
2386 3860 mt 2470 3944 L
2470 3860 mt 2386 3944 L
2516 4063 mt 2600 4147 L
2600 4063 mt 2516 4147 L
2646 4244 mt 2730 4328 L
2730 4244 mt 2646 4328 L
2776 4286 mt 2860 4370 L
2860 4286 mt 2776 4370 L
2906 4291 mt 2990 4375 L
2990 4291 mt 2906 4375 L
3036 4352 mt 3120 4436 L
3120 4352 mt 3036 4436 L
3165 4373 mt 3249 4457 L
3249 4373 mt 3165 4457 L
3295 4352 mt 3379 4436 L
3379 4352 mt 3295 4436 L
3425 4329 mt 3509 4413 L
3509 4329 mt 3425 4413 L
3555 4300 mt 3639 4384 L
3639 4300 mt 3555 4384 L
3685 4292 mt 3769 4376 L
3769 4292 mt 3685 4376 L
3814 4297 mt 3898 4381 L
3898 4297 mt 3814 4381 L
3944 4289 mt 4028 4373 L
4028 4289 mt 3944 4373 L
4074 4271 mt 4158 4355 L
4158 4271 mt 4074 4355 L
4204 4240 mt 4288 4324 L
4288 4240 mt 4204 4324 L
4334 4203 mt 4418 4287 L
4418 4203 mt 4334 4287 L
4464 4131 mt 4548 4215 L
4548 4131 mt 4464 4215 L
4593 4084 mt 4677 4168 L
4677 4084 mt 4593 4168 L
4723 4097 mt 4807 4181 L
4807 4097 mt 4723 4181 L
4853 4165 mt 4937 4249 L
4937 4165 mt 4853 4249 L
4983 4223 mt 5067 4307 L
5067 4223 mt 4983 4307 L
5113 4248 mt 5197 4332 L
5197 4248 mt 5113 4332 L
5243 4185 mt 5327 4269 L
5327 4185 mt 5243 4269 L
5372 4070 mt 5456 4154 L
5456 4070 mt 5372 4154 L
5502 3667 mt 5586 3751 L
5586 3667 mt 5502 3751 L
5632 2806 mt 5716 2890 L
5716 2806 mt 5632 2890 L
5762 1644 mt 5846 1728 L
5846 1644 mt 5762 1728 L
5892  749 mt 5976  833 L
5976  749 mt 5892  833 L
6022  498 mt 6106  582 L
6106  498 mt 6022  582 L
gs 871 378 5194 4103 rc
gr

0 sg
 830 4547 mt 
( ) s
6024  444 mt 
( ) s
6 w
1 sg
0 2127 1367 0 0 -2127 4054 3026 4 MP
PP
-1367 0 0 2127 1367 0 0 -2127 4054 3026 5 MP stroke
4 w
DO
SO
6 w
0 sg
4054 3026 mt 5421 3026 L
4054  899 mt 5421  899 L
4054 3026 mt 4054  899 L
5421 3026 mt 5421  899 L
4054 3026 mt 5421 3026 L
4054 3026 mt 4054  899 L
4054 3026 mt 5421 3026 L
4054  899 mt 5421  899 L
4054 3026 mt 4054  899 L
5421 3026 mt 5421  899 L
4522 1049 mt 
(CM) s
gs 4054 899 1368 2128 rc
24 w
c8
360 0 4126 1006 2 MP stroke
gr

24 w
c8
0 sg
4522 1223 mt 
(CM from Fit1) s
gs 4054 899 1368 2128 rc
DO
c8
360 0 4126 1180 2 MP stroke
SO
gr

c8
0 sg
4522 1397 mt 
(CM from Tran) s
gs 4054 899 1368 2128 rc
12 w
c8
360 0 4126 1354 2 MP stroke
gs 4185 1233 243 243 rc
4264 1312 mt 4348 1396 L
4348 1312 mt 4264 1396 L
gr

gr

12 w
c8
0 sg
4522 1570 mt 
(CY) s
gs 4054 899 1368 2128 rc
24 w
c9
360 0 4126 1528 2 MP stroke
gr

24 w
c9
0 sg
4522 1744 mt 
(CY from Fit1) s
gs 4054 899 1368 2128 rc
DO
c9
360 0 4126 1701 2 MP stroke
SO
gr

c9
0 sg
4522 1918 mt 
(CY from Tran) s
gs 4054 899 1368 2128 rc
12 w
c9
360 0 4126 1875 2 MP stroke
gs 4185 1754 243 243 rc
4264 1833 mt 4348 1917 L
4348 1833 mt 4264 1917 L
gr

gr

12 w
c9
0 sg
4522 2092 mt 
(MY) s
gs 4054 899 1368 2128 rc
24 w
c10
360 0 4126 2049 2 MP stroke
gr

24 w
c10
0 sg
4522 2266 mt 
(MY from Fit1) s
gs 4054 899 1368 2128 rc
DO
c10
360 0 4126 2223 2 MP stroke
SO
gr

c10
0 sg
4522 2440 mt 
(MY from Tran) s
gs 4054 899 1368 2128 rc
12 w
c10
360 0 4126 2396 2 MP stroke
gs 4185 2275 243 243 rc
4264 2354 mt 4348 2438 L
4348 2354 mt 4264 2438 L
gr

gr

12 w
c10
0 sg
4522 2613 mt 
(CMY) s
gs 4054 899 1368 2128 rc
24 w
c11
360 0 4126 2570 2 MP stroke
gr

24 w
c11
0 sg
4522 2787 mt 
(CMY from Fit1) s
gs 4054 899 1368 2128 rc
DO
c11
360 0 4126 2744 2 MP stroke
SO
gr

c11
0 sg
4522 2961 mt 
(CMY from Tran) s
gs 4054 899 1368 2128 rc
12 w
c11
360 0 4126 2918 2 MP stroke
gr

12 w
c11
gs 4185 2797 243 243 rc
4264 2876 mt 4348 2960 L
4348 2876 mt 4264 2960 L
gr

gs 4054 899 1368 2128 rc
6 w
gr

6 w

end %%Color Dict

eplot
%%EndObject

epage
end

showpage

%%Trailer
%%EOF
