%!PS-Adobe-3.0 EPSF-3.0
%%Creator: MATLAB, The MathWorks, Inc. Version 8.0.0.783 (R2012b). Operating System: Darwin 14.5.0 Darwin Kernel Version 14.5.0: Mon Aug 29 21:14:16 PDT 2016; root:xnu-2782.50.6~1/RELEASE_X86_64 x86_64.
%%Title: /Users/pgh/Documents/MATLAB/rectoverso/data/ID01/graphics/tu9-12PSM=0;ISM=0.01;PWS=Chart;AMM=1;ESC=0;WBW=0.25.eps
%%CreationDate: 10/03/2016  10:42:26
%%DocumentNeededFonts: Helvetica
%%DocumentProcessColors: Cyan Magenta Yellow Black
%%LanguageLevel: 2
%%Pages: 1
%%BoundingBox:    17   211   576   631
%%EndComments

%%BeginProlog
% MathWorks dictionary
/MathWorks 160 dict begin
% definition operators
/bdef {bind def} bind def
/ldef {load def} bind def
/xdef {exch def} bdef
/xstore {exch store} bdef
% operator abbreviations
/c  /clip ldef
/cc /concat ldef
/cp /closepath ldef
/gr /grestore ldef
/gs /gsave ldef
/mt /moveto ldef
/np /newpath ldef
/cm /currentmatrix ldef
/sm /setmatrix ldef
/rm /rmoveto ldef
/rl /rlineto ldef
/s {show newpath} bdef
/sc {setcmykcolor} bdef
/sr /setrgbcolor ldef
/sg /setgray ldef
/w /setlinewidth ldef
/j /setlinejoin ldef
/cap /setlinecap ldef
/rc {rectclip} bdef
/rf {rectfill} bdef
% page state control
/pgsv () def
/bpage {/pgsv save def} bdef
/epage {pgsv restore} bdef
/bplot /gsave ldef
/eplot {stroke grestore} bdef
% orientation switch
/portraitMode 0 def /landscapeMode 1 def /rotateMode 2 def
% coordinate system mappings
/dpi2point 0 def
% font control
/FontSize 0 def
/FMS {/FontSize xstore findfont [FontSize 0 0 FontSize neg 0 0]
  makefont setfont} bdef
/reencode {exch dup where {pop load} {pop StandardEncoding} ifelse
  exch dup 3 1 roll findfont dup length dict begin
  { 1 index /FID ne {def}{pop pop} ifelse } forall
  /Encoding exch def currentdict end definefont pop} bdef
/isroman {findfont /CharStrings get /Agrave known} bdef
/FMSR {3 1 roll 1 index dup isroman {reencode} {pop pop} ifelse
  exch FMS} bdef
/csm {1 dpi2point div -1 dpi2point div scale neg translate
 dup landscapeMode eq {pop -90 rotate}
  {rotateMode eq {90 rotate} if} ifelse} bdef
% line types: solid, dotted, dashed, dotdash
/SO { [] 0 setdash } bdef
/DO { [.5 dpi2point mul 4 dpi2point mul] 0 setdash } bdef
/DA { [6 dpi2point mul] 0 setdash } bdef
/DD { [.5 dpi2point mul 4 dpi2point mul 6 dpi2point mul 4
  dpi2point mul] 0 setdash } bdef
% macros for lines and objects
/L {lineto stroke} bdef
/MP {3 1 roll moveto 1 sub {rlineto} repeat} bdef
/AP {{rlineto} repeat} bdef
/PDlw -1 def
/W {/PDlw currentlinewidth def setlinewidth} def
/PP {closepath eofill} bdef
/DP {closepath stroke} bdef
/MR {4 -2 roll moveto dup  0 exch rlineto exch 0 rlineto
  neg 0 exch rlineto closepath} bdef
/FR {MR stroke} bdef
/PR {MR fill} bdef
/L1i {{currentfile picstr readhexstring pop} image} bdef
/tMatrix matrix def
/MakeOval {newpath tMatrix currentmatrix pop translate scale
0 0 1 0 360 arc tMatrix setmatrix} bdef
/FO {MakeOval stroke} bdef
/PO {MakeOval fill} bdef
/PD {currentlinewidth 2 div 0 360 arc fill
   PDlw -1 eq not {PDlw w /PDlw -1 def} if} def
/FA {newpath tMatrix currentmatrix pop translate scale
  0 0 1 5 -2 roll arc tMatrix setmatrix stroke} bdef
/PA {newpath tMatrix currentmatrix pop	translate 0 0 moveto scale
  0 0 1 5 -2 roll arc closepath tMatrix setmatrix fill} bdef
/FAn {newpath tMatrix currentmatrix pop translate scale
  0 0 1 5 -2 roll arcn tMatrix setmatrix stroke} bdef
/PAn {newpath tMatrix currentmatrix pop translate 0 0 moveto scale
  0 0 1 5 -2 roll arcn closepath tMatrix setmatrix fill} bdef
/vradius 0 def /hradius 0 def /lry 0 def
/lrx 0 def /uly 0 def /ulx 0 def /rad 0 def
/MRR {/vradius xdef /hradius xdef /lry xdef /lrx xdef /uly xdef
  /ulx xdef newpath tMatrix currentmatrix pop ulx hradius add uly
  vradius add translate hradius vradius scale 0 0 1 180 270 arc 
  tMatrix setmatrix lrx hradius sub uly vradius add translate
  hradius vradius scale 0 0 1 270 360 arc tMatrix setmatrix
  lrx hradius sub lry vradius sub translate hradius vradius scale
  0 0 1 0 90 arc tMatrix setmatrix ulx hradius add lry vradius sub
  translate hradius vradius scale 0 0 1 90 180 arc tMatrix setmatrix
  closepath} bdef
/FRR {MRR stroke } bdef
/PRR {MRR fill } bdef
/MlrRR {/lry xdef /lrx xdef /uly xdef /ulx xdef /rad lry uly sub 2 div def
  newpath tMatrix currentmatrix pop ulx rad add uly rad add translate
  rad rad scale 0 0 1 90 270 arc tMatrix setmatrix lrx rad sub lry rad
  sub translate rad rad scale 0 0 1 270 90 arc tMatrix setmatrix
  closepath} bdef
/FlrRR {MlrRR stroke } bdef
/PlrRR {MlrRR fill } bdef
/MtbRR {/lry xdef /lrx xdef /uly xdef /ulx xdef /rad lrx ulx sub 2 div def
  newpath tMatrix currentmatrix pop ulx rad add uly rad add translate
  rad rad scale 0 0 1 180 360 arc tMatrix setmatrix lrx rad sub lry rad
  sub translate rad rad scale 0 0 1 0 180 arc tMatrix setmatrix
  closepath} bdef
/FtbRR {MtbRR stroke } bdef
/PtbRR {MtbRR fill } bdef
/stri 6 array def /dtri 6 array def
/smat 6 array def /dmat 6 array def
/tmat1 6 array def /tmat2 6 array def /dif 3 array def
/asub {/ind2 exch def /ind1 exch def dup dup
  ind1 get exch ind2 get sub exch } bdef
/tri_to_matrix {
  2 0 asub 3 1 asub 4 0 asub 5 1 asub
  dup 0 get exch 1 get 7 -1 roll astore } bdef
/compute_transform {
  dmat dtri tri_to_matrix tmat1 invertmatrix 
  smat stri tri_to_matrix tmat2 concatmatrix } bdef
/ds {stri astore pop} bdef
/dt {dtri astore pop} bdef
/db {2 copy /cols xdef /rows xdef mul dup 3 mul string
  currentfile 
  3 index 0 eq {/ASCIIHexDecode filter}
  {/ASCII85Decode filter 3 index 2 eq {/RunLengthDecode filter} if }
  ifelse exch readstring pop
  dup 0 3 index getinterval /rbmap xdef
  dup 2 index dup getinterval /gbmap xdef
  1 index dup 2 mul exch getinterval /bbmap xdef pop pop}bdef
/it {gs np dtri aload pop moveto lineto lineto cp c
  cols rows 8 compute_transform 
  rbmap gbmap bbmap true 3 colorimage gr}bdef
/il {newpath moveto lineto stroke}bdef
currentdict end def
%%EndProlog

%%BeginSetup
MathWorks begin

0 cap

end
%%EndSetup

%%Page: 1 1
%%BeginPageSetup
%%PageBoundingBox:    17   211   576   631
MathWorks begin
bpage
%%EndPageSetup

%%BeginObject: obj1
bplot

/dpi2point 12 def
portraitMode 0204 7572 csm

    0     0  6712  5034 rc
89 dict begin %Colortable dictionary
/c0 { 0.000000 0.000000 0.000000 sr} bdef
/c1 { 1.000000 1.000000 1.000000 sr} bdef
/c2 { 0.900000 0.000000 0.000000 sr} bdef
/c3 { 0.000000 0.820000 0.000000 sr} bdef
/c4 { 0.000000 0.000000 0.800000 sr} bdef
/c5 { 0.910000 0.820000 0.320000 sr} bdef
/c6 { 1.000000 0.260000 0.820000 sr} bdef
/c7 { 0.000000 0.820000 0.820000 sr} bdef
c0
1 j
1 sg
   0    0 6713 5035 rf
6 w
0 4102 5201 0 0 -4102 873 4480 4 MP
PP
-5201 0 0 4102 5201 0 0 -4102 873 4480 5 MP stroke
4 w
DO
0 sg
1133 4480 mt 1133  378 L
1133  378 mt 1133  378 L
1783 4480 mt 1783  378 L
1783  378 mt 1783  378 L
2433 4480 mt 2433  378 L
2433  378 mt 2433  378 L
3083 4480 mt 3083  378 L
3083  378 mt 3083  378 L
3733 4480 mt 3733  378 L
3733  378 mt 3733  378 L
4383 4480 mt 4383  378 L
4383  378 mt 4383  378 L
5033 4480 mt 5033  378 L
5033  378 mt 5033  378 L
5683 4480 mt 5683  378 L
5683  378 mt 5683  378 L
 873 4480 mt 6074 4480 L
6074 4480 mt 6074 4480 L
 873 3789 mt 6074 3789 L
6074 3789 mt 6074 3789 L
 873 3098 mt 6074 3098 L
6074 3098 mt 6074 3098 L
 873 2407 mt 6074 2407 L
6074 2407 mt 6074 2407 L
 873 1717 mt 6074 1717 L
6074 1717 mt 6074 1717 L
 873 1026 mt 6074 1026 L
6074 1026 mt 6074 1026 L
SO
6 w
 873 4480 mt 6074 4480 L
 873 4480 mt  873  378 L
1133 4480 mt 1133 4427 L
%%IncludeResource: font Helvetica
/Helvetica /ISOLatin1Encoding 120 FMSR

1033 4625 mt 
(400) s
1783 4480 mt 1783 4427 L
1683 4625 mt 
(450) s
2433 4480 mt 2433 4427 L
2333 4625 mt 
(500) s
3083 4480 mt 3083 4427 L
2983 4625 mt 
(550) s
3733 4480 mt 3733 4427 L
3633 4625 mt 
(600) s
4383 4480 mt 4383 4427 L
4283 4625 mt 
(650) s
5033 4480 mt 5033 4427 L
4933 4625 mt 
(700) s
5683 4480 mt 5683 4427 L
5583 4625 mt 
(750) s
 873 4480 mt  925 4480 L
 772 4524 mt 
(0) s
 873 3789 mt  925 3789 L
 605 3833 mt 
(0.05) s
 873 3098 mt  925 3098 L
 672 3142 mt 
(0.1) s
 873 2407 mt  925 2407 L
 605 2451 mt 
(0.15) s
 873 1717 mt  925 1717 L
 672 1761 mt 
(0.2) s
 873 1026 mt  925 1026 L
 605 1070 mt 
(0.25) s
2399  283 mt 
(Ink layer t_u ID01/ SCATTER MODEL=0) s
gs 873 378 5202 4103 rc
24 w
/c8 { 0.157895 0.175258 0.175258 sr} bdef
c8
131 64 130 1 130 -25 130 0 130 -2 130 4 130 4 130 10 
130 -2 130 2 130 -9 130 2 130 10 130 17 130 -19 130 9 
130 -4 130 5 130 29 130 1 130 -3 130 0 130 8 130 -6 
130 4 130 4 130 3 130 7 130 -3 130 2 130 -7 130 45 
130 21 130 15 130 22 130 71 130 37 130 236 130 761 130 -23 
873 581 41 MP stroke
12 w
131 -36 130 -33 130 -22 130 -22 130 -27 130 -11 130 -22 130 -22 
130 -26 130 -27 130 -21 130 -21 130 -20 130 -9 130 -19 130 -19 
130 -25 130 -17 130 -18 130 -21 130 -12 130 -16 130 -19 130 -16 
130 -26 130 -22 130 -18 130 -14 130 -6 130 -16 130 -15 130 -21 
130 -18 130 -10 130 -25 130 -29 130 -43 130 -97 130 24 130 -4 
873 4339 41 MP stroke
gr

12 w
c8
 831 4297 mt  915 4381 L
 915 4297 mt  831 4381 L
 961 4293 mt 1045 4377 L
1045 4293 mt  961 4377 L
1091 4317 mt 1175 4401 L
1175 4317 mt 1091 4401 L
1221 4220 mt 1305 4304 L
1305 4220 mt 1221 4304 L
1351 4177 mt 1435 4261 L
1435 4177 mt 1351 4261 L
1481 4148 mt 1565 4232 L
1565 4148 mt 1481 4232 L
1611 4123 mt 1695 4207 L
1695 4123 mt 1611 4207 L
1741 4113 mt 1825 4197 L
1825 4113 mt 1741 4197 L
1871 4095 mt 1955 4179 L
1955 4095 mt 1871 4179 L
2001 4074 mt 2085 4158 L
2085 4074 mt 2001 4158 L
2131 4059 mt 2215 4143 L
2215 4059 mt 2131 4143 L
2261 4043 mt 2345 4127 L
2345 4043 mt 2261 4127 L
2391 4037 mt 2475 4121 L
2475 4037 mt 2391 4121 L
2521 4023 mt 2605 4107 L
2605 4023 mt 2521 4107 L
2651 4005 mt 2735 4089 L
2735 4005 mt 2651 4089 L
2781 3983 mt 2865 4067 L
2865 3983 mt 2781 4067 L
2911 3957 mt 2995 4041 L
2995 3957 mt 2911 4041 L
3041 3941 mt 3125 4025 L
3125 3941 mt 3041 4025 L
3171 3922 mt 3255 4006 L
3255 3922 mt 3171 4006 L
3301 3906 mt 3385 3990 L
3385 3906 mt 3301 3990 L
3431 3894 mt 3515 3978 L
3515 3894 mt 3431 3978 L
3561 3873 mt 3645 3957 L
3645 3873 mt 3561 3957 L
3691 3855 mt 3775 3939 L
3775 3855 mt 3691 3939 L
3821 3838 mt 3905 3922 L
3905 3838 mt 3821 3922 L
3951 3813 mt 4035 3897 L
4035 3813 mt 3951 3897 L
4081 3794 mt 4165 3878 L
4165 3794 mt 4081 3878 L
4211 3775 mt 4295 3859 L
4295 3775 mt 4211 3859 L
4341 3766 mt 4425 3850 L
4425 3766 mt 4341 3850 L
4471 3746 mt 4555 3830 L
4555 3746 mt 4471 3830 L
4601 3725 mt 4685 3809 L
4685 3725 mt 4601 3809 L
4731 3704 mt 4815 3788 L
4815 3704 mt 4731 3788 L
4861 3677 mt 4945 3761 L
4945 3677 mt 4861 3761 L
4991 3651 mt 5075 3735 L
5075 3651 mt 4991 3735 L
5121 3629 mt 5205 3713 L
5205 3629 mt 5121 3713 L
5251 3607 mt 5335 3691 L
5335 3607 mt 5251 3691 L
5381 3596 mt 5465 3680 L
5465 3596 mt 5381 3680 L
5511 3569 mt 5595 3653 L
5595 3569 mt 5511 3653 L
5641 3547 mt 5725 3631 L
5725 3547 mt 5641 3631 L
5771 3525 mt 5855 3609 L
5855 3525 mt 5771 3609 L
5901 3492 mt 5985 3576 L
5985 3492 mt 5901 3576 L
6032 3456 mt 6116 3540 L
6116 3456 mt 6032 3540 L
gs 873 378 5202 4103 rc
24 w
/c9 { 0.000000 0.500000 0.500000 sr} bdef
c9
131 74 130 -82 130 -178 130 -192 130 -209 130 1 130 -109 130 -120 
130 -3 130 2 130 1 130 3 130 127 130 5 130 4 130 8 
130 8 130 3 130 4 130 1 130 -3 130 0 130 -2 130 108 
130 -5 130 99 130 -6 130 96 130 -1 130 2 130 101 130 11 
130 116 130 106 130 12 130 77 130 37 130 310 130 756 130 -27 
873 405 41 MP stroke
gr

24 w
c9
873 405 PD
1003 378 PD
1133 1134 PD
1263 1444 PD
1393 1481 PD
1523 1558 PD
1653 1570 PD
1783 1676 PD
1913 1792 PD
2043 1803 PD
2173 1904 PD
2303 1906 PD
2433 1905 PD
2563 2001 PD
2693 1995 PD
2823 2094 PD
2953 2089 PD
3083 2197 PD
3213 2195 PD
3343 2195 PD
3473 2192 PD
3603 2193 PD
3733 2197 PD
3863 2200 PD
3993 2208 PD
4123 2216 PD
4253 2220 PD
4383 2225 PD
4513 2352 PD
4643 2355 PD
4773 2356 PD
4903 2358 PD
5033 2355 PD
5163 2235 PD
5293 2126 PD
5423 2127 PD
5553 1918 PD
5683 1726 PD
5813 1548 PD
5943 1466 PD
6074 1540 PD
gs 873 378 5202 4103 rc
12 w
131 -156 130 -288 130 -224 130 -154 130 -62 130 -25 130 -4 130 0 
130 8 130 5 130 13 130 -13 130 -13 130 -4 130 0 130 -3 
130 0 130 8 130 5 130 5 130 20 130 45 130 77 130 84 
130 86 130 52 130 17 130 3 130 1 130 -14 130 -13 130 -23 
130 -33 130 -64 130 -39 130 -42 130 -45 130 -107 130 98 130 -4 
873 4356 41 MP stroke
gr

12 w
 831 4314 mt  915 4398 L
 915 4314 mt  831 4398 L
 961 4310 mt 1045 4394 L
1045 4310 mt  961 4394 L
1091 4408 mt 1175 4492 L
1175 4408 mt 1091 4492 L
1221 4301 mt 1305 4385 L
1305 4301 mt 1221 4385 L
1351 4256 mt 1435 4340 L
1435 4256 mt 1351 4340 L
1481 4214 mt 1565 4298 L
1565 4214 mt 1481 4298 L
1611 4175 mt 1695 4259 L
1695 4175 mt 1611 4259 L
1741 4111 mt 1825 4195 L
1825 4111 mt 1741 4195 L
1871 4078 mt 1955 4162 L
1955 4078 mt 1871 4162 L
2001 4055 mt 2085 4139 L
2085 4055 mt 2001 4139 L
2131 4042 mt 2215 4126 L
2215 4042 mt 2131 4126 L
2261 4028 mt 2345 4112 L
2345 4028 mt 2261 4112 L
2391 4029 mt 2475 4113 L
2475 4029 mt 2391 4113 L
2521 4032 mt 2605 4116 L
2605 4032 mt 2521 4116 L
2651 4049 mt 2735 4133 L
2735 4049 mt 2651 4133 L
2781 4101 mt 2865 4185 L
2865 4101 mt 2781 4185 L
2911 4187 mt 2995 4271 L
2995 4187 mt 2911 4271 L
3041 4271 mt 3125 4355 L
3125 4271 mt 3041 4355 L
3171 4348 mt 3255 4432 L
3255 4348 mt 3171 4432 L
3301 4393 mt 3385 4477 L
3385 4393 mt 3301 4477 L
3431 4413 mt 3515 4497 L
3515 4413 mt 3431 4497 L
3561 4418 mt 3645 4502 L
3645 4418 mt 3561 4502 L
3691 4423 mt 3775 4507 L
3775 4423 mt 3691 4507 L
3821 4431 mt 3905 4515 L
3905 4431 mt 3821 4515 L
3951 4431 mt 4035 4515 L
4035 4431 mt 3951 4515 L
4081 4428 mt 4165 4512 L
4165 4428 mt 4081 4512 L
4211 4428 mt 4295 4512 L
4295 4428 mt 4211 4512 L
4341 4424 mt 4425 4508 L
4425 4424 mt 4341 4508 L
4471 4411 mt 4555 4495 L
4555 4411 mt 4471 4495 L
4601 4398 mt 4685 4482 L
4685 4398 mt 4601 4482 L
4731 4411 mt 4815 4495 L
4815 4411 mt 4731 4495 L
4861 4416 mt 4945 4500 L
4945 4416 mt 4861 4500 L
4991 4424 mt 5075 4508 L
5075 4424 mt 4991 4508 L
5121 4424 mt 5205 4508 L
5205 4424 mt 5121 4508 L
5251 4420 mt 5335 4504 L
5335 4420 mt 5251 4504 L
5381 4395 mt 5465 4479 L
5465 4395 mt 5381 4479 L
5511 4333 mt 5595 4417 L
5595 4333 mt 5511 4417 L
5641 4179 mt 5725 4263 L
5725 4179 mt 5641 4263 L
5771 3955 mt 5855 4039 L
5855 3955 mt 5771 4039 L
5901 3667 mt 5985 3751 L
5985 3667 mt 5901 3751 L
6032 3511 mt 6116 3595 L
6116 3511 mt 6032 3595 L
gs 873 378 5202 4103 rc
24 w
/c10 { 0.450464 0.000000 0.500000 sr} bdef
c10
131 93 130 2 130 -1 130 -1 130 -1 130 3 130 4 130 -1 
130 -2 130 2 130 2 130 2 130 10 130 4 130 5 130 9 
130 8 130 -99 130 -104 130 -1 130 -118 130 -121 130 -4 130 -3 
130 112 130 -6 130 -5 130 107 130 -2 130 3 130 110 130 11 
130 121 130 15 130 11 130 183 130 57 130 311 130 704 130 -23 
873 614 41 MP stroke
gr

24 w
c10
873 614 PD
1003 591 PD
1133 1295 PD
1263 1606 PD
1393 1663 PD
1523 1846 PD
1653 1857 PD
1783 1872 PD
1913 1993 PD
2043 2004 PD
2173 2114 PD
2303 2117 PD
2433 2115 PD
2563 2222 PD
2693 2217 PD
2823 2211 PD
2953 2323 PD
3083 2320 PD
3213 2316 PD
3343 2195 PD
3473 2077 PD
3603 2076 PD
3733 1972 PD
3863 1873 PD
3993 1881 PD
4123 1890 PD
4253 1895 PD
4383 1899 PD
4513 1909 PD
4643 1911 PD
4773 1913 PD
4903 1915 PD
5033 1913 PD
5163 1912 PD
5293 1916 PD
5423 1919 PD
5553 1918 PD
5683 1917 PD
5813 1916 PD
5943 1918 PD
6074 2011 PD
gs 873 378 5202 4103 rc
12 w
131 -57 130 -22 130 -34 130 -24 130 -28 130 -11 130 -18 130 -34 
130 -30 130 -26 130 -7 130 -28 130 -21 130 -13 130 -29 130 -32 
130 -98 130 -146 130 -155 130 -129 130 -68 130 -59 130 0 130 5 
130 0 130 -5 130 27 130 28 130 18 130 30 130 21 130 52 
130 16 130 49 130 -12 130 15 130 -14 130 -70 130 -48 130 -4 
873 4356 41 MP stroke
gr

12 w
 831 4314 mt  915 4398 L
 915 4314 mt  831 4398 L
 961 4310 mt 1045 4394 L
1045 4310 mt  961 4394 L
1091 4262 mt 1175 4346 L
1175 4262 mt 1091 4346 L
1221 4192 mt 1305 4276 L
1305 4192 mt 1221 4276 L
1351 4178 mt 1435 4262 L
1435 4178 mt 1351 4262 L
1481 4193 mt 1565 4277 L
1565 4193 mt 1481 4277 L
1611 4181 mt 1695 4265 L
1695 4181 mt 1611 4265 L
1741 4230 mt 1825 4314 L
1825 4230 mt 1741 4314 L
1871 4246 mt 1955 4330 L
1955 4246 mt 1871 4330 L
2001 4298 mt 2085 4382 L
2085 4298 mt 2001 4382 L
2131 4319 mt 2215 4403 L
2215 4319 mt 2131 4403 L
2261 4349 mt 2345 4433 L
2345 4349 mt 2261 4433 L
2391 4367 mt 2475 4451 L
2475 4367 mt 2391 4451 L
2521 4395 mt 2605 4479 L
2605 4395 mt 2521 4479 L
2651 4422 mt 2735 4506 L
2735 4422 mt 2651 4506 L
2781 4417 mt 2865 4501 L
2865 4417 mt 2781 4501 L
2911 4417 mt 2995 4501 L
2995 4417 mt 2911 4501 L
3041 4422 mt 3125 4506 L
3125 4422 mt 3041 4506 L
3171 4422 mt 3255 4506 L
3255 4422 mt 3171 4506 L
3301 4363 mt 3385 4447 L
3385 4363 mt 3301 4447 L
3431 4295 mt 3515 4379 L
3515 4295 mt 3431 4379 L
3561 4166 mt 3645 4250 L
3645 4166 mt 3561 4250 L
3691 4011 mt 3775 4095 L
3775 4011 mt 3691 4095 L
3821 3865 mt 3905 3949 L
3905 3865 mt 3821 3949 L
3951 3767 mt 4035 3851 L
4035 3767 mt 3951 3851 L
4081 3735 mt 4165 3819 L
4165 3735 mt 4081 3819 L
4211 3706 mt 4295 3790 L
4295 3706 mt 4211 3790 L
4341 3693 mt 4425 3777 L
4425 3693 mt 4341 3777 L
4471 3672 mt 4555 3756 L
4555 3672 mt 4471 3756 L
4601 3644 mt 4685 3728 L
4685 3644 mt 4601 3728 L
4731 3637 mt 4815 3721 L
4815 3637 mt 4731 3721 L
4861 3611 mt 4945 3695 L
4945 3611 mt 4861 3695 L
4991 3581 mt 5075 3665 L
5075 3581 mt 4991 3665 L
5121 3547 mt 5205 3631 L
5205 3547 mt 5121 3631 L
5251 3529 mt 5335 3613 L
5335 3529 mt 5251 3613 L
5381 3518 mt 5465 3602 L
5465 3518 mt 5381 3602 L
5511 3490 mt 5595 3574 L
5595 3490 mt 5511 3574 L
5641 3466 mt 5725 3550 L
5725 3466 mt 5641 3550 L
5771 3432 mt 5855 3516 L
5855 3432 mt 5771 3516 L
5901 3410 mt 5985 3494 L
5985 3410 mt 5901 3494 L
6032 3353 mt 6116 3437 L
6116 3353 mt 6032 3437 L
gs 873 378 5202 4103 rc
24 w
/c11 { 0.450464 0.500000 0.000000 sr} bdef
c11
131 -9 130 -88 130 -2 130 0 130 -2 130 4 130 3 130 0 
130 87 130 2 130 3 130 2 130 11 130 5 130 5 130 11 
130 97 130 5 130 6 130 86 130 -3 130 82 130 -3 130 73 
130 68 130 66 130 62 130 65 130 -4 130 -142 130 -147 130 -150 
130 -150 130 -77 130 -85 130 83 130 -29 130 172 130 671 130 -17 
873 866 41 MP stroke
gr

24 w
c11
873 866 PD
1003 849 PD
1133 1520 PD
1263 1692 PD
1393 1663 PD
1523 1746 PD
1653 1661 PD
1783 1584 PD
1913 1434 PD
2043 1284 PD
2173 1137 PD
2303 995 PD
2433 991 PD
2563 1056 PD
2693 1118 PD
2823 1184 PD
2953 1252 PD
3083 1325 PD
3213 1322 PD
3343 1404 PD
3473 1401 PD
3603 1487 PD
3733 1493 PD
3863 1498 PD
3993 1595 PD
4123 1606 PD
4253 1611 PD
4383 1616 PD
4513 1627 PD
4643 1629 PD
4773 1632 PD
4903 1634 PD
5033 1721 PD
5163 1721 PD
5293 1724 PD
5423 1728 PD
5553 1726 PD
5683 1726 PD
5813 1724 PD
5943 1636 PD
6074 1627 PD
gs 873 378 5202 4103 rc
12 w
131 -65 130 -30 130 -13 130 -24 130 -38 130 -10 130 -23 130 -30 
130 -31 130 -35 130 -24 130 -11 130 -27 130 -22 130 -25 130 -24 
130 -37 130 -17 130 -22 130 -28 130 -16 130 -15 130 -45 130 -26 
130 -36 130 -36 130 -53 130 -55 130 -40 130 -64 130 -61 130 -4 
130 -22 130 -11 130 -4 130 2 130 3 130 2 130 225 130 -7 
873 4232 41 MP stroke
gr

12 w
 831 4190 mt  915 4274 L
 915 4190 mt  831 4274 L
 961 4183 mt 1045 4267 L
1045 4183 mt  961 4267 L
1091 4408 mt 1175 4492 L
1175 4408 mt 1091 4492 L
1221 4410 mt 1305 4494 L
1305 4410 mt 1221 4494 L
1351 4413 mt 1435 4497 L
1435 4413 mt 1351 4497 L
1481 4415 mt 1565 4499 L
1565 4415 mt 1481 4499 L
1611 4411 mt 1695 4495 L
1695 4411 mt 1611 4495 L
1741 4400 mt 1825 4484 L
1825 4400 mt 1741 4484 L
1871 4378 mt 1955 4462 L
1955 4378 mt 1871 4462 L
2001 4374 mt 2085 4458 L
2085 4374 mt 2001 4458 L
2131 4313 mt 2215 4397 L
2215 4313 mt 2131 4397 L
2261 4249 mt 2345 4333 L
2345 4249 mt 2261 4333 L
2391 4209 mt 2475 4293 L
2475 4209 mt 2391 4293 L
2521 4154 mt 2605 4238 L
2605 4154 mt 2521 4238 L
2651 4101 mt 2735 4185 L
2735 4101 mt 2651 4185 L
2781 4065 mt 2865 4149 L
2865 4065 mt 2781 4149 L
2911 4029 mt 2995 4113 L
2995 4029 mt 2911 4113 L
3041 4003 mt 3125 4087 L
3125 4003 mt 3041 4087 L
3171 3958 mt 3255 4042 L
3255 3958 mt 3171 4042 L
3301 3943 mt 3385 4027 L
3385 3943 mt 3301 4027 L
3431 3927 mt 3515 4011 L
3515 3927 mt 3431 4011 L
3561 3899 mt 3645 3983 L
3645 3899 mt 3561 3983 L
3691 3877 mt 3775 3961 L
3775 3877 mt 3691 3961 L
3821 3860 mt 3905 3944 L
3905 3860 mt 3821 3944 L
3951 3823 mt 4035 3907 L
4035 3823 mt 3951 3907 L
4081 3799 mt 4165 3883 L
4165 3799 mt 4081 3883 L
4211 3774 mt 4295 3858 L
4295 3774 mt 4211 3858 L
4341 3752 mt 4425 3836 L
4425 3752 mt 4341 3836 L
4471 3725 mt 4555 3809 L
4555 3725 mt 4471 3809 L
4601 3714 mt 4685 3798 L
4685 3714 mt 4601 3798 L
4731 3690 mt 4815 3774 L
4815 3690 mt 4731 3774 L
4861 3655 mt 4945 3739 L
4945 3655 mt 4861 3739 L
4991 3624 mt 5075 3708 L
5075 3624 mt 4991 3708 L
5121 3594 mt 5205 3678 L
5205 3594 mt 5121 3678 L
5251 3571 mt 5335 3655 L
5335 3571 mt 5251 3655 L
5381 3561 mt 5465 3645 L
5465 3561 mt 5381 3645 L
5511 3523 mt 5595 3607 L
5595 3523 mt 5511 3607 L
5641 3499 mt 5725 3583 L
5725 3499 mt 5641 3583 L
5771 3486 mt 5855 3570 L
5855 3486 mt 5771 3570 L
5901 3456 mt 5985 3540 L
5985 3456 mt 5901 3540 L
6032 3391 mt 6116 3475 L
6116 3391 mt 6032 3475 L
gs 873 378 5202 4103 rc
gr

0 sg
 832 4547 mt 
( ) s
6034  444 mt 
( ) s
6 w
1 sg
0 1431 1283 0 0 -1431 1078 3805 4 MP
PP
-1283 0 0 1431 1283 0 0 -1431 1078 3805 5 MP stroke
4 w
DO
SO
6 w
0 sg
1078 3805 mt 2361 3805 L
1078 2374 mt 2361 2374 L
1078 3805 mt 1078 2374 L
2361 3805 mt 2361 2374 L
1078 3805 mt 2361 3805 L
1078 3805 mt 1078 2374 L
1078 3805 mt 2361 3805 L
1078 2374 mt 2361 2374 L
1078 3805 mt 1078 2374 L
2361 3805 mt 2361 2374 L
1546 2524 mt 
(K) s
gs 1078 2374 1284 1432 rc
24 w
c8
360 0 1150 2481 2 MP stroke
gr

24 w
c8
0 sg
1546 2698 mt 
(K from Tran) s
gs 1078 2374 1284 1432 rc
12 w
c8
360 0 1150 2655 2 MP stroke
gs 1209 2534 243 243 rc
1288 2613 mt 1372 2697 L
1372 2613 mt 1288 2697 L
gr

gr

12 w
c8
0 sg
1546 2871 mt 
(CK) s
gs 1078 2374 1284 1432 rc
24 w
c9
360 0 1150 2829 2 MP stroke
gs 1232 2731 197 197 rc
1330 2829 PD
gr

gr

24 w
c9
0 sg
1546 3045 mt 
(CK from Tran) s
gs 1078 2374 1284 1432 rc
12 w
c9
360 0 1150 3002 2 MP stroke
gs 1209 2881 243 243 rc
1288 2960 mt 1372 3044 L
1372 2960 mt 1288 3044 L
gr

gr

12 w
c9
0 sg
1546 3219 mt 
(MK) s
gs 1078 2374 1284 1432 rc
24 w
c10
360 0 1150 3176 2 MP stroke
gs 1232 3078 197 197 rc
1330 3176 PD
gr

gr

24 w
c10
0 sg
1546 3393 mt 
(MK from Tran) s
gs 1078 2374 1284 1432 rc
12 w
c10
360 0 1150 3349 2 MP stroke
gs 1209 3228 243 243 rc
1288 3307 mt 1372 3391 L
1372 3307 mt 1288 3391 L
gr

gr

12 w
c10
0 sg
1546 3566 mt 
(YK) s
gs 1078 2374 1284 1432 rc
24 w
c11
360 0 1150 3523 2 MP stroke
gs 1232 3425 197 197 rc
1330 3523 PD
gr

gr

24 w
c11
0 sg
1546 3740 mt 
(YK from Tran) s
gs 1078 2374 1284 1432 rc
12 w
c11
360 0 1150 3697 2 MP stroke
gr

12 w
c11
gs 1209 3576 243 243 rc
1288 3655 mt 1372 3739 L
1372 3655 mt 1288 3739 L
gr

gs 1078 2374 1284 1432 rc
6 w
gr

6 w

end %%Color Dict

eplot
%%EndObject

epage
end

showpage

%%Trailer
%%EOF
