%!PS-Adobe-3.0 EPSF-3.0
%%Creator: MATLAB, The MathWorks, Inc. Version 8.0.0.783 (R2012b). Operating System: Darwin 14.5.0 Darwin Kernel Version 14.5.0: Mon Aug 29 21:14:16 PDT 2016; root:xnu-2782.50.6~1/RELEASE_X86_64 x86_64.
%%Title: /Users/pgh/Documents/MATLAB/rectoverso/data/ID01/graphics/tu9-12PSM=12;ISM=0.01;PWS=Chart;AMM=1;ESC=0;WBW=0.25.eps
%%CreationDate: 10/04/2016  10:19:33
%%DocumentNeededFonts: Helvetica
%%DocumentProcessColors: Cyan Magenta Yellow Black
%%LanguageLevel: 2
%%Pages: 1
%%BoundingBox:    17   211   575   631
%%EndComments

%%BeginProlog
% MathWorks dictionary
/MathWorks 160 dict begin
% definition operators
/bdef {bind def} bind def
/ldef {load def} bind def
/xdef {exch def} bdef
/xstore {exch store} bdef
% operator abbreviations
/c  /clip ldef
/cc /concat ldef
/cp /closepath ldef
/gr /grestore ldef
/gs /gsave ldef
/mt /moveto ldef
/np /newpath ldef
/cm /currentmatrix ldef
/sm /setmatrix ldef
/rm /rmoveto ldef
/rl /rlineto ldef
/s {show newpath} bdef
/sc {setcmykcolor} bdef
/sr /setrgbcolor ldef
/sg /setgray ldef
/w /setlinewidth ldef
/j /setlinejoin ldef
/cap /setlinecap ldef
/rc {rectclip} bdef
/rf {rectfill} bdef
% page state control
/pgsv () def
/bpage {/pgsv save def} bdef
/epage {pgsv restore} bdef
/bplot /gsave ldef
/eplot {stroke grestore} bdef
% orientation switch
/portraitMode 0 def /landscapeMode 1 def /rotateMode 2 def
% coordinate system mappings
/dpi2point 0 def
% font control
/FontSize 0 def
/FMS {/FontSize xstore findfont [FontSize 0 0 FontSize neg 0 0]
  makefont setfont} bdef
/reencode {exch dup where {pop load} {pop StandardEncoding} ifelse
  exch dup 3 1 roll findfont dup length dict begin
  { 1 index /FID ne {def}{pop pop} ifelse } forall
  /Encoding exch def currentdict end definefont pop} bdef
/isroman {findfont /CharStrings get /Agrave known} bdef
/FMSR {3 1 roll 1 index dup isroman {reencode} {pop pop} ifelse
  exch FMS} bdef
/csm {1 dpi2point div -1 dpi2point div scale neg translate
 dup landscapeMode eq {pop -90 rotate}
  {rotateMode eq {90 rotate} if} ifelse} bdef
% line types: solid, dotted, dashed, dotdash
/SO { [] 0 setdash } bdef
/DO { [.5 dpi2point mul 4 dpi2point mul] 0 setdash } bdef
/DA { [6 dpi2point mul] 0 setdash } bdef
/DD { [.5 dpi2point mul 4 dpi2point mul 6 dpi2point mul 4
  dpi2point mul] 0 setdash } bdef
% macros for lines and objects
/L {lineto stroke} bdef
/MP {3 1 roll moveto 1 sub {rlineto} repeat} bdef
/AP {{rlineto} repeat} bdef
/PDlw -1 def
/W {/PDlw currentlinewidth def setlinewidth} def
/PP {closepath eofill} bdef
/DP {closepath stroke} bdef
/MR {4 -2 roll moveto dup  0 exch rlineto exch 0 rlineto
  neg 0 exch rlineto closepath} bdef
/FR {MR stroke} bdef
/PR {MR fill} bdef
/L1i {{currentfile picstr readhexstring pop} image} bdef
/tMatrix matrix def
/MakeOval {newpath tMatrix currentmatrix pop translate scale
0 0 1 0 360 arc tMatrix setmatrix} bdef
/FO {MakeOval stroke} bdef
/PO {MakeOval fill} bdef
/PD {currentlinewidth 2 div 0 360 arc fill
   PDlw -1 eq not {PDlw w /PDlw -1 def} if} def
/FA {newpath tMatrix currentmatrix pop translate scale
  0 0 1 5 -2 roll arc tMatrix setmatrix stroke} bdef
/PA {newpath tMatrix currentmatrix pop	translate 0 0 moveto scale
  0 0 1 5 -2 roll arc closepath tMatrix setmatrix fill} bdef
/FAn {newpath tMatrix currentmatrix pop translate scale
  0 0 1 5 -2 roll arcn tMatrix setmatrix stroke} bdef
/PAn {newpath tMatrix currentmatrix pop translate 0 0 moveto scale
  0 0 1 5 -2 roll arcn closepath tMatrix setmatrix fill} bdef
/vradius 0 def /hradius 0 def /lry 0 def
/lrx 0 def /uly 0 def /ulx 0 def /rad 0 def
/MRR {/vradius xdef /hradius xdef /lry xdef /lrx xdef /uly xdef
  /ulx xdef newpath tMatrix currentmatrix pop ulx hradius add uly
  vradius add translate hradius vradius scale 0 0 1 180 270 arc 
  tMatrix setmatrix lrx hradius sub uly vradius add translate
  hradius vradius scale 0 0 1 270 360 arc tMatrix setmatrix
  lrx hradius sub lry vradius sub translate hradius vradius scale
  0 0 1 0 90 arc tMatrix setmatrix ulx hradius add lry vradius sub
  translate hradius vradius scale 0 0 1 90 180 arc tMatrix setmatrix
  closepath} bdef
/FRR {MRR stroke } bdef
/PRR {MRR fill } bdef
/MlrRR {/lry xdef /lrx xdef /uly xdef /ulx xdef /rad lry uly sub 2 div def
  newpath tMatrix currentmatrix pop ulx rad add uly rad add translate
  rad rad scale 0 0 1 90 270 arc tMatrix setmatrix lrx rad sub lry rad
  sub translate rad rad scale 0 0 1 270 90 arc tMatrix setmatrix
  closepath} bdef
/FlrRR {MlrRR stroke } bdef
/PlrRR {MlrRR fill } bdef
/MtbRR {/lry xdef /lrx xdef /uly xdef /ulx xdef /rad lrx ulx sub 2 div def
  newpath tMatrix currentmatrix pop ulx rad add uly rad add translate
  rad rad scale 0 0 1 180 360 arc tMatrix setmatrix lrx rad sub lry rad
  sub translate rad rad scale 0 0 1 0 180 arc tMatrix setmatrix
  closepath} bdef
/FtbRR {MtbRR stroke } bdef
/PtbRR {MtbRR fill } bdef
/stri 6 array def /dtri 6 array def
/smat 6 array def /dmat 6 array def
/tmat1 6 array def /tmat2 6 array def /dif 3 array def
/asub {/ind2 exch def /ind1 exch def dup dup
  ind1 get exch ind2 get sub exch } bdef
/tri_to_matrix {
  2 0 asub 3 1 asub 4 0 asub 5 1 asub
  dup 0 get exch 1 get 7 -1 roll astore } bdef
/compute_transform {
  dmat dtri tri_to_matrix tmat1 invertmatrix 
  smat stri tri_to_matrix tmat2 concatmatrix } bdef
/ds {stri astore pop} bdef
/dt {dtri astore pop} bdef
/db {2 copy /cols xdef /rows xdef mul dup 3 mul string
  currentfile 
  3 index 0 eq {/ASCIIHexDecode filter}
  {/ASCII85Decode filter 3 index 2 eq {/RunLengthDecode filter} if }
  ifelse exch readstring pop
  dup 0 3 index getinterval /rbmap xdef
  dup 2 index dup getinterval /gbmap xdef
  1 index dup 2 mul exch getinterval /bbmap xdef pop pop}bdef
/it {gs np dtri aload pop moveto lineto lineto cp c
  cols rows 8 compute_transform 
  rbmap gbmap bbmap true 3 colorimage gr}bdef
/il {newpath moveto lineto stroke}bdef
currentdict end def
%%EndProlog

%%BeginSetup
MathWorks begin

0 cap

end
%%EndSetup

%%Page: 1 1
%%BeginPageSetup
%%PageBoundingBox:    17   211   575   631
MathWorks begin
bpage
%%EndPageSetup

%%BeginObject: obj1
bplot

/dpi2point 12 def
portraitMode 0204 7572 csm

    0     0  6700  5034 rc
89 dict begin %Colortable dictionary
/c0 { 0.000000 0.000000 0.000000 sr} bdef
/c1 { 1.000000 1.000000 1.000000 sr} bdef
/c2 { 0.900000 0.000000 0.000000 sr} bdef
/c3 { 0.000000 0.820000 0.000000 sr} bdef
/c4 { 0.000000 0.000000 0.800000 sr} bdef
/c5 { 0.910000 0.820000 0.320000 sr} bdef
/c6 { 1.000000 0.260000 0.820000 sr} bdef
/c7 { 0.000000 0.820000 0.820000 sr} bdef
c0
1 j
1 sg
   0    0 6701 5035 rf
6 w
0 4102 5193 0 0 -4102 871 4480 4 MP
PP
-5193 0 0 4102 5193 0 0 -4102 871 4480 5 MP stroke
4 w
DO
0 sg
1130 4480 mt 1130  378 L
1130  378 mt 1130  378 L
1779 4480 mt 1779  378 L
1779  378 mt 1779  378 L
2428 4480 mt 2428  378 L
2428  378 mt 2428  378 L
3078 4480 mt 3078  378 L
3078  378 mt 3078  378 L
3727 4480 mt 3727  378 L
3727  378 mt 3727  378 L
4376 4480 mt 4376  378 L
4376  378 mt 4376  378 L
5025 4480 mt 5025  378 L
5025  378 mt 5025  378 L
5674 4480 mt 5674  378 L
5674  378 mt 5674  378 L
 871 4480 mt 6064 4480 L
6064 4480 mt 6064 4480 L
 871 3959 mt 6064 3959 L
6064 3959 mt 6064 3959 L
 871 3438 mt 6064 3438 L
6064 3438 mt 6064 3438 L
 871 2917 mt 6064 2917 L
6064 2917 mt 6064 2917 L
 871 2397 mt 6064 2397 L
6064 2397 mt 6064 2397 L
 871 1876 mt 6064 1876 L
6064 1876 mt 6064 1876 L
 871 1355 mt 6064 1355 L
6064 1355 mt 6064 1355 L
 871  834 mt 6064  834 L
6064  834 mt 6064  834 L
SO
6 w
 871 4480 mt 6064 4480 L
 871 4480 mt  871  378 L
1130 4480 mt 1130 4428 L
%%IncludeResource: font Helvetica
/Helvetica /ISOLatin1Encoding 120 FMSR

1030 4625 mt 
(400) s
1779 4480 mt 1779 4428 L
1679 4625 mt 
(450) s
2428 4480 mt 2428 4428 L
2328 4625 mt 
(500) s
3078 4480 mt 3078 4428 L
2978 4625 mt 
(550) s
3727 4480 mt 3727 4428 L
3627 4625 mt 
(600) s
4376 4480 mt 4376 4428 L
4276 4625 mt 
(650) s
5025 4480 mt 5025 4428 L
4925 4625 mt 
(700) s
5674 4480 mt 5674 4428 L
5574 4625 mt 
(750) s
 871 4480 mt  922 4480 L
 770 4524 mt 
(0) s
 871 3959 mt  922 3959 L
 603 4003 mt 
(0.01) s
 871 3438 mt  922 3438 L
 603 3482 mt 
(0.02) s
 871 2917 mt  922 2917 L
 603 2961 mt 
(0.03) s
 871 2397 mt  922 2397 L
 603 2441 mt 
(0.04) s
 871 1876 mt  922 1876 L
 603 1920 mt 
(0.05) s
 871 1355 mt  922 1355 L
 603 1399 mt 
(0.06) s
 871  834 mt  922  834 L
 603  878 mt 
(0.07) s
2360  283 mt 
(Ink layer t_u ID01/ SCATTER MODEL=12) s
gs 871 378 5194 4103 rc
24 w
/c8 { 0.157895 0.175258 0.175258 sr} bdef
c8
130 -109 130 -103 130 -101 130 -101 130 -99 129 -50 130 -80 130 -81 
130 -99 130 -99 130 -81 129 -81 130 -75 130 -43 130 -75 130 -77 
130 -97 129 -70 130 -59 130 -68 130 -52 130 -58 129 -65 130 -63 
130 -85 130 -72 130 -57 130 -41 129 -28 130 -49 130 -55 130 -63 
130 -54 130 -44 129 -65 130 -72 130 -84 130 -70 130 -23 129 -10 
871 3549 41 MP stroke
DO
130 -114 130 -103 130 -101 130 -101 130 -103 129 -44 130 -81 130 -81 
130 -100 130 -100 130 -80 129 -82 130 -78 130 -35 130 -79 130 -75 
130 -105 129 -68 130 -56 130 -74 130 -48 130 -60 129 -67 130 -61 
130 -98 130 -78 130 -64 130 -43 129 -20 130 -62 130 -63 130 -85 
130 -71 130 -40 129 -97 130 -105 130 -177 130 -366 130 -22 129 -81 
871 4154 41 MP stroke
SO
12 w
130 -128 130 -105 130 -97 130 -103 130 -104 129 -46 130 -83 130 -82 
130 -101 130 -101 130 -79 129 -82 130 -80 130 -37 130 -76 130 -76 
130 -104 129 -69 130 -59 130 -75 130 -47 130 -60 129 -69 130 -61 
130 -98 130 -79 130 -64 130 -44 129 -20 130 -61 130 -62 130 -88 
130 -70 130 -40 129 -95 130 -103 130 -159 130 -344 130 102 129 -20 
871 3935 41 MP stroke
gr

12 w
c8
 829 3893 mt  913 3977 L
 913 3893 mt  829 3977 L
 958 3873 mt 1042 3957 L
1042 3873 mt  958 3957 L
1088 3975 mt 1172 4059 L
1172 3975 mt 1088 4059 L
1218 3631 mt 1302 3715 L
1302 3631 mt 1218 3715 L
1348 3472 mt 1432 3556 L
1432 3472 mt 1348 3556 L
1478 3369 mt 1562 3453 L
1562 3369 mt 1478 3453 L
1607 3274 mt 1691 3358 L
1691 3274 mt 1607 3358 L
1737 3234 mt 1821 3318 L
1821 3234 mt 1737 3318 L
1867 3164 mt 1951 3248 L
1951 3164 mt 1867 3248 L
1997 3076 mt 2081 3160 L
2081 3076 mt 1997 3160 L
2127 3014 mt 2211 3098 L
2211 3014 mt 2127 3098 L
2257 2953 mt 2341 3037 L
2341 2953 mt 2257 3037 L
2386 2933 mt 2470 3017 L
2470 2933 mt 2386 3017 L
2516 2889 mt 2600 2973 L
2600 2889 mt 2516 2973 L
2646 2825 mt 2730 2909 L
2730 2825 mt 2646 2909 L
2776 2746 mt 2860 2830 L
2860 2746 mt 2776 2830 L
2906 2648 mt 2990 2732 L
2990 2648 mt 2906 2732 L
3036 2587 mt 3120 2671 L
3120 2587 mt 3036 2671 L
3165 2518 mt 3249 2602 L
3249 2518 mt 3165 2602 L
3295 2458 mt 3379 2542 L
3379 2458 mt 3295 2542 L
3425 2411 mt 3509 2495 L
3509 2411 mt 3425 2495 L
3555 2336 mt 3639 2420 L
3639 2336 mt 3555 2420 L
3685 2277 mt 3769 2361 L
3769 2277 mt 3685 2361 L
3814 2208 mt 3898 2292 L
3898 2208 mt 3814 2292 L
3944 2104 mt 4028 2188 L
4028 2104 mt 3944 2188 L
4074 2028 mt 4158 2112 L
4158 2028 mt 4074 2112 L
4204 1952 mt 4288 2036 L
4288 1952 mt 4204 2036 L
4334 1915 mt 4418 1999 L
4418 1915 mt 4334 1999 L
4464 1835 mt 4548 1919 L
4548 1835 mt 4464 1919 L
4593 1753 mt 4677 1837 L
4677 1753 mt 4593 1837 L
4723 1674 mt 4807 1758 L
4807 1674 mt 4723 1758 L
4853 1573 mt 4937 1657 L
4937 1573 mt 4853 1657 L
4983 1472 mt 5067 1556 L
5067 1472 mt 4983 1556 L
5113 1390 mt 5197 1474 L
5197 1390 mt 5113 1474 L
5243 1307 mt 5327 1391 L
5327 1307 mt 5243 1391 L
5372 1261 mt 5456 1345 L
5456 1261 mt 5372 1345 L
5502 1157 mt 5586 1241 L
5586 1157 mt 5502 1241 L
5632 1054 mt 5716 1138 L
5716 1054 mt 5632 1138 L
5762  957 mt 5846 1041 L
5846  957 mt 5762 1041 L
5892  852 mt 5976  936 L
5976  852 mt 5892  936 L
6022  724 mt 6106  808 L
6106  724 mt 6022  808 L
gs 871 378 5194 4103 rc
24 w
/c9 { 0.000000 0.500000 0.500000 sr} bdef
c9
130 -521 130 -1100 130 -867 130 -413 130 -95 129 -17 130 -3 130 0 
130 2 130 1 130 3 129 -3 130 -2 130 -1 130 0 130 0 
130 0 129 0 130 1 130 3 130 11 130 43 129 125 130 223 
130 274 130 204 130 70 130 40 129 5 130 -46 130 -33 130 -94 
130 -100 130 -200 129 -145 130 -127 130 -118 130 -81 130 -1 129 -8 
871 3878 41 MP stroke
gr

24 w
c9
871 3878 PD
1000 3870 PD
1130 3869 PD
1260 3788 PD
1390 3670 PD
1520 3543 PD
1649 3398 PD
1779 3198 PD
1909 3098 PD
2039 3004 PD
2169 2971 PD
2299 2925 PD
2428 2930 PD
2558 2970 PD
2688 3040 PD
2818 3244 PD
2948 3518 PD
3078 3741 PD
3207 3866 PD
3337 3909 PD
3467 3920 PD
3597 3923 PD
3727 3924 PD
3856 3924 PD
3986 3924 PD
4116 3924 PD
4246 3924 PD
4376 3923 PD
4506 3921 PD
4635 3918 PD
4765 3921 PD
4895 3922 PD
5025 3924 PD
5155 3924 PD
5285 3921 PD
5414 3904 PD
5544 3809 PD
5674 3396 PD
5804 2529 PD
5934 1429 PD
6064 908 PD
gs 871 378 5194 4103 rc
DO
130 -518 130 -1114 130 -923 130 -618 130 -244 129 -95 130 -16 130 0 
130 32 130 17 130 50 129 -48 130 -48 130 -17 130 1 130 -17 
130 0 129 35 130 19 130 19 130 73 130 166 129 280 130 316 
130 311 130 210 130 64 130 40 129 6 130 -49 130 -30 130 -97 
130 -94 130 -226 129 -161 130 -163 130 -210 130 -415 130 271 129 -137 
871 4234 41 MP stroke
SO
12 w
130 -584 130 -1082 130 -855 130 -587 130 -237 129 -95 130 -15 130 1 
130 31 130 17 130 51 129 -49 130 -48 130 -15 130 0 130 -13 
130 0 129 30 130 18 130 19 130 74 130 170 129 286 130 311 
130 320 130 196 130 67 130 17 129 7 130 -49 130 -58 130 -98 
130 -123 130 -239 129 -146 130 -156 130 -164 130 -394 130 387 129 -18 
871 3998 41 MP stroke
gr

12 w
 829 3956 mt  913 4040 L
 913 3956 mt  829 4040 L
 958 3938 mt 1042 4022 L
1042 3938 mt  958 4022 L
1088 4325 mt 1172 4409 L
1172 4325 mt 1088 4409 L
1218 3931 mt 1302 4015 L
1302 3931 mt 1218 4015 L
1348 3767 mt 1432 3851 L
1432 3767 mt 1348 3851 L
1478 3611 mt 1562 3695 L
1562 3611 mt 1478 3695 L
1607 3465 mt 1691 3549 L
1691 3465 mt 1607 3549 L
1737 3226 mt 1821 3310 L
1821 3226 mt 1737 3310 L
1867 3103 mt 1951 3187 L
1951 3103 mt 1867 3187 L
1997 3005 mt 2081 3089 L
2081 3005 mt 1997 3089 L
2127 2947 mt 2211 3031 L
2211 2947 mt 2127 3031 L
2257 2898 mt 2341 2982 L
2341 2898 mt 2257 2982 L
2386 2905 mt 2470 2989 L
2470 2905 mt 2386 2989 L
2516 2922 mt 2600 3006 L
2600 2922 mt 2516 3006 L
2646 2989 mt 2730 3073 L
2730 2989 mt 2646 3073 L
2776 3185 mt 2860 3269 L
2860 3185 mt 2776 3269 L
2906 3505 mt 2990 3589 L
2990 3505 mt 2906 3589 L
3036 3816 mt 3120 3900 L
3120 3816 mt 3036 3900 L
3165 4102 mt 3249 4186 L
3249 4102 mt 3165 4186 L
3295 4272 mt 3379 4356 L
3379 4272 mt 3295 4356 L
3425 4346 mt 3509 4430 L
3509 4346 mt 3425 4430 L
3555 4365 mt 3639 4449 L
3639 4365 mt 3555 4449 L
3685 4383 mt 3769 4467 L
3769 4383 mt 3685 4467 L
3814 4413 mt 3898 4497 L
3898 4413 mt 3814 4497 L
3944 4413 mt 4028 4497 L
4028 4413 mt 3944 4497 L
4074 4400 mt 4158 4484 L
4158 4400 mt 4074 4484 L
4204 4400 mt 4288 4484 L
4288 4400 mt 4204 4484 L
4334 4385 mt 4418 4469 L
4418 4385 mt 4334 4469 L
4464 4337 mt 4548 4421 L
4548 4337 mt 4464 4421 L
4593 4288 mt 4677 4372 L
4677 4288 mt 4593 4372 L
4723 4339 mt 4807 4423 L
4807 4339 mt 4723 4423 L
4853 4356 mt 4937 4440 L
4937 4356 mt 4853 4440 L
4983 4387 mt 5067 4471 L
5067 4387 mt 4983 4471 L
5113 4388 mt 5197 4472 L
5197 4388 mt 5113 4472 L
5243 4373 mt 5327 4457 L
5327 4373 mt 5243 4457 L
5372 4278 mt 5456 4362 L
5456 4278 mt 5372 4362 L
5502 4041 mt 5586 4125 L
5586 4041 mt 5502 4125 L
5632 3454 mt 5716 3538 L
5716 3454 mt 5632 3538 L
5762 2599 mt 5846 2683 L
5846 2599 mt 5762 2683 L
5892 1517 mt 5976 1601 L
5976 1517 mt 5892 1601 L
6022  933 mt 6106 1017 L
6106  933 mt 6022 1017 L
gs 871 378 5194 4103 rc
24 w
/c10 { 0.450464 0.000000 0.500000 sr} bdef
c10
130 -166 130 -59 130 -133 130 -109 130 -107 129 -41 130 -66 130 -124 
130 -114 130 -92 130 -31 129 -103 130 -81 130 -52 130 -112 130 -134 
130 -373 129 -545 130 -510 130 -323 130 -136 130 -51 129 -12 130 -3 
130 0 130 2 130 8 130 18 129 22 130 38 130 49 130 88 
130 69 130 99 129 3 130 23 130 -58 130 -96 130 -50 129 -22 
871 3722 41 MP stroke
gr

24 w
c10
871 3722 PD
1000 3700 PD
1130 3650 PD
1260 3554 PD
1390 3496 PD
1520 3519 PD
1649 3522 PD
1779 3621 PD
1909 3690 PD
2039 3778 PD
2169 3827 PD
2299 3865 PD
2428 3887 PD
2558 3905 PD
2688 3913 PD
2818 3915 PD
2948 3915 PD
3078 3912 PD
3207 3900 PD
3337 3849 PD
3467 3713 PD
3597 3390 PD
3727 2880 PD
3856 2335 PD
3986 1962 PD
4116 1828 PD
4246 1716 PD
4376 1664 PD
4506 1583 PD
4635 1480 PD
4765 1449 PD
4895 1357 PD
5025 1243 PD
5155 1119 PD
5285 1053 PD
5414 1012 PD
5544 905 PD
5674 796 PD
5804 663 PD
5934 604 PD
6064 438 PD
gs 871 378 5194 4103 rc
DO
130 -171 130 -55 130 -135 130 -109 130 -109 129 -39 130 -65 130 -126 
130 -113 130 -94 130 -26 129 -107 130 -81 130 -49 130 -113 130 -122 
130 -373 129 -563 130 -582 130 -481 130 -257 130 -219 129 0 130 20 
130 1 130 -18 130 100 130 107 129 67 130 114 130 79 130 192 
130 67 130 183 129 -47 130 77 130 -77 130 -260 130 -260 129 -102 
871 4181 41 MP stroke
SO
12 w
130 -207 130 -59 130 -141 130 -113 130 -113 129 -42 130 -68 130 -130 
130 -116 130 -96 130 -27 129 -108 130 -86 130 -50 130 -114 130 -126 
130 -375 129 -548 130 -571 130 -481 130 -255 130 -219 129 1 130 19 
130 1 130 -18 130 100 130 106 129 67 130 115 130 73 130 191 
130 58 130 178 129 -44 130 58 130 -50 130 -237 130 -175 129 -18 
871 3998 41 MP stroke
gr

12 w
 829 3956 mt  913 4040 L
 913 3956 mt  829 4040 L
 958 3938 mt 1042 4022 L
1042 3938 mt  958 4022 L
1088 3763 mt 1172 3847 L
1172 3763 mt 1088 3847 L
1218 3526 mt 1302 3610 L
1302 3526 mt 1218 3610 L
1348 3476 mt 1432 3560 L
1432 3476 mt 1348 3560 L
1478 3534 mt 1562 3618 L
1562 3534 mt 1478 3618 L
1607 3490 mt 1691 3574 L
1691 3490 mt 1607 3574 L
1737 3668 mt 1821 3752 L
1821 3668 mt 1737 3752 L
1867 3726 mt 1951 3810 L
1951 3726 mt 1867 3810 L
1997 3917 mt 2081 4001 L
2081 3917 mt 1997 4001 L
2127 3990 mt 2211 4074 L
2211 3990 mt 2127 4074 L
2257 4105 mt 2341 4189 L
2341 4105 mt 2257 4189 L
2386 4172 mt 2470 4256 L
2470 4172 mt 2386 4256 L
2516 4278 mt 2600 4362 L
2600 4278 mt 2516 4362 L
2646 4378 mt 2730 4462 L
2730 4378 mt 2646 4462 L
2776 4360 mt 2860 4444 L
2860 4360 mt 2776 4444 L
2906 4361 mt 2990 4445 L
2990 4361 mt 2906 4445 L
3036 4380 mt 3120 4464 L
3120 4380 mt 3036 4464 L
3165 4381 mt 3249 4465 L
3249 4381 mt 3165 4465 L
3295 4162 mt 3379 4246 L
3379 4162 mt 3295 4246 L
3425 3907 mt 3509 3991 L
3509 3907 mt 3425 3991 L
3555 3426 mt 3639 3510 L
3639 3426 mt 3555 3510 L
3685 2855 mt 3769 2939 L
3769 2855 mt 3685 2939 L
3814 2307 mt 3898 2391 L
3898 2307 mt 3814 2391 L
3944 1932 mt 4028 2016 L
4028 1932 mt 3944 2016 L
4074 1806 mt 4158 1890 L
4158 1806 mt 4074 1890 L
4204 1692 mt 4288 1776 L
4288 1692 mt 4204 1776 L
4334 1642 mt 4418 1726 L
4418 1642 mt 4334 1726 L
4464 1556 mt 4548 1640 L
4548 1556 mt 4464 1640 L
4593 1448 mt 4677 1532 L
4677 1448 mt 4593 1532 L
4723 1421 mt 4807 1505 L
4807 1421 mt 4723 1505 L
4853 1325 mt 4937 1409 L
4937 1325 mt 4853 1409 L
4983 1209 mt 5067 1293 L
5067 1209 mt 4983 1293 L
5113 1079 mt 5197 1163 L
5197 1079 mt 5113 1163 L
5243 1011 mt 5327 1095 L
5327 1011 mt 5243 1095 L
5372  969 mt 5456 1053 L
5456  969 mt 5372 1053 L
5502  856 mt 5586  940 L
5586  856 mt 5502  940 L
5632  743 mt 5716  827 L
5716  743 mt 5632  827 L
5762  602 mt 5846  686 L
5846  602 mt 5762  686 L
5892  543 mt 5976  627 L
5976  543 mt 5892  627 L
6022  336 mt 6106  420 L
6106  336 mt 6022  420 L
gs 871 378 5194 4103 rc
24 w
/c11 { 0.450464 0.500000 0.000000 sr} bdef
c11
130 -203 130 -109 130 -72 130 -109 130 -129 129 -59 130 -85 130 -109 
130 -109 130 -121 130 -93 129 -61 130 -93 130 -89 130 -97 130 -99 
130 -116 129 -82 130 -78 130 -83 130 -70 130 -71 129 -118 130 -101 
130 -110 130 -113 130 -124 130 -110 129 -88 130 -74 130 -48 130 -22 
130 -12 130 -6 129 -4 130 -1 130 0 130 3 130 8 129 2 
871 3609 41 MP stroke
gr

24 w
c11
871 3609 PD
1000 3611 PD
1130 3619 PD
1260 3622 PD
1390 3622 PD
1520 3621 PD
1649 3617 PD
1779 3611 PD
1909 3599 PD
2039 3577 PD
2169 3529 PD
2299 3455 PD
2428 3367 PD
2558 3257 PD
2688 3133 PD
2818 3020 PD
2948 2910 PD
3078 2809 PD
3207 2691 PD
3337 2620 PD
3467 2550 PD
3597 2467 PD
3727 2389 PD
3856 2307 PD
3986 2191 PD
4116 2092 PD
4246 1995 PD
4376 1906 PD
4506 1813 PD
4635 1752 PD
4765 1659 PD
4895 1538 PD
5025 1429 PD
5155 1320 PD
5285 1235 PD
5414 1176 PD
5544 1047 PD
5674 938 PD
5804 866 PD
5934 757 PD
6064 554 PD
gs 871 378 5194 4103 rc
DO
130 -239 130 -101 130 -62 130 -111 130 -144 129 -42 130 -85 130 -113 
130 -107 130 -131 130 -94 129 -44 130 -104 130 -85 130 -99 130 -93 
130 -141 129 -68 130 -75 130 -97 130 -62 130 -46 129 -169 130 -91 
130 -132 130 -133 130 -196 130 -201 129 -155 130 -250 130 -237 130 -18 
130 -84 130 -43 129 -20 130 10 130 12 130 5 130 531 129 -98 
871 3943 41 MP stroke
SO
12 w
130 -239 130 -92 130 -62 130 -113 130 -145 129 -43 130 -86 130 -114 
130 -116 130 -132 130 -95 129 -43 130 -105 130 -86 130 -99 130 -94 
130 -149 129 -67 130 -76 130 -104 130 -61 130 -53 129 -167 130 -96 
130 -136 130 -135 130 -195 130 -200 129 -150 130 -239 130 -230 130 -16 
130 -82 130 -41 129 -17 130 9 130 12 130 10 130 886 129 -36 
871 3516 41 MP stroke
gr

12 w
 829 3474 mt  913 3558 L
 913 3474 mt  829 3558 L
 958 3438 mt 1042 3522 L
1042 3438 mt  958 3522 L
1088 4324 mt 1172 4408 L
1172 4324 mt 1088 4408 L
1218 4334 mt 1302 4418 L
1302 4334 mt 1218 4418 L
1348 4346 mt 1432 4430 L
1432 4346 mt 1348 4430 L
1478 4355 mt 1562 4439 L
1562 4355 mt 1478 4439 L
1607 4338 mt 1691 4422 L
1691 4338 mt 1607 4422 L
1737 4297 mt 1821 4381 L
1821 4297 mt 1737 4381 L
1867 4215 mt 1951 4299 L
1951 4215 mt 1867 4299 L
1997 4199 mt 2081 4283 L
2081 4199 mt 1997 4283 L
2127 3969 mt 2211 4053 L
2211 3969 mt 2127 4053 L
2257 3730 mt 2341 3814 L
2341 3730 mt 2257 3814 L
2386 3580 mt 2470 3664 L
2470 3580 mt 2386 3664 L
2516 3380 mt 2600 3464 L
2600 3380 mt 2516 3464 L
2646 3185 mt 2730 3269 L
2730 3185 mt 2646 3269 L
2776 3050 mt 2860 3134 L
2860 3050 mt 2776 3134 L
2906 2914 mt 2990 2998 L
2990 2914 mt 2906 2998 L
3036 2818 mt 3120 2902 L
3120 2818 mt 3036 2902 L
3165 2651 mt 3249 2735 L
3249 2651 mt 3165 2735 L
3295 2598 mt 3379 2682 L
3379 2598 mt 3295 2682 L
3425 2537 mt 3509 2621 L
3509 2537 mt 3425 2621 L
3555 2433 mt 3639 2517 L
3639 2433 mt 3555 2517 L
3685 2357 mt 3769 2441 L
3769 2357 mt 3685 2441 L
3814 2290 mt 3898 2374 L
3898 2290 mt 3814 2374 L
3944 2141 mt 4028 2225 L
4028 2141 mt 3944 2225 L
4074 2047 mt 4158 2131 L
4158 2047 mt 4074 2131 L
4204 1948 mt 4288 2032 L
4288 1948 mt 4204 2032 L
4334 1862 mt 4418 1946 L
4418 1862 mt 4334 1946 L
4464 1757 mt 4548 1841 L
4548 1757 mt 4464 1841 L
4593 1714 mt 4677 1798 L
4677 1714 mt 4593 1798 L
4723 1619 mt 4807 1703 L
4807 1619 mt 4723 1703 L
4853 1487 mt 4937 1571 L
4937 1487 mt 4853 1571 L
4983 1371 mt 5067 1455 L
5067 1371 mt 4983 1455 L
5113 1257 mt 5197 1341 L
5197 1257 mt 5113 1341 L
5243 1171 mt 5327 1255 L
5327 1171 mt 5243 1255 L
5372 1128 mt 5456 1212 L
5456 1128 mt 5372 1212 L
5502  983 mt 5586 1067 L
5586  983 mt 5502 1067 L
5632  870 mt 5716  954 L
5716  870 mt 5632  954 L
5762  808 mt 5846  892 L
5846  808 mt 5762  892 L
5892  716 mt 5976  800 L
5976  716 mt 5892  800 L
6022  477 mt 6106  561 L
6106  477 mt 6022  561 L
gs 871 378 5194 4103 rc
gr

0 sg
 818 4559 mt 
( ) s
6012  456 mt 
( ) s
6 w
1 sg
0 2127 1283 0 0 -2127 1095 2567 4 MP
PP
-1283 0 0 2127 1283 0 0 -2127 1095 2567 5 MP stroke
4 w
DO
SO
6 w
0 sg
1095 2567 mt 2378 2567 L
1095  440 mt 2378  440 L
1095 2567 mt 1095  440 L
2378 2567 mt 2378  440 L
1095 2567 mt 2378 2567 L
1095 2567 mt 1095  440 L
1095 2567 mt 2378 2567 L
1095  440 mt 2378  440 L
1095 2567 mt 1095  440 L
2378 2567 mt 2378  440 L
1563  590 mt 
(K) s
gs 1095 440 1284 2128 rc
24 w
c8
360 0 1167 547 2 MP stroke
gr

24 w
c8
0 sg
1563  764 mt 
(K from Fit1) s
gs 1095 440 1284 2128 rc
DO
c8
360 0 1167 721 2 MP stroke
SO
gr

c8
0 sg
1563  938 mt 
(K from Tran) s
gs 1095 440 1284 2128 rc
12 w
c8
360 0 1167 895 2 MP stroke
gs 1226 774 243 243 rc
1305  853 mt 1389  937 L
1389  853 mt 1305  937 L
gr

gr

12 w
c8
0 sg
1563 1111 mt 
(CK) s
gs 1095 440 1284 2128 rc
24 w
c9
360 0 1167 1069 2 MP stroke
gs 1249 971 197 197 rc
1347 1069 PD
gr

gr

24 w
c9
0 sg
1563 1285 mt 
(CK from Fit1) s
gs 1095 440 1284 2128 rc
DO
c9
360 0 1167 1242 2 MP stroke
SO
gr

c9
0 sg
1563 1459 mt 
(CK from Tran) s
gs 1095 440 1284 2128 rc
12 w
c9
360 0 1167 1416 2 MP stroke
gs 1226 1295 243 243 rc
1305 1374 mt 1389 1458 L
1389 1374 mt 1305 1458 L
gr

gr

12 w
c9
0 sg
1563 1633 mt 
(MK) s
gs 1095 440 1284 2128 rc
24 w
c10
360 0 1167 1590 2 MP stroke
gs 1249 1492 197 197 rc
1347 1590 PD
gr

gr

24 w
c10
0 sg
1563 1807 mt 
(MK from Fit1) s
gs 1095 440 1284 2128 rc
DO
c10
360 0 1167 1764 2 MP stroke
SO
gr

c10
0 sg
1563 1981 mt 
(MK from Tran) s
gs 1095 440 1284 2128 rc
12 w
c10
360 0 1167 1937 2 MP stroke
gs 1226 1816 243 243 rc
1305 1895 mt 1389 1979 L
1389 1895 mt 1305 1979 L
gr

gr

12 w
c10
0 sg
1563 2154 mt 
(YK) s
gs 1095 440 1284 2128 rc
24 w
c11
360 0 1167 2111 2 MP stroke
gs 1249 2013 197 197 rc
1347 2111 PD
gr

gr

24 w
c11
0 sg
1563 2328 mt 
(YK from Fit1) s
gs 1095 440 1284 2128 rc
DO
c11
360 0 1167 2285 2 MP stroke
SO
gr

c11
0 sg
1563 2502 mt 
(YK from Tran) s
gs 1095 440 1284 2128 rc
12 w
c11
360 0 1167 2459 2 MP stroke
gr

12 w
c11
gs 1226 2338 243 243 rc
1305 2417 mt 1389 2501 L
1389 2417 mt 1305 2501 L
gr

gs 1095 440 1284 2128 rc
6 w
gr

6 w

end %%Color Dict

eplot
%%EndObject

epage
end

showpage

%%Trailer
%%EOF
