%!PS-Adobe-3.0 EPSF-3.0
%%Creator: MATLAB, The MathWorks, Inc. Version 8.0.0.783 (R2012b). Operating System: Darwin 14.5.0 Darwin Kernel Version 14.5.0: Mon Aug 29 21:14:16 PDT 2016; root:xnu-2782.50.6~1/RELEASE_X86_64 x86_64.
%%Title: /Users/pgh/Documents/MATLAB/rectoverso/data/ID01/graphics/TVI13-16PSM=0;ISM=0.01;PWS=Chart;AMM=1;ESC=0;WBW=0.25.eps
%%CreationDate: 10/03/2016  11:00:24
%%DocumentNeededFonts: Helvetica
%%DocumentProcessColors: Cyan Magenta Yellow Black
%%LanguageLevel: 2
%%Pages: 1
%%BoundingBox:    17   211   576   631
%%EndComments

%%BeginProlog
% MathWorks dictionary
/MathWorks 160 dict begin
% definition operators
/bdef {bind def} bind def
/ldef {load def} bind def
/xdef {exch def} bdef
/xstore {exch store} bdef
% operator abbreviations
/c  /clip ldef
/cc /concat ldef
/cp /closepath ldef
/gr /grestore ldef
/gs /gsave ldef
/mt /moveto ldef
/np /newpath ldef
/cm /currentmatrix ldef
/sm /setmatrix ldef
/rm /rmoveto ldef
/rl /rlineto ldef
/s {show newpath} bdef
/sc {setcmykcolor} bdef
/sr /setrgbcolor ldef
/sg /setgray ldef
/w /setlinewidth ldef
/j /setlinejoin ldef
/cap /setlinecap ldef
/rc {rectclip} bdef
/rf {rectfill} bdef
% page state control
/pgsv () def
/bpage {/pgsv save def} bdef
/epage {pgsv restore} bdef
/bplot /gsave ldef
/eplot {stroke grestore} bdef
% orientation switch
/portraitMode 0 def /landscapeMode 1 def /rotateMode 2 def
% coordinate system mappings
/dpi2point 0 def
% font control
/FontSize 0 def
/FMS {/FontSize xstore findfont [FontSize 0 0 FontSize neg 0 0]
  makefont setfont} bdef
/reencode {exch dup where {pop load} {pop StandardEncoding} ifelse
  exch dup 3 1 roll findfont dup length dict begin
  { 1 index /FID ne {def}{pop pop} ifelse } forall
  /Encoding exch def currentdict end definefont pop} bdef
/isroman {findfont /CharStrings get /Agrave known} bdef
/FMSR {3 1 roll 1 index dup isroman {reencode} {pop pop} ifelse
  exch FMS} bdef
/csm {1 dpi2point div -1 dpi2point div scale neg translate
 dup landscapeMode eq {pop -90 rotate}
  {rotateMode eq {90 rotate} if} ifelse} bdef
% line types: solid, dotted, dashed, dotdash
/SO { [] 0 setdash } bdef
/DO { [.5 dpi2point mul 4 dpi2point mul] 0 setdash } bdef
/DA { [6 dpi2point mul] 0 setdash } bdef
/DD { [.5 dpi2point mul 4 dpi2point mul 6 dpi2point mul 4
  dpi2point mul] 0 setdash } bdef
% macros for lines and objects
/L {lineto stroke} bdef
/MP {3 1 roll moveto 1 sub {rlineto} repeat} bdef
/AP {{rlineto} repeat} bdef
/PDlw -1 def
/W {/PDlw currentlinewidth def setlinewidth} def
/PP {closepath eofill} bdef
/DP {closepath stroke} bdef
/MR {4 -2 roll moveto dup  0 exch rlineto exch 0 rlineto
  neg 0 exch rlineto closepath} bdef
/FR {MR stroke} bdef
/PR {MR fill} bdef
/L1i {{currentfile picstr readhexstring pop} image} bdef
/tMatrix matrix def
/MakeOval {newpath tMatrix currentmatrix pop translate scale
0 0 1 0 360 arc tMatrix setmatrix} bdef
/FO {MakeOval stroke} bdef
/PO {MakeOval fill} bdef
/PD {currentlinewidth 2 div 0 360 arc fill
   PDlw -1 eq not {PDlw w /PDlw -1 def} if} def
/FA {newpath tMatrix currentmatrix pop translate scale
  0 0 1 5 -2 roll arc tMatrix setmatrix stroke} bdef
/PA {newpath tMatrix currentmatrix pop	translate 0 0 moveto scale
  0 0 1 5 -2 roll arc closepath tMatrix setmatrix fill} bdef
/FAn {newpath tMatrix currentmatrix pop translate scale
  0 0 1 5 -2 roll arcn tMatrix setmatrix stroke} bdef
/PAn {newpath tMatrix currentmatrix pop translate 0 0 moveto scale
  0 0 1 5 -2 roll arcn closepath tMatrix setmatrix fill} bdef
/vradius 0 def /hradius 0 def /lry 0 def
/lrx 0 def /uly 0 def /ulx 0 def /rad 0 def
/MRR {/vradius xdef /hradius xdef /lry xdef /lrx xdef /uly xdef
  /ulx xdef newpath tMatrix currentmatrix pop ulx hradius add uly
  vradius add translate hradius vradius scale 0 0 1 180 270 arc 
  tMatrix setmatrix lrx hradius sub uly vradius add translate
  hradius vradius scale 0 0 1 270 360 arc tMatrix setmatrix
  lrx hradius sub lry vradius sub translate hradius vradius scale
  0 0 1 0 90 arc tMatrix setmatrix ulx hradius add lry vradius sub
  translate hradius vradius scale 0 0 1 90 180 arc tMatrix setmatrix
  closepath} bdef
/FRR {MRR stroke } bdef
/PRR {MRR fill } bdef
/MlrRR {/lry xdef /lrx xdef /uly xdef /ulx xdef /rad lry uly sub 2 div def
  newpath tMatrix currentmatrix pop ulx rad add uly rad add translate
  rad rad scale 0 0 1 90 270 arc tMatrix setmatrix lrx rad sub lry rad
  sub translate rad rad scale 0 0 1 270 90 arc tMatrix setmatrix
  closepath} bdef
/FlrRR {MlrRR stroke } bdef
/PlrRR {MlrRR fill } bdef
/MtbRR {/lry xdef /lrx xdef /uly xdef /ulx xdef /rad lrx ulx sub 2 div def
  newpath tMatrix currentmatrix pop ulx rad add uly rad add translate
  rad rad scale 0 0 1 180 360 arc tMatrix setmatrix lrx rad sub lry rad
  sub translate rad rad scale 0 0 1 0 180 arc tMatrix setmatrix
  closepath} bdef
/FtbRR {MtbRR stroke } bdef
/PtbRR {MtbRR fill } bdef
/stri 6 array def /dtri 6 array def
/smat 6 array def /dmat 6 array def
/tmat1 6 array def /tmat2 6 array def /dif 3 array def
/asub {/ind2 exch def /ind1 exch def dup dup
  ind1 get exch ind2 get sub exch } bdef
/tri_to_matrix {
  2 0 asub 3 1 asub 4 0 asub 5 1 asub
  dup 0 get exch 1 get 7 -1 roll astore } bdef
/compute_transform {
  dmat dtri tri_to_matrix tmat1 invertmatrix 
  smat stri tri_to_matrix tmat2 concatmatrix } bdef
/ds {stri astore pop} bdef
/dt {dtri astore pop} bdef
/db {2 copy /cols xdef /rows xdef mul dup 3 mul string
  currentfile 
  3 index 0 eq {/ASCIIHexDecode filter}
  {/ASCII85Decode filter 3 index 2 eq {/RunLengthDecode filter} if }
  ifelse exch readstring pop
  dup 0 3 index getinterval /rbmap xdef
  dup 2 index dup getinterval /gbmap xdef
  1 index dup 2 mul exch getinterval /bbmap xdef pop pop}bdef
/it {gs np dtri aload pop moveto lineto lineto cp c
  cols rows 8 compute_transform 
  rbmap gbmap bbmap true 3 colorimage gr}bdef
/il {newpath moveto lineto stroke}bdef
currentdict end def
%%EndProlog

%%BeginSetup
MathWorks begin

0 cap

end
%%EndSetup

%%Page: 1 1
%%BeginPageSetup
%%PageBoundingBox:    17   211   576   631
MathWorks begin
bpage
%%EndPageSetup

%%BeginObject: obj1
bplot

/dpi2point 12 def
portraitMode 0204 7572 csm

    0     0  6712  5034 rc
90 dict begin %Colortable dictionary
/c0 { 0.000000 0.000000 0.000000 sr} bdef
/c1 { 1.000000 1.000000 1.000000 sr} bdef
/c2 { 0.900000 0.000000 0.000000 sr} bdef
/c3 { 0.000000 0.820000 0.000000 sr} bdef
/c4 { 0.000000 0.000000 0.800000 sr} bdef
/c5 { 0.910000 0.820000 0.320000 sr} bdef
/c6 { 1.000000 0.260000 0.820000 sr} bdef
/c7 { 0.000000 0.820000 0.820000 sr} bdef
c0
1 j
1 sg
   0    0 6713 5035 rf
6 w
0 4102 5201 0 0 -4102 873 4480 4 MP
PP
-5201 0 0 4102 5201 0 0 -4102 873 4480 5 MP stroke
4 w
DO
0 sg
 873 4480 mt  873  378 L
 873  378 mt  873  378 L
1393 4480 mt 1393  378 L
1393  378 mt 1393  378 L
1913 4480 mt 1913  378 L
1913  378 mt 1913  378 L
2433 4480 mt 2433  378 L
2433  378 mt 2433  378 L
2953 4480 mt 2953  378 L
2953  378 mt 2953  378 L
3473 4480 mt 3473  378 L
3473  378 mt 3473  378 L
3993 4480 mt 3993  378 L
3993  378 mt 3993  378 L
4513 4480 mt 4513  378 L
4513  378 mt 4513  378 L
5033 4480 mt 5033  378 L
5033  378 mt 5033  378 L
5553 4480 mt 5553  378 L
5553  378 mt 5553  378 L
6074 4480 mt 6074  378 L
6074  378 mt 6074  378 L
 873 4480 mt 6074 4480 L
6074 4480 mt 6074 4480 L
 873 4069 mt 6074 4069 L
6074 4069 mt 6074 4069 L
 873 3659 mt 6074 3659 L
6074 3659 mt 6074 3659 L
 873 3249 mt 6074 3249 L
6074 3249 mt 6074 3249 L
 873 2839 mt 6074 2839 L
6074 2839 mt 6074 2839 L
 873 2429 mt 6074 2429 L
6074 2429 mt 6074 2429 L
 873 2018 mt 6074 2018 L
6074 2018 mt 6074 2018 L
 873 1608 mt 6074 1608 L
6074 1608 mt 6074 1608 L
 873 1198 mt 6074 1198 L
6074 1198 mt 6074 1198 L
 873  788 mt 6074  788 L
6074  788 mt 6074  788 L
 873  378 mt 6074  378 L
6074  378 mt 6074  378 L
SO
6 w
 873 4480 mt 6074 4480 L
 873 4480 mt  873  378 L
 873 4480 mt  873 4427 L
%%IncludeResource: font Helvetica
/Helvetica /ISOLatin1Encoding 120 FMSR

 840 4625 mt 
(0) s
1393 4480 mt 1393 4427 L
1310 4625 mt 
(0.1) s
1913 4480 mt 1913 4427 L
1830 4625 mt 
(0.2) s
2433 4480 mt 2433 4427 L
2350 4625 mt 
(0.3) s
2953 4480 mt 2953 4427 L
2870 4625 mt 
(0.4) s
3473 4480 mt 3473 4427 L
3390 4625 mt 
(0.5) s
3993 4480 mt 3993 4427 L
3910 4625 mt 
(0.6) s
4513 4480 mt 4513 4427 L
4430 4625 mt 
(0.7) s
5033 4480 mt 5033 4427 L
4950 4625 mt 
(0.8) s
5553 4480 mt 5553 4427 L
5470 4625 mt 
(0.9) s
6074 4480 mt 6074 4427 L
6041 4625 mt 
(1) s
 873 4480 mt  925 4480 L
 772 4524 mt 
(0) s
 873 4069 mt  925 4069 L
 672 4113 mt 
(0.1) s
 873 3659 mt  925 3659 L
 672 3703 mt 
(0.2) s
 873 3249 mt  925 3249 L
 672 3293 mt 
(0.3) s
 873 2839 mt  925 2839 L
 672 2883 mt 
(0.4) s
 873 2429 mt  925 2429 L
 672 2473 mt 
(0.5) s
 873 2018 mt  925 2018 L
 672 2062 mt 
(0.6) s
 873 1608 mt  925 1608 L
 672 1652 mt 
(0.7) s
 873 1198 mt  925 1198 L
 672 1242 mt 
(0.8) s
 873  788 mt  925  788 L
 672  832 mt 
(0.9) s
 873  378 mt  925  378 L
 772  422 mt 
(1) s
3185  283 mt 
(TVI- ID01/) s
gs 873 378 5202 4103 rc
24 w
/c8 { 0.000000 0.000000 0.500000 sr} bdef
c8
-156 80 -208 91 -156 71 -520 244 -1040 541 -3121 3075 6074 378 7 MP stroke
gr

24 w
c8
  60   60 6074  378 FO
  60   60 2953 3453 FO
  60   60 1913 3994 FO
  60   60 1393 4238 FO
  60   60 1237 4309 FO
  60   60 1029 4400 FO
  60   60  873 4480 FO
gs 873 378 5202 4103 rc
/c9 { 0.000000 0.000000 0.400000 sr} bdef
c9
-156 64 -208 76 -156 49 -520 171 -1040 355 -3121 3387 6074 378 7 MP stroke
gr

c9
6032  336 mt 6116  420 L
6116  336 mt 6032  420 L
2911 3723 mt 2995 3807 L
2995 3723 mt 2911 3807 L
1871 4078 mt 1955 4162 L
1955 4078 mt 1871 4162 L
1351 4249 mt 1435 4333 L
1435 4249 mt 1351 4333 L
1195 4298 mt 1279 4382 L
1279 4298 mt 1195 4382 L
 987 4374 mt 1071 4458 L
1071 4374 mt  987 4458 L
 831 4438 mt  915 4522 L
 915 4438 mt  831 4522 L
gs 873 378 5202 4103 rc
/c10 { 0.000000 0.500000 0.000000 sr} bdef
c10
-156 82 -208 113 -156 75 -520 232 -1040 552 -3121 3048 6074 378 7 MP stroke
gr

c10
  60   60 6074  378 FO
  60   60 2953 3426 FO
  60   60 1913 3978 FO
  60   60 1393 4210 FO
  60   60 1237 4285 FO
  60   60 1029 4398 FO
  60   60  873 4480 FO
gs 873 378 5202 4103 rc
/c11 { 0.000000 0.400000 0.000000 sr} bdef
c11
-156 66 -208 73 -156 57 -520 161 -1040 358 -3121 3387 6074 378 7 MP stroke
gr

c11
6032  336 mt 6116  420 L
6116  336 mt 6032  420 L
2911 3723 mt 2995 3807 L
2995 3723 mt 2911 3807 L
1871 4081 mt 1955 4165 L
1955 4081 mt 1871 4165 L
1351 4242 mt 1435 4326 L
1435 4242 mt 1351 4326 L
1195 4299 mt 1279 4383 L
1279 4299 mt 1195 4383 L
 987 4372 mt 1071 4456 L
1071 4372 mt  987 4456 L
 831 4438 mt  915 4522 L
 915 4438 mt  831 4522 L
gs 873 378 5202 4103 rc
/c12 { 0.500000 0.000000 0.000000 sr} bdef
c12
-156 80 -208 97 -156 72 -520 208 -1040 554 -3121 3091 6074 378 7 MP stroke
gr

c12
  60   60 6074  378 FO
  60   60 2953 3469 FO
  60   60 1913 4023 FO
  60   60 1393 4231 FO
  60   60 1237 4303 FO
  60   60 1029 4400 FO
  60   60  873 4480 FO
gs 873 378 5202 4103 rc
/c13 { 0.400000 0.000000 0.000000 sr} bdef
c13
-156 84 -208 61 -156 64 -520 184 -1040 437 -3121 3272 6074 378 7 MP stroke
gr

c13
6032  336 mt 6116  420 L
6116  336 mt 6032  420 L
2911 3608 mt 2995 3692 L
2995 3608 mt 2911 3692 L
1871 4045 mt 1955 4129 L
1955 4045 mt 1871 4129 L
1351 4229 mt 1435 4313 L
1435 4229 mt 1351 4313 L
1195 4293 mt 1279 4377 L
1279 4293 mt 1195 4377 L
 987 4354 mt 1071 4438 L
1071 4354 mt  987 4438 L
 831 4438 mt  915 4522 L
 915 4438 mt  831 4522 L
gs 873 378 5202 4103 rc
0 sg
-156 89 -208 102 -156 66 -520 233 -1040 588 -3121 3024 6074 378 7 MP stroke
gr

0 sg
  60   60 6074  378 FO
  60   60 2953 3402 FO
  60   60 1913 3990 FO
  60   60 1393 4223 FO
  60   60 1237 4289 FO
  60   60 1029 4391 FO
  60   60  873 4480 FO
gs 873 378 5202 4103 rc
-156 67 -208 79 -156 55 -520 160 -1040 380 -3121 3361 6074 378 7 MP stroke
gr

6032  336 mt 6116  420 L
6116  336 mt 6032  420 L
2911 3697 mt 2995 3781 L
2995 3697 mt 2911 3781 L
1871 4077 mt 1955 4161 L
1955 4077 mt 1871 4161 L
1351 4237 mt 1435 4321 L
1435 4237 mt 1351 4321 L
1195 4292 mt 1279 4376 L
1279 4292 mt 1195 4376 L
 987 4371 mt 1071 4455 L
1071 4371 mt  987 4455 L
 831 4438 mt  915 4522 L
 915 4438 mt  831 4522 L
gs 873 378 5202 4103 rc
gr

 820 4559 mt 
( ) s
6022  456 mt 
( ) s
6 w
1 sg
0 1432 1175 0 0 -1432 4620 4171 4 MP
PP
-1175 0 0 1432 1175 0 0 -1432 4620 4171 5 MP stroke
4 w
DO
SO
6 w
0 sg
4620 4171 mt 5795 4171 L
4620 2739 mt 5795 2739 L
4620 4171 mt 4620 2739 L
5795 4171 mt 5795 2739 L
4620 4171 mt 5795 4171 L
4620 4171 mt 4620 2739 L
4620 4171 mt 5795 4171 L
4620 2739 mt 5795 2739 L
4620 4171 mt 4620 2739 L
5795 4171 mt 5795 2739 L
5088 2889 mt 
(CMK Refl) s
gs 4620 2739 1176 1433 rc
24 w
c8
360 0 4692 2846 2 MP stroke
gr

24 w
c8
gs 4726 2700 293 293 rc
  60   60 4872 2846 FO
gr

gs 4620 2739 1176 1433 rc
gr

0 sg
5088 3063 mt 
(CMK Tran) s
gs 4620 2739 1176 1433 rc
c9
360 0 4692 3020 2 MP stroke
gs 4726 2874 293 293 rc
4830 2978 mt 4914 3062 L
4914 2978 mt 4830 3062 L
gr

gr

c9
0 sg
5088 3237 mt 
(CYK Refl) s
gs 4620 2739 1176 1433 rc
c10
360 0 4692 3194 2 MP stroke
gs 4726 3048 293 293 rc
  60   60 4872 3194 FO
gr

gr

c10
0 sg
5088 3411 mt 
(CYK Tran) s
gs 4620 2739 1176 1433 rc
c11
360 0 4692 3368 2 MP stroke
gs 4726 3222 293 293 rc
4830 3326 mt 4914 3410 L
4914 3326 mt 4830 3410 L
gr

gr

c11
0 sg
5088 3584 mt 
(MYK Refl) s
gs 4620 2739 1176 1433 rc
c12
360 0 4692 3541 2 MP stroke
gs 4726 3395 293 293 rc
  60   60 4872 3541 FO
gr

gr

c12
0 sg
5088 3758 mt 
(MYK Tran) s
gs 4620 2739 1176 1433 rc
c13
360 0 4692 3715 2 MP stroke
gs 4726 3569 293 293 rc
4830 3673 mt 4914 3757 L
4914 3673 mt 4830 3757 L
gr

gr

c13
0 sg
5088 3932 mt 
(CMYK Refl) s
gs 4620 2739 1176 1433 rc
360 0 4692 3889 2 MP stroke
gs 4726 3743 293 293 rc
  60   60 4872 3889 FO
gr

gr

5088 4106 mt 
(CMYK Tran) s
gs 4620 2739 1176 1433 rc
360 0 4692 4063 2 MP stroke
gr

gs 4726 3917 293 293 rc
4830 4021 mt 4914 4105 L
4914 4021 mt 4830 4105 L
gr

gs 4620 2739 1176 1433 rc
6 w
gr

6 w

end %%Color Dict

eplot
%%EndObject

epage
end

showpage

%%Trailer
%%EOF
