%!PS-Adobe-3.0 EPSF-3.0
%%Creator: MATLAB, The MathWorks, Inc. Version 8.0.0.783 (R2012b). Operating System: Darwin 14.5.0 Darwin Kernel Version 14.5.0: Mon Aug 29 21:14:16 PDT 2016; root:xnu-2782.50.6~1/RELEASE_X86_64 x86_64.
%%Title: /Users/pgh/Documents/MATLAB/rectoverso/data/ID01/graphics/TVI2-4PSM=0;ISM=0.01;PWS=Chart;AMM=1;ESC=0;WBW=0.25.eps
%%CreationDate: 10/03/2016  10:59:49
%%DocumentNeededFonts: Helvetica
%%DocumentProcessColors: Cyan Magenta Yellow Black
%%LanguageLevel: 2
%%Pages: 1
%%BoundingBox:    17   211   575   631
%%EndComments

%%BeginProlog
% MathWorks dictionary
/MathWorks 160 dict begin
% definition operators
/bdef {bind def} bind def
/ldef {load def} bind def
/xdef {exch def} bdef
/xstore {exch store} bdef
% operator abbreviations
/c  /clip ldef
/cc /concat ldef
/cp /closepath ldef
/gr /grestore ldef
/gs /gsave ldef
/mt /moveto ldef
/np /newpath ldef
/cm /currentmatrix ldef
/sm /setmatrix ldef
/rm /rmoveto ldef
/rl /rlineto ldef
/s {show newpath} bdef
/sc {setcmykcolor} bdef
/sr /setrgbcolor ldef
/sg /setgray ldef
/w /setlinewidth ldef
/j /setlinejoin ldef
/cap /setlinecap ldef
/rc {rectclip} bdef
/rf {rectfill} bdef
% page state control
/pgsv () def
/bpage {/pgsv save def} bdef
/epage {pgsv restore} bdef
/bplot /gsave ldef
/eplot {stroke grestore} bdef
% orientation switch
/portraitMode 0 def /landscapeMode 1 def /rotateMode 2 def
% coordinate system mappings
/dpi2point 0 def
% font control
/FontSize 0 def
/FMS {/FontSize xstore findfont [FontSize 0 0 FontSize neg 0 0]
  makefont setfont} bdef
/reencode {exch dup where {pop load} {pop StandardEncoding} ifelse
  exch dup 3 1 roll findfont dup length dict begin
  { 1 index /FID ne {def}{pop pop} ifelse } forall
  /Encoding exch def currentdict end definefont pop} bdef
/isroman {findfont /CharStrings get /Agrave known} bdef
/FMSR {3 1 roll 1 index dup isroman {reencode} {pop pop} ifelse
  exch FMS} bdef
/csm {1 dpi2point div -1 dpi2point div scale neg translate
 dup landscapeMode eq {pop -90 rotate}
  {rotateMode eq {90 rotate} if} ifelse} bdef
% line types: solid, dotted, dashed, dotdash
/SO { [] 0 setdash } bdef
/DO { [.5 dpi2point mul 4 dpi2point mul] 0 setdash } bdef
/DA { [6 dpi2point mul] 0 setdash } bdef
/DD { [.5 dpi2point mul 4 dpi2point mul 6 dpi2point mul 4
  dpi2point mul] 0 setdash } bdef
% macros for lines and objects
/L {lineto stroke} bdef
/MP {3 1 roll moveto 1 sub {rlineto} repeat} bdef
/AP {{rlineto} repeat} bdef
/PDlw -1 def
/W {/PDlw currentlinewidth def setlinewidth} def
/PP {closepath eofill} bdef
/DP {closepath stroke} bdef
/MR {4 -2 roll moveto dup  0 exch rlineto exch 0 rlineto
  neg 0 exch rlineto closepath} bdef
/FR {MR stroke} bdef
/PR {MR fill} bdef
/L1i {{currentfile picstr readhexstring pop} image} bdef
/tMatrix matrix def
/MakeOval {newpath tMatrix currentmatrix pop translate scale
0 0 1 0 360 arc tMatrix setmatrix} bdef
/FO {MakeOval stroke} bdef
/PO {MakeOval fill} bdef
/PD {currentlinewidth 2 div 0 360 arc fill
   PDlw -1 eq not {PDlw w /PDlw -1 def} if} def
/FA {newpath tMatrix currentmatrix pop translate scale
  0 0 1 5 -2 roll arc tMatrix setmatrix stroke} bdef
/PA {newpath tMatrix currentmatrix pop	translate 0 0 moveto scale
  0 0 1 5 -2 roll arc closepath tMatrix setmatrix fill} bdef
/FAn {newpath tMatrix currentmatrix pop translate scale
  0 0 1 5 -2 roll arcn tMatrix setmatrix stroke} bdef
/PAn {newpath tMatrix currentmatrix pop translate 0 0 moveto scale
  0 0 1 5 -2 roll arcn closepath tMatrix setmatrix fill} bdef
/vradius 0 def /hradius 0 def /lry 0 def
/lrx 0 def /uly 0 def /ulx 0 def /rad 0 def
/MRR {/vradius xdef /hradius xdef /lry xdef /lrx xdef /uly xdef
  /ulx xdef newpath tMatrix currentmatrix pop ulx hradius add uly
  vradius add translate hradius vradius scale 0 0 1 180 270 arc 
  tMatrix setmatrix lrx hradius sub uly vradius add translate
  hradius vradius scale 0 0 1 270 360 arc tMatrix setmatrix
  lrx hradius sub lry vradius sub translate hradius vradius scale
  0 0 1 0 90 arc tMatrix setmatrix ulx hradius add lry vradius sub
  translate hradius vradius scale 0 0 1 90 180 arc tMatrix setmatrix
  closepath} bdef
/FRR {MRR stroke } bdef
/PRR {MRR fill } bdef
/MlrRR {/lry xdef /lrx xdef /uly xdef /ulx xdef /rad lry uly sub 2 div def
  newpath tMatrix currentmatrix pop ulx rad add uly rad add translate
  rad rad scale 0 0 1 90 270 arc tMatrix setmatrix lrx rad sub lry rad
  sub translate rad rad scale 0 0 1 270 90 arc tMatrix setmatrix
  closepath} bdef
/FlrRR {MlrRR stroke } bdef
/PlrRR {MlrRR fill } bdef
/MtbRR {/lry xdef /lrx xdef /uly xdef /ulx xdef /rad lrx ulx sub 2 div def
  newpath tMatrix currentmatrix pop ulx rad add uly rad add translate
  rad rad scale 0 0 1 180 360 arc tMatrix setmatrix lrx rad sub lry rad
  sub translate rad rad scale 0 0 1 0 180 arc tMatrix setmatrix
  closepath} bdef
/FtbRR {MtbRR stroke } bdef
/PtbRR {MtbRR fill } bdef
/stri 6 array def /dtri 6 array def
/smat 6 array def /dmat 6 array def
/tmat1 6 array def /tmat2 6 array def /dif 3 array def
/asub {/ind2 exch def /ind1 exch def dup dup
  ind1 get exch ind2 get sub exch } bdef
/tri_to_matrix {
  2 0 asub 3 1 asub 4 0 asub 5 1 asub
  dup 0 get exch 1 get 7 -1 roll astore } bdef
/compute_transform {
  dmat dtri tri_to_matrix tmat1 invertmatrix 
  smat stri tri_to_matrix tmat2 concatmatrix } bdef
/ds {stri astore pop} bdef
/dt {dtri astore pop} bdef
/db {2 copy /cols xdef /rows xdef mul dup 3 mul string
  currentfile 
  3 index 0 eq {/ASCIIHexDecode filter}
  {/ASCII85Decode filter 3 index 2 eq {/RunLengthDecode filter} if }
  ifelse exch readstring pop
  dup 0 3 index getinterval /rbmap xdef
  dup 2 index dup getinterval /gbmap xdef
  1 index dup 2 mul exch getinterval /bbmap xdef pop pop}bdef
/it {gs np dtri aload pop moveto lineto lineto cp c
  cols rows 8 compute_transform 
  rbmap gbmap bbmap true 3 colorimage gr}bdef
/il {newpath moveto lineto stroke}bdef
currentdict end def
%%EndProlog

%%BeginSetup
MathWorks begin

0 cap

end
%%EndSetup

%%Page: 1 1
%%BeginPageSetup
%%PageBoundingBox:    17   211   575   631
MathWorks begin
bpage
%%EndPageSetup

%%BeginObject: obj1
bplot

/dpi2point 12 def
portraitMode 0204 7572 csm

    0     0  6700  5034 rc
91 dict begin %Colortable dictionary
/c0 { 0.000000 0.000000 0.000000 sr} bdef
/c1 { 1.000000 1.000000 1.000000 sr} bdef
/c2 { 0.900000 0.000000 0.000000 sr} bdef
/c3 { 0.000000 0.820000 0.000000 sr} bdef
/c4 { 0.000000 0.000000 0.800000 sr} bdef
/c5 { 0.910000 0.820000 0.320000 sr} bdef
/c6 { 1.000000 0.260000 0.820000 sr} bdef
/c7 { 0.000000 0.820000 0.820000 sr} bdef
c0
1 j
1 sg
   0    0 6701 5035 rf
6 w
0 4102 5193 0 0 -4102 871 4480 4 MP
PP
-5193 0 0 4102 5193 0 0 -4102 871 4480 5 MP stroke
4 w
DO
0 sg
 871 4480 mt  871  378 L
 871  378 mt  871  378 L
1390 4480 mt 1390  378 L
1390  378 mt 1390  378 L
1909 4480 mt 1909  378 L
1909  378 mt 1909  378 L
2428 4480 mt 2428  378 L
2428  378 mt 2428  378 L
2948 4480 mt 2948  378 L
2948  378 mt 2948  378 L
3467 4480 mt 3467  378 L
3467  378 mt 3467  378 L
3986 4480 mt 3986  378 L
3986  378 mt 3986  378 L
4506 4480 mt 4506  378 L
4506  378 mt 4506  378 L
5025 4480 mt 5025  378 L
5025  378 mt 5025  378 L
5544 4480 mt 5544  378 L
5544  378 mt 5544  378 L
6064 4480 mt 6064  378 L
6064  378 mt 6064  378 L
 871 4480 mt 6064 4480 L
6064 4480 mt 6064 4480 L
 871 4069 mt 6064 4069 L
6064 4069 mt 6064 4069 L
 871 3659 mt 6064 3659 L
6064 3659 mt 6064 3659 L
 871 3249 mt 6064 3249 L
6064 3249 mt 6064 3249 L
 871 2839 mt 6064 2839 L
6064 2839 mt 6064 2839 L
 871 2429 mt 6064 2429 L
6064 2429 mt 6064 2429 L
 871 2018 mt 6064 2018 L
6064 2018 mt 6064 2018 L
 871 1608 mt 6064 1608 L
6064 1608 mt 6064 1608 L
 871 1198 mt 6064 1198 L
6064 1198 mt 6064 1198 L
 871  788 mt 6064  788 L
6064  788 mt 6064  788 L
 871  378 mt 6064  378 L
6064  378 mt 6064  378 L
SO
6 w
 871 4480 mt 6064 4480 L
 871 4480 mt  871  378 L
 871 4480 mt  871 4428 L
%%IncludeResource: font Helvetica
/Helvetica /ISOLatin1Encoding 120 FMSR

 838 4625 mt 
(0) s
1390 4480 mt 1390 4428 L
1307 4625 mt 
(0.1) s
1909 4480 mt 1909 4428 L
1826 4625 mt 
(0.2) s
2428 4480 mt 2428 4428 L
2345 4625 mt 
(0.3) s
2948 4480 mt 2948 4428 L
2865 4625 mt 
(0.4) s
3467 4480 mt 3467 4428 L
3384 4625 mt 
(0.5) s
3986 4480 mt 3986 4428 L
3903 4625 mt 
(0.6) s
4506 4480 mt 4506 4428 L
4423 4625 mt 
(0.7) s
5025 4480 mt 5025 4428 L
4942 4625 mt 
(0.8) s
5544 4480 mt 5544 4428 L
5461 4625 mt 
(0.9) s
6064 4480 mt 6064 4428 L
6031 4625 mt 
(1) s
 871 4480 mt  922 4480 L
 770 4524 mt 
(0) s
 871 4069 mt  922 4069 L
 670 4113 mt 
(0.1) s
 871 3659 mt  922 3659 L
 670 3703 mt 
(0.2) s
 871 3249 mt  922 3249 L
 670 3293 mt 
(0.3) s
 871 2839 mt  922 2839 L
 670 2883 mt 
(0.4) s
 871 2429 mt  922 2429 L
 670 2473 mt 
(0.5) s
 871 2018 mt  922 2018 L
 670 2062 mt 
(0.6) s
 871 1608 mt  922 1608 L
 670 1652 mt 
(0.7) s
 871 1198 mt  922 1198 L
 670 1242 mt 
(0.8) s
 871  788 mt  922  788 L
 670  832 mt 
(0.9) s
 871  378 mt  922  378 L
 770  422 mt 
(1) s
3179  283 mt 
(TVI- ID01/) s
gs 871 378 5194 4103 rc
24 w
/c8 { 0.189474 0.900000 0.900000 sr} bdef
c8
-103 37 -52 31 -104 39 -104 40 -156 76 -259 83 -260 113 -260 108 
-259 140 -520 252 -519 331 -260 163 -259 167 -520 375 -259 254 -260 357 
-260 375 -259 469 -260 315 -156 297 -104 80 6064 378 22 MP stroke
gr

24 w
c8
  60   60 6064  378 FO
  60   60 5960  458 FO
  60   60 5804  755 FO
  60   60 5544 1070 FO
  60   60 5285 1539 FO
  60   60 5025 1914 FO
  60   60 4765 2271 FO
  60   60 4506 2525 FO
  60   60 3986 2900 FO
  60   60 3727 3067 FO
  60   60 3467 3230 FO
  60   60 2948 3561 FO
  60   60 2428 3813 FO
  60   60 2169 3953 FO
  60   60 1909 4061 FO
  60   60 1649 4174 FO
  60   60 1390 4257 FO
  60   60 1234 4333 FO
  60   60 1130 4373 FO
  60   60 1026 4412 FO
  60   60  974 4443 FO
  60   60  871 4480 FO
gs 871 378 5194 4103 rc
/c9 { 0.151579 0.720000 0.720000 sr} bdef
c9
-103 26 -52 32 -104 33 -104 32 -156 51 -259 71 -260 74 -260 83 
-259 104 -520 190 -519 233 -260 110 -259 129 -520 313 -259 222 -260 260 
-260 295 -259 403 -260 552 -156 567 -104 322 6064 378 22 MP stroke
gr

c9
6022  336 mt 6106  420 L
6106  336 mt 6022  420 L
5918  658 mt 6002  742 L
6002  658 mt 5918  742 L
5762 1225 mt 5846 1309 L
5846 1225 mt 5762 1309 L
5502 1777 mt 5586 1861 L
5586 1777 mt 5502 1861 L
5243 2180 mt 5327 2264 L
5327 2180 mt 5243 2264 L
4983 2475 mt 5067 2559 L
5067 2475 mt 4983 2559 L
4723 2735 mt 4807 2819 L
4807 2735 mt 4723 2819 L
4464 2957 mt 4548 3041 L
4548 2957 mt 4464 3041 L
3944 3270 mt 4028 3354 L
4028 3270 mt 3944 3354 L
3685 3399 mt 3769 3483 L
3769 3399 mt 3685 3483 L
3425 3509 mt 3509 3593 L
3509 3509 mt 3425 3593 L
2906 3742 mt 2990 3826 L
2990 3742 mt 2906 3826 L
2386 3932 mt 2470 4016 L
2470 3932 mt 2386 4016 L
2127 4036 mt 2211 4120 L
2211 4036 mt 2127 4120 L
1867 4119 mt 1951 4203 L
1951 4119 mt 1867 4203 L
1607 4193 mt 1691 4277 L
1691 4193 mt 1607 4277 L
1348 4264 mt 1432 4348 L
1432 4264 mt 1348 4348 L
1192 4315 mt 1276 4399 L
1276 4315 mt 1192 4399 L
1088 4347 mt 1172 4431 L
1172 4347 mt 1088 4431 L
 984 4380 mt 1068 4464 L
1068 4380 mt  984 4464 L
 932 4412 mt 1016 4496 L
1016 4412 mt  932 4496 L
 829 4438 mt  913 4522 L
 913 4438 mt  829 4522 L
gs 871 378 5194 4103 rc
/c10 { 0.900000 0.111340 0.900000 sr} bdef
c10
-103 35 -52 16 -104 49 -104 19 -156 55 -259 81 -260 84 -260 85 
-259 131 -520 181 -519 266 -260 84 -259 192 -520 286 -259 184 -260 277 
-260 329 -259 313 -260 575 -156 574 -104 286 6064 378 22 MP stroke
gr

c10
  60   60 6064  378 FO
  60   60 5960  664 FO
  60   60 5804 1238 FO
  60   60 5544 1813 FO
  60   60 5285 2126 FO
  60   60 5025 2455 FO
  60   60 4765 2732 FO
  60   60 4506 2916 FO
  60   60 3986 3202 FO
  60   60 3727 3394 FO
  60   60 3467 3478 FO
  60   60 2948 3744 FO
  60   60 2428 3925 FO
  60   60 2169 4056 FO
  60   60 1909 4141 FO
  60   60 1649 4225 FO
  60   60 1390 4306 FO
  60   60 1234 4361 FO
  60   60 1130 4380 FO
  60   60 1026 4429 FO
  60   60  974 4445 FO
  60   60  871 4480 FO
gs 871 378 5194 4103 rc
/c11 { 0.720000 0.089072 0.720000 sr} bdef
c11
-103 28 -52 20 -104 51 -104 20 -156 60 -259 76 -260 79 -260 85 
-259 120 -520 185 -519 237 -260 90 -259 143 -520 292 -259 208 -260 259 
-260 271 -259 295 -260 539 -156 652 -104 392 6064 378 22 MP stroke
gr

c11
6022  336 mt 6106  420 L
6106  336 mt 6022  420 L
5918  728 mt 6002  812 L
6002  728 mt 5918  812 L
5762 1380 mt 5846 1464 L
5846 1380 mt 5762 1464 L
5502 1919 mt 5586 2003 L
5586 1919 mt 5502 2003 L
5243 2214 mt 5327 2298 L
5327 2214 mt 5243 2298 L
4983 2485 mt 5067 2569 L
5067 2485 mt 4983 2569 L
4723 2744 mt 4807 2828 L
4807 2744 mt 4723 2828 L
4464 2952 mt 4548 3036 L
4548 2952 mt 4464 3036 L
3944 3244 mt 4028 3328 L
4028 3244 mt 3944 3328 L
3685 3387 mt 3769 3471 L
3769 3387 mt 3685 3471 L
3425 3477 mt 3509 3561 L
3509 3477 mt 3425 3561 L
2906 3714 mt 2990 3798 L
2990 3714 mt 2906 3798 L
2386 3899 mt 2470 3983 L
2470 3899 mt 2386 3983 L
2127 4019 mt 2211 4103 L
2211 4019 mt 2127 4103 L
1867 4104 mt 1951 4188 L
1951 4104 mt 1867 4188 L
1607 4183 mt 1691 4267 L
1691 4183 mt 1607 4267 L
1348 4259 mt 1432 4343 L
1432 4259 mt 1348 4343 L
1192 4319 mt 1276 4403 L
1276 4319 mt 1192 4403 L
1088 4339 mt 1172 4423 L
1172 4339 mt 1088 4423 L
 984 4390 mt 1068 4474 L
1068 4390 mt  984 4474 L
 932 4410 mt 1016 4494 L
1016 4410 mt  932 4494 L
 829 4438 mt  913 4522 L
 913 4438 mt  829 4522 L
gs 871 378 5194 4103 rc
/c12 { 0.900000 0.900000 0.111340 sr} bdef
c12
-103 54 -52 31 -104 28 -104 50 -156 56 -259 101 -260 131 -260 105 
-259 146 -520 260 -519 318 -260 135 -259 222 -520 386 -259 252 -260 334 
-260 330 -259 289 -260 456 -156 348 -104 70 6064 378 22 MP stroke
gr

c12
  60   60 6064  378 FO
  60   60 5960  448 FO
  60   60 5804  796 FO
  60   60 5544 1252 FO
  60   60 5285 1541 FO
  60   60 5025 1871 FO
  60   60 4765 2205 FO
  60   60 4506 2457 FO
  60   60 3986 2843 FO
  60   60 3727 3065 FO
  60   60 3467 3200 FO
  60   60 2948 3518 FO
  60   60 2428 3778 FO
  60   60 2169 3924 FO
  60   60 1909 4029 FO
  60   60 1649 4160 FO
  60   60 1390 4261 FO
  60   60 1234 4317 FO
  60   60 1130 4367 FO
  60   60 1026 4395 FO
  60   60  974 4426 FO
  60   60  871 4480 FO
gs 871 378 5194 4103 rc
/c13 { 0.720000 0.720000 0.089072 sr} bdef
c13
-103 38 -52 21 -104 57 -104 14 -156 85 -259 61 -260 158 -260 107 
-259 117 -520 234 -519 279 -260 86 -259 263 -520 345 -259 259 -260 267 
-260 311 -259 334 -260 424 -156 476 -104 166 6064 378 22 MP stroke
gr

c13
6022  336 mt 6106  420 L
6106  336 mt 6022  420 L
5918  502 mt 6002  586 L
6002  502 mt 5918  586 L
5762  978 mt 5846 1062 L
5846  978 mt 5762 1062 L
5502 1402 mt 5586 1486 L
5586 1402 mt 5502 1486 L
5243 1736 mt 5327 1820 L
5327 1736 mt 5243 1820 L
4983 2047 mt 5067 2131 L
5067 2047 mt 4983 2131 L
4723 2314 mt 4807 2398 L
4807 2314 mt 4723 2398 L
4464 2573 mt 4548 2657 L
4548 2573 mt 4464 2657 L
3944 2918 mt 4028 3002 L
4028 2918 mt 3944 3002 L
3685 3181 mt 3769 3265 L
3769 3181 mt 3685 3265 L
3425 3267 mt 3509 3351 L
3509 3267 mt 3425 3351 L
2906 3546 mt 2990 3630 L
2990 3546 mt 2906 3630 L
2386 3780 mt 2470 3864 L
2470 3780 mt 2386 3864 L
2127 3897 mt 2211 3981 L
2211 3897 mt 2127 3981 L
1867 4004 mt 1951 4088 L
1951 4004 mt 1867 4088 L
1607 4162 mt 1691 4246 L
1691 4162 mt 1607 4246 L
1348 4223 mt 1432 4307 L
1432 4223 mt 1348 4307 L
1192 4308 mt 1276 4392 L
1276 4308 mt 1192 4392 L
1088 4322 mt 1172 4406 L
1172 4322 mt 1088 4406 L
 984 4379 mt 1068 4463 L
1068 4379 mt  984 4463 L
 932 4400 mt 1016 4484 L
1016 4400 mt  932 4484 L
 829 4438 mt  913 4522 L
 913 4438 mt  829 4522 L
gs 871 378 5194 4103 rc
gr

0 sg
 818 4559 mt 
( ) s
6012  456 mt 
( ) s
6 w
1 sg
0 1085 924 0 0 -1085 1058 1604 4 MP
PP
-924 0 0 1085 924 0 0 -1085 1058 1604 5 MP stroke
4 w
DO
SO
6 w
0 sg
1058 1604 mt 1982 1604 L
1058  519 mt 1982  519 L
1058 1604 mt 1058  519 L
1982 1604 mt 1982  519 L
1058 1604 mt 1982 1604 L
1058 1604 mt 1058  519 L
1058 1604 mt 1982 1604 L
1058  519 mt 1982  519 L
1058 1604 mt 1058  519 L
1982 1604 mt 1982  519 L
1527  669 mt 
(C Refl) s
gs 1058 519 925 1086 rc
24 w
c8
360 0 1130 626 2 MP stroke
gr

24 w
c8
  60   60 1310  626 FO
gs 1058 519 925 1086 rc
gr

0 sg
1527  843 mt 
(C Tran) s
gs 1058 519 925 1086 rc
c9
360 0 1130 800 2 MP stroke
gr

c9
1268  758 mt 1352  842 L
1352  758 mt 1268  842 L
gs 1058 519 925 1086 rc
gr

0 sg
1527 1017 mt 
(M Refl) s
gs 1058 519 925 1086 rc
c10
360 0 1130 974 2 MP stroke
gr

c10
  60   60 1310  974 FO
gs 1058 519 925 1086 rc
gr

0 sg
1527 1191 mt 
(M Tran) s
gs 1058 519 925 1086 rc
c11
360 0 1130 1148 2 MP stroke
gr

c11
1268 1106 mt 1352 1190 L
1352 1106 mt 1268 1190 L
gs 1058 519 925 1086 rc
gr

0 sg
1527 1365 mt 
(Y Refl) s
gs 1058 519 925 1086 rc
c12
360 0 1130 1322 2 MP stroke
gr

c12
  60   60 1310 1322 FO
gs 1058 519 925 1086 rc
gr

0 sg
1527 1539 mt 
(Y Tran) s
gs 1058 519 925 1086 rc
c13
360 0 1130 1496 2 MP stroke
gr

c13
1268 1454 mt 1352 1538 L
1352 1454 mt 1268 1538 L
gs 1058 519 925 1086 rc
6 w
gr

6 w

end %%Color Dict

eplot
%%EndObject

epage
end

showpage

%%Trailer
%%EOF
