%!PS-Adobe-3.0 EPSF-3.0
%%Creator: MATLAB, The MathWorks, Inc. Version 8.0.0.783 (R2012b). Operating System: Darwin 14.5.0 Darwin Kernel Version 14.5.0: Mon Aug 29 21:14:16 PDT 2016; root:xnu-2782.50.6~1/RELEASE_X86_64 x86_64.
%%Title: /Users/pgh/Documents/MATLAB/rectoverso/data/ID01/graphics/TVI5-8PSM=0;ISM=0.01;PWS=Chart;AMM=1;ESC=0;WBW=0.25.eps
%%CreationDate: 10/03/2016  11:00:11
%%DocumentNeededFonts: Helvetica
%%DocumentProcessColors: Cyan Magenta Yellow Black
%%LanguageLevel: 2
%%Pages: 1
%%BoundingBox:    17   211   575   631
%%EndComments

%%BeginProlog
% MathWorks dictionary
/MathWorks 160 dict begin
% definition operators
/bdef {bind def} bind def
/ldef {load def} bind def
/xdef {exch def} bdef
/xstore {exch store} bdef
% operator abbreviations
/c  /clip ldef
/cc /concat ldef
/cp /closepath ldef
/gr /grestore ldef
/gs /gsave ldef
/mt /moveto ldef
/np /newpath ldef
/cm /currentmatrix ldef
/sm /setmatrix ldef
/rm /rmoveto ldef
/rl /rlineto ldef
/s {show newpath} bdef
/sc {setcmykcolor} bdef
/sr /setrgbcolor ldef
/sg /setgray ldef
/w /setlinewidth ldef
/j /setlinejoin ldef
/cap /setlinecap ldef
/rc {rectclip} bdef
/rf {rectfill} bdef
% page state control
/pgsv () def
/bpage {/pgsv save def} bdef
/epage {pgsv restore} bdef
/bplot /gsave ldef
/eplot {stroke grestore} bdef
% orientation switch
/portraitMode 0 def /landscapeMode 1 def /rotateMode 2 def
% coordinate system mappings
/dpi2point 0 def
% font control
/FontSize 0 def
/FMS {/FontSize xstore findfont [FontSize 0 0 FontSize neg 0 0]
  makefont setfont} bdef
/reencode {exch dup where {pop load} {pop StandardEncoding} ifelse
  exch dup 3 1 roll findfont dup length dict begin
  { 1 index /FID ne {def}{pop pop} ifelse } forall
  /Encoding exch def currentdict end definefont pop} bdef
/isroman {findfont /CharStrings get /Agrave known} bdef
/FMSR {3 1 roll 1 index dup isroman {reencode} {pop pop} ifelse
  exch FMS} bdef
/csm {1 dpi2point div -1 dpi2point div scale neg translate
 dup landscapeMode eq {pop -90 rotate}
  {rotateMode eq {90 rotate} if} ifelse} bdef
% line types: solid, dotted, dashed, dotdash
/SO { [] 0 setdash } bdef
/DO { [.5 dpi2point mul 4 dpi2point mul] 0 setdash } bdef
/DA { [6 dpi2point mul] 0 setdash } bdef
/DD { [.5 dpi2point mul 4 dpi2point mul 6 dpi2point mul 4
  dpi2point mul] 0 setdash } bdef
% macros for lines and objects
/L {lineto stroke} bdef
/MP {3 1 roll moveto 1 sub {rlineto} repeat} bdef
/AP {{rlineto} repeat} bdef
/PDlw -1 def
/W {/PDlw currentlinewidth def setlinewidth} def
/PP {closepath eofill} bdef
/DP {closepath stroke} bdef
/MR {4 -2 roll moveto dup  0 exch rlineto exch 0 rlineto
  neg 0 exch rlineto closepath} bdef
/FR {MR stroke} bdef
/PR {MR fill} bdef
/L1i {{currentfile picstr readhexstring pop} image} bdef
/tMatrix matrix def
/MakeOval {newpath tMatrix currentmatrix pop translate scale
0 0 1 0 360 arc tMatrix setmatrix} bdef
/FO {MakeOval stroke} bdef
/PO {MakeOval fill} bdef
/PD {currentlinewidth 2 div 0 360 arc fill
   PDlw -1 eq not {PDlw w /PDlw -1 def} if} def
/FA {newpath tMatrix currentmatrix pop translate scale
  0 0 1 5 -2 roll arc tMatrix setmatrix stroke} bdef
/PA {newpath tMatrix currentmatrix pop	translate 0 0 moveto scale
  0 0 1 5 -2 roll arc closepath tMatrix setmatrix fill} bdef
/FAn {newpath tMatrix currentmatrix pop translate scale
  0 0 1 5 -2 roll arcn tMatrix setmatrix stroke} bdef
/PAn {newpath tMatrix currentmatrix pop translate 0 0 moveto scale
  0 0 1 5 -2 roll arcn closepath tMatrix setmatrix fill} bdef
/vradius 0 def /hradius 0 def /lry 0 def
/lrx 0 def /uly 0 def /ulx 0 def /rad 0 def
/MRR {/vradius xdef /hradius xdef /lry xdef /lrx xdef /uly xdef
  /ulx xdef newpath tMatrix currentmatrix pop ulx hradius add uly
  vradius add translate hradius vradius scale 0 0 1 180 270 arc 
  tMatrix setmatrix lrx hradius sub uly vradius add translate
  hradius vradius scale 0 0 1 270 360 arc tMatrix setmatrix
  lrx hradius sub lry vradius sub translate hradius vradius scale
  0 0 1 0 90 arc tMatrix setmatrix ulx hradius add lry vradius sub
  translate hradius vradius scale 0 0 1 90 180 arc tMatrix setmatrix
  closepath} bdef
/FRR {MRR stroke } bdef
/PRR {MRR fill } bdef
/MlrRR {/lry xdef /lrx xdef /uly xdef /ulx xdef /rad lry uly sub 2 div def
  newpath tMatrix currentmatrix pop ulx rad add uly rad add translate
  rad rad scale 0 0 1 90 270 arc tMatrix setmatrix lrx rad sub lry rad
  sub translate rad rad scale 0 0 1 270 90 arc tMatrix setmatrix
  closepath} bdef
/FlrRR {MlrRR stroke } bdef
/PlrRR {MlrRR fill } bdef
/MtbRR {/lry xdef /lrx xdef /uly xdef /ulx xdef /rad lrx ulx sub 2 div def
  newpath tMatrix currentmatrix pop ulx rad add uly rad add translate
  rad rad scale 0 0 1 180 360 arc tMatrix setmatrix lrx rad sub lry rad
  sub translate rad rad scale 0 0 1 0 180 arc tMatrix setmatrix
  closepath} bdef
/FtbRR {MtbRR stroke } bdef
/PtbRR {MtbRR fill } bdef
/stri 6 array def /dtri 6 array def
/smat 6 array def /dmat 6 array def
/tmat1 6 array def /tmat2 6 array def /dif 3 array def
/asub {/ind2 exch def /ind1 exch def dup dup
  ind1 get exch ind2 get sub exch } bdef
/tri_to_matrix {
  2 0 asub 3 1 asub 4 0 asub 5 1 asub
  dup 0 get exch 1 get 7 -1 roll astore } bdef
/compute_transform {
  dmat dtri tri_to_matrix tmat1 invertmatrix 
  smat stri tri_to_matrix tmat2 concatmatrix } bdef
/ds {stri astore pop} bdef
/dt {dtri astore pop} bdef
/db {2 copy /cols xdef /rows xdef mul dup 3 mul string
  currentfile 
  3 index 0 eq {/ASCIIHexDecode filter}
  {/ASCII85Decode filter 3 index 2 eq {/RunLengthDecode filter} if }
  ifelse exch readstring pop
  dup 0 3 index getinterval /rbmap xdef
  dup 2 index dup getinterval /gbmap xdef
  1 index dup 2 mul exch getinterval /bbmap xdef pop pop}bdef
/it {gs np dtri aload pop moveto lineto lineto cp c
  cols rows 8 compute_transform 
  rbmap gbmap bbmap true 3 colorimage gr}bdef
/il {newpath moveto lineto stroke}bdef
currentdict end def
%%EndProlog

%%BeginSetup
MathWorks begin

0 cap

end
%%EndSetup

%%Page: 1 1
%%BeginPageSetup
%%PageBoundingBox:    17   211   575   631
MathWorks begin
bpage
%%EndPageSetup

%%BeginObject: obj1
bplot

/dpi2point 12 def
portraitMode 0204 7572 csm

    0     0  6700  5034 rc
93 dict begin %Colortable dictionary
/c0 { 0.000000 0.000000 0.000000 sr} bdef
/c1 { 1.000000 1.000000 1.000000 sr} bdef
/c2 { 0.900000 0.000000 0.000000 sr} bdef
/c3 { 0.000000 0.820000 0.000000 sr} bdef
/c4 { 0.000000 0.000000 0.800000 sr} bdef
/c5 { 0.910000 0.820000 0.320000 sr} bdef
/c6 { 1.000000 0.260000 0.820000 sr} bdef
/c7 { 0.000000 0.820000 0.820000 sr} bdef
c0
1 j
1 sg
   0    0 6701 5035 rf
6 w
0 4102 5193 0 0 -4102 871 4480 4 MP
PP
-5193 0 0 4102 5193 0 0 -4102 871 4480 5 MP stroke
4 w
DO
0 sg
 871 4480 mt  871  378 L
 871  378 mt  871  378 L
1390 4480 mt 1390  378 L
1390  378 mt 1390  378 L
1909 4480 mt 1909  378 L
1909  378 mt 1909  378 L
2428 4480 mt 2428  378 L
2428  378 mt 2428  378 L
2948 4480 mt 2948  378 L
2948  378 mt 2948  378 L
3467 4480 mt 3467  378 L
3467  378 mt 3467  378 L
3986 4480 mt 3986  378 L
3986  378 mt 3986  378 L
4506 4480 mt 4506  378 L
4506  378 mt 4506  378 L
5025 4480 mt 5025  378 L
5025  378 mt 5025  378 L
5544 4480 mt 5544  378 L
5544  378 mt 5544  378 L
6064 4480 mt 6064  378 L
6064  378 mt 6064  378 L
 871 4480 mt 6064 4480 L
6064 4480 mt 6064 4480 L
 871 4069 mt 6064 4069 L
6064 4069 mt 6064 4069 L
 871 3659 mt 6064 3659 L
6064 3659 mt 6064 3659 L
 871 3249 mt 6064 3249 L
6064 3249 mt 6064 3249 L
 871 2839 mt 6064 2839 L
6064 2839 mt 6064 2839 L
 871 2429 mt 6064 2429 L
6064 2429 mt 6064 2429 L
 871 2018 mt 6064 2018 L
6064 2018 mt 6064 2018 L
 871 1608 mt 6064 1608 L
6064 1608 mt 6064 1608 L
 871 1198 mt 6064 1198 L
6064 1198 mt 6064 1198 L
 871  788 mt 6064  788 L
6064  788 mt 6064  788 L
 871  378 mt 6064  378 L
6064  378 mt 6064  378 L
SO
6 w
 871 4480 mt 6064 4480 L
 871 4480 mt  871  378 L
 871 4480 mt  871 4428 L
%%IncludeResource: font Helvetica
/Helvetica /ISOLatin1Encoding 120 FMSR

 838 4625 mt 
(0) s
1390 4480 mt 1390 4428 L
1307 4625 mt 
(0.1) s
1909 4480 mt 1909 4428 L
1826 4625 mt 
(0.2) s
2428 4480 mt 2428 4428 L
2345 4625 mt 
(0.3) s
2948 4480 mt 2948 4428 L
2865 4625 mt 
(0.4) s
3467 4480 mt 3467 4428 L
3384 4625 mt 
(0.5) s
3986 4480 mt 3986 4428 L
3903 4625 mt 
(0.6) s
4506 4480 mt 4506 4428 L
4423 4625 mt 
(0.7) s
5025 4480 mt 5025 4428 L
4942 4625 mt 
(0.8) s
5544 4480 mt 5544 4428 L
5461 4625 mt 
(0.9) s
6064 4480 mt 6064 4428 L
6031 4625 mt 
(1) s
 871 4480 mt  922 4480 L
 770 4524 mt 
(0) s
 871 4069 mt  922 4069 L
 670 4113 mt 
(0.1) s
 871 3659 mt  922 3659 L
 670 3703 mt 
(0.2) s
 871 3249 mt  922 3249 L
 670 3293 mt 
(0.3) s
 871 2839 mt  922 2839 L
 670 2883 mt 
(0.4) s
 871 2429 mt  922 2429 L
 670 2473 mt 
(0.5) s
 871 2018 mt  922 2018 L
 670 2062 mt 
(0.6) s
 871 1608 mt  922 1608 L
 670 1652 mt 
(0.7) s
 871 1198 mt  922 1198 L
 670 1242 mt 
(0.8) s
 871  788 mt  922  788 L
 670  832 mt 
(0.9) s
 871  378 mt  922  378 L
 770  422 mt 
(1) s
3179  283 mt 
(TVI- ID01/) s
gs 871 378 5194 4103 rc
24 w
/c8 { 0.189474 0.111340 0.900000 sr} bdef
c8
-155 65 -208 82 -156 80 -519 185 -519 250 -520 252 -779 464 -779 597 
-779 1039 -779 1088 6064 378 11 MP stroke
gr

24 w
c8
  60   60 6064  378 FO
  60   60 5285 1466 FO
  60   60 4506 2505 FO
  60   60 3727 3102 FO
  60   60 2948 3566 FO
  60   60 2428 3818 FO
  60   60 1909 4068 FO
  60   60 1390 4253 FO
  60   60 1234 4333 FO
  60   60 1026 4415 FO
  60   60  871 4480 FO
gs 871 378 5194 4103 rc
/c9 { 0.151579 0.089072 0.720000 sr} bdef
c9
-155 59 -208 62 -156 57 -519 144 -519 188 -520 194 -779 349 -779 453 
-779 795 -779 1801 6064 378 11 MP stroke
gr

c9
6022  336 mt 6106  420 L
6106  336 mt 6022  420 L
5243 2137 mt 5327 2221 L
5327 2137 mt 5243 2221 L
4464 2932 mt 4548 3016 L
4548 2932 mt 4464 3016 L
3685 3385 mt 3769 3469 L
3769 3385 mt 3685 3469 L
2906 3734 mt 2990 3818 L
2990 3734 mt 2906 3818 L
2386 3928 mt 2470 4012 L
2470 3928 mt 2386 4012 L
1867 4116 mt 1951 4200 L
1951 4116 mt 1867 4200 L
1348 4260 mt 1432 4344 L
1432 4260 mt 1348 4344 L
1192 4317 mt 1276 4401 L
1276 4317 mt 1192 4401 L
 984 4379 mt 1068 4463 L
1068 4379 mt  984 4463 L
 829 4438 mt  913 4522 L
 913 4438 mt  829 4522 L
gs 871 378 5194 4103 rc
/c10 { 0.189474 0.900000 0.111340 sr} bdef
c10
-155 77 -208 96 -156 58 -519 209 -519 245 -520 246 -779 502 -779 651 
-779 1081 -779 937 6064 378 11 MP stroke
gr

c10
  60   60 6064  378 FO
  60   60 5285 1315 FO
  60   60 4506 2396 FO
  60   60 3727 3047 FO
  60   60 2948 3549 FO
  60   60 2428 3795 FO
  60   60 1909 4040 FO
  60   60 1390 4249 FO
  60   60 1234 4307 FO
  60   60 1026 4403 FO
  60   60  871 4480 FO
gs 871 378 5194 4103 rc
/c11 { 0.151579 0.720000 0.089072 sr} bdef
c11
-155 48 -208 77 -156 42 -519 156 -519 189 -520 190 -779 347 -779 484 
-779 808 -779 1761 6064 378 11 MP stroke
gr

c11
6022  336 mt 6106  420 L
6106  336 mt 6022  420 L
5243 2097 mt 5327 2181 L
5327 2097 mt 5243 2181 L
4464 2905 mt 4548 2989 L
4548 2905 mt 4464 2989 L
3685 3389 mt 3769 3473 L
3769 3389 mt 3685 3473 L
2906 3736 mt 2990 3820 L
2990 3736 mt 2906 3820 L
2386 3926 mt 2470 4010 L
2470 3926 mt 2386 4010 L
1867 4115 mt 1951 4199 L
1951 4115 mt 1867 4199 L
1348 4271 mt 1432 4355 L
1432 4271 mt 1348 4355 L
1192 4313 mt 1276 4397 L
1276 4313 mt 1192 4397 L
 984 4390 mt 1068 4474 L
1068 4390 mt  984 4474 L
 829 4438 mt  913 4522 L
 913 4438 mt  829 4522 L
gs 871 378 5194 4103 rc
/c12 { 0.900000 0.111340 0.111340 sr} bdef
c12
-155 81 -208 72 -156 63 -519 187 -519 268 -520 224 -779 443 -779 662 
-779 951 -779 1151 6064 378 11 MP stroke
gr

c12
  60   60 6064  378 FO
  60   60 5285 1529 FO
  60   60 4506 2480 FO
  60   60 3727 3142 FO
  60   60 2948 3585 FO
  60   60 2428 3809 FO
  60   60 1909 4077 FO
  60   60 1390 4264 FO
  60   60 1234 4327 FO
  60   60 1026 4399 FO
  60   60  871 4480 FO
gs 871 378 5194 4103 rc
/c13 { 0.720000 0.089072 0.089072 sr} bdef
c13
-155 37 -208 83 -156 51 -519 134 -519 217 -520 175 -779 322 -779 463 
-779 753 -779 1867 6064 378 11 MP stroke
gr

c13
6022  336 mt 6106  420 L
6106  336 mt 6022  420 L
5243 2203 mt 5327 2287 L
5327 2203 mt 5243 2287 L
4464 2956 mt 4548 3040 L
4548 2956 mt 4464 3040 L
3685 3419 mt 3769 3503 L
3769 3419 mt 3685 3503 L
2906 3741 mt 2990 3825 L
2990 3741 mt 2906 3825 L
2386 3916 mt 2470 4000 L
2470 3916 mt 2386 4000 L
1867 4133 mt 1951 4217 L
1951 4133 mt 1867 4217 L
1348 4267 mt 1432 4351 L
1432 4267 mt 1348 4351 L
1192 4318 mt 1276 4402 L
1276 4318 mt 1192 4402 L
 984 4401 mt 1068 4485 L
1068 4401 mt  984 4485 L
 829 4438 mt  913 4522 L
 913 4438 mt  829 4522 L
gs 871 378 5194 4103 rc
/c14 { 0.189474 0.111340 0.111340 sr} bdef
c14
-155 71 -208 101 -156 62 -519 212 -519 263 -520 265 -779 499 -779 719 
-779 1051 -779 859 6064 378 11 MP stroke
gr

c14
  60   60 6064  378 FO
  60   60 5285 1237 FO
  60   60 4506 2288 FO
  60   60 3727 3007 FO
  60   60 2948 3506 FO
  60   60 2428 3771 FO
  60   60 1909 4034 FO
  60   60 1390 4246 FO
  60   60 1234 4308 FO
  60   60 1026 4409 FO
  60   60  871 4480 FO
gs 871 378 5194 4103 rc
/c15 { 0.151579 0.089072 0.089072 sr} bdef
c15
-155 57 -208 71 -156 49 -519 163 -519 186 -520 195 -779 355 -779 505 
-779 806 -779 1715 6064 378 11 MP stroke
gr

c15
6022  336 mt 6106  420 L
6106  336 mt 6022  420 L
5243 2051 mt 5327 2135 L
5327 2051 mt 5243 2135 L
4464 2857 mt 4548 2941 L
4548 2857 mt 4464 2941 L
3685 3362 mt 3769 3446 L
3769 3362 mt 3685 3446 L
2906 3717 mt 2990 3801 L
2990 3717 mt 2906 3801 L
2386 3912 mt 2470 3996 L
2470 3912 mt 2386 3996 L
1867 4098 mt 1951 4182 L
1951 4098 mt 1867 4182 L
1348 4261 mt 1432 4345 L
1432 4261 mt 1348 4345 L
1192 4310 mt 1276 4394 L
1276 4310 mt 1192 4394 L
 984 4381 mt 1068 4465 L
1068 4381 mt  984 4465 L
 829 4438 mt  913 4522 L
 913 4438 mt  829 4522 L
gs 871 378 5194 4103 rc
gr

0 sg
 818 4559 mt 
( ) s
6012  456 mt 
( ) s
6 w
1 sg
0 1431 1092 0 0 -1431 2272 2119 4 MP
PP
-1092 0 0 1431 1092 0 0 -1431 2272 2119 5 MP stroke
4 w
DO
SO
6 w
0 sg
2272 2119 mt 3364 2119 L
2272  688 mt 3364  688 L
2272 2119 mt 2272  688 L
3364 2119 mt 3364  688 L
2272 2119 mt 3364 2119 L
2272 2119 mt 2272  688 L
2272 2119 mt 3364 2119 L
2272  688 mt 3364  688 L
2272 2119 mt 2272  688 L
3364 2119 mt 3364  688 L
2741  838 mt 
(CM Refl) s
gs 2272 688 1093 1432 rc
24 w
c8
360 0 2344 795 2 MP stroke
gr

24 w
c8
gs 2378 649 293 293 rc
  60   60 2524  795 FO
gr

gs 2272 688 1093 1432 rc
gr

0 sg
2741 1012 mt 
(CM Tran) s
gs 2272 688 1093 1432 rc
c9
360 0 2344 969 2 MP stroke
gs 2378 823 293 293 rc
2482  927 mt 2566 1011 L
2566  927 mt 2482 1011 L
gr

gr

c9
0 sg
2741 1185 mt 
(CY Refl) s
gs 2272 688 1093 1432 rc
c10
360 0 2344 1143 2 MP stroke
gs 2378 997 293 293 rc
  60   60 2524 1143 FO
gr

gr

c10
0 sg
2741 1359 mt 
(CY Tran) s
gs 2272 688 1093 1432 rc
c11
360 0 2344 1316 2 MP stroke
gs 2378 1170 293 293 rc
2482 1274 mt 2566 1358 L
2566 1274 mt 2482 1358 L
gr

gr

c11
0 sg
2741 1533 mt 
(MY Refl) s
gs 2272 688 1093 1432 rc
c12
360 0 2344 1490 2 MP stroke
gs 2378 1344 293 293 rc
  60   60 2524 1490 FO
gr

gr

c12
0 sg
2741 1707 mt 
(MY Tran) s
gs 2272 688 1093 1432 rc
c13
360 0 2344 1663 2 MP stroke
gs 2378 1517 293 293 rc
2482 1621 mt 2566 1705 L
2566 1621 mt 2482 1705 L
gr

gr

c13
0 sg
2741 1880 mt 
(CMY Refl) s
gs 2272 688 1093 1432 rc
c14
360 0 2344 1837 2 MP stroke
gs 2378 1691 293 293 rc
  60   60 2524 1837 FO
gr

gr

c14
0 sg
2741 2054 mt 
(CMY Tran) s
gs 2272 688 1093 1432 rc
c15
360 0 2344 2011 2 MP stroke
gr

c15
gs 2378 1865 293 293 rc
2482 1969 mt 2566 2053 L
2566 1969 mt 2482 2053 L
gr

gs 2272 688 1093 1432 rc
6 w
gr

6 w

end %%Color Dict

eplot
%%EndObject

epage
end

showpage

%%Trailer
%%EOF
