%!PS-Adobe-3.0 EPSF-3.0
%%Creator: MATLAB, The MathWorks, Inc. Version 8.0.0.783 (R2012b). Operating System: Darwin 14.5.0 Darwin Kernel Version 14.5.0: Mon Aug 29 21:14:16 PDT 2016; root:xnu-2782.50.6~1/RELEASE_X86_64 x86_64.
%%Title: /Users/pgh/Documents/MATLAB/rectoverso/data/ID01/graphics/TVI9-12PSM=0;ISM=0.01;PWS=Chart;AMM=1;ESC=0;WBW=0.25.eps
%%CreationDate: 10/03/2016  11:00:18
%%DocumentNeededFonts: Helvetica
%%DocumentProcessColors: Cyan Magenta Yellow Black
%%LanguageLevel: 2
%%Pages: 1
%%BoundingBox:    17   211   575   631
%%EndComments

%%BeginProlog
% MathWorks dictionary
/MathWorks 160 dict begin
% definition operators
/bdef {bind def} bind def
/ldef {load def} bind def
/xdef {exch def} bdef
/xstore {exch store} bdef
% operator abbreviations
/c  /clip ldef
/cc /concat ldef
/cp /closepath ldef
/gr /grestore ldef
/gs /gsave ldef
/mt /moveto ldef
/np /newpath ldef
/cm /currentmatrix ldef
/sm /setmatrix ldef
/rm /rmoveto ldef
/rl /rlineto ldef
/s {show newpath} bdef
/sc {setcmykcolor} bdef
/sr /setrgbcolor ldef
/sg /setgray ldef
/w /setlinewidth ldef
/j /setlinejoin ldef
/cap /setlinecap ldef
/rc {rectclip} bdef
/rf {rectfill} bdef
% page state control
/pgsv () def
/bpage {/pgsv save def} bdef
/epage {pgsv restore} bdef
/bplot /gsave ldef
/eplot {stroke grestore} bdef
% orientation switch
/portraitMode 0 def /landscapeMode 1 def /rotateMode 2 def
% coordinate system mappings
/dpi2point 0 def
% font control
/FontSize 0 def
/FMS {/FontSize xstore findfont [FontSize 0 0 FontSize neg 0 0]
  makefont setfont} bdef
/reencode {exch dup where {pop load} {pop StandardEncoding} ifelse
  exch dup 3 1 roll findfont dup length dict begin
  { 1 index /FID ne {def}{pop pop} ifelse } forall
  /Encoding exch def currentdict end definefont pop} bdef
/isroman {findfont /CharStrings get /Agrave known} bdef
/FMSR {3 1 roll 1 index dup isroman {reencode} {pop pop} ifelse
  exch FMS} bdef
/csm {1 dpi2point div -1 dpi2point div scale neg translate
 dup landscapeMode eq {pop -90 rotate}
  {rotateMode eq {90 rotate} if} ifelse} bdef
% line types: solid, dotted, dashed, dotdash
/SO { [] 0 setdash } bdef
/DO { [.5 dpi2point mul 4 dpi2point mul] 0 setdash } bdef
/DA { [6 dpi2point mul] 0 setdash } bdef
/DD { [.5 dpi2point mul 4 dpi2point mul 6 dpi2point mul 4
  dpi2point mul] 0 setdash } bdef
% macros for lines and objects
/L {lineto stroke} bdef
/MP {3 1 roll moveto 1 sub {rlineto} repeat} bdef
/AP {{rlineto} repeat} bdef
/PDlw -1 def
/W {/PDlw currentlinewidth def setlinewidth} def
/PP {closepath eofill} bdef
/DP {closepath stroke} bdef
/MR {4 -2 roll moveto dup  0 exch rlineto exch 0 rlineto
  neg 0 exch rlineto closepath} bdef
/FR {MR stroke} bdef
/PR {MR fill} bdef
/L1i {{currentfile picstr readhexstring pop} image} bdef
/tMatrix matrix def
/MakeOval {newpath tMatrix currentmatrix pop translate scale
0 0 1 0 360 arc tMatrix setmatrix} bdef
/FO {MakeOval stroke} bdef
/PO {MakeOval fill} bdef
/PD {currentlinewidth 2 div 0 360 arc fill
   PDlw -1 eq not {PDlw w /PDlw -1 def} if} def
/FA {newpath tMatrix currentmatrix pop translate scale
  0 0 1 5 -2 roll arc tMatrix setmatrix stroke} bdef
/PA {newpath tMatrix currentmatrix pop	translate 0 0 moveto scale
  0 0 1 5 -2 roll arc closepath tMatrix setmatrix fill} bdef
/FAn {newpath tMatrix currentmatrix pop translate scale
  0 0 1 5 -2 roll arcn tMatrix setmatrix stroke} bdef
/PAn {newpath tMatrix currentmatrix pop translate 0 0 moveto scale
  0 0 1 5 -2 roll arcn closepath tMatrix setmatrix fill} bdef
/vradius 0 def /hradius 0 def /lry 0 def
/lrx 0 def /uly 0 def /ulx 0 def /rad 0 def
/MRR {/vradius xdef /hradius xdef /lry xdef /lrx xdef /uly xdef
  /ulx xdef newpath tMatrix currentmatrix pop ulx hradius add uly
  vradius add translate hradius vradius scale 0 0 1 180 270 arc 
  tMatrix setmatrix lrx hradius sub uly vradius add translate
  hradius vradius scale 0 0 1 270 360 arc tMatrix setmatrix
  lrx hradius sub lry vradius sub translate hradius vradius scale
  0 0 1 0 90 arc tMatrix setmatrix ulx hradius add lry vradius sub
  translate hradius vradius scale 0 0 1 90 180 arc tMatrix setmatrix
  closepath} bdef
/FRR {MRR stroke } bdef
/PRR {MRR fill } bdef
/MlrRR {/lry xdef /lrx xdef /uly xdef /ulx xdef /rad lry uly sub 2 div def
  newpath tMatrix currentmatrix pop ulx rad add uly rad add translate
  rad rad scale 0 0 1 90 270 arc tMatrix setmatrix lrx rad sub lry rad
  sub translate rad rad scale 0 0 1 270 90 arc tMatrix setmatrix
  closepath} bdef
/FlrRR {MlrRR stroke } bdef
/PlrRR {MlrRR fill } bdef
/MtbRR {/lry xdef /lrx xdef /uly xdef /ulx xdef /rad lrx ulx sub 2 div def
  newpath tMatrix currentmatrix pop ulx rad add uly rad add translate
  rad rad scale 0 0 1 180 360 arc tMatrix setmatrix lrx rad sub lry rad
  sub translate rad rad scale 0 0 1 0 180 arc tMatrix setmatrix
  closepath} bdef
/FtbRR {MtbRR stroke } bdef
/PtbRR {MtbRR fill } bdef
/stri 6 array def /dtri 6 array def
/smat 6 array def /dmat 6 array def
/tmat1 6 array def /tmat2 6 array def /dif 3 array def
/asub {/ind2 exch def /ind1 exch def dup dup
  ind1 get exch ind2 get sub exch } bdef
/tri_to_matrix {
  2 0 asub 3 1 asub 4 0 asub 5 1 asub
  dup 0 get exch 1 get 7 -1 roll astore } bdef
/compute_transform {
  dmat dtri tri_to_matrix tmat1 invertmatrix 
  smat stri tri_to_matrix tmat2 concatmatrix } bdef
/ds {stri astore pop} bdef
/dt {dtri astore pop} bdef
/db {2 copy /cols xdef /rows xdef mul dup 3 mul string
  currentfile 
  3 index 0 eq {/ASCIIHexDecode filter}
  {/ASCII85Decode filter 3 index 2 eq {/RunLengthDecode filter} if }
  ifelse exch readstring pop
  dup 0 3 index getinterval /rbmap xdef
  dup 2 index dup getinterval /gbmap xdef
  1 index dup 2 mul exch getinterval /bbmap xdef pop pop}bdef
/it {gs np dtri aload pop moveto lineto lineto cp c
  cols rows 8 compute_transform 
  rbmap gbmap bbmap true 3 colorimage gr}bdef
/il {newpath moveto lineto stroke}bdef
currentdict end def
%%EndProlog

%%BeginSetup
MathWorks begin

0 cap

end
%%EndSetup

%%Page: 1 1
%%BeginPageSetup
%%PageBoundingBox:    17   211   575   631
MathWorks begin
bpage
%%EndPageSetup

%%BeginObject: obj1
bplot

/dpi2point 12 def
portraitMode 0204 7572 csm

    0     0  6700  5034 rc
93 dict begin %Colortable dictionary
/c0 { 0.000000 0.000000 0.000000 sr} bdef
/c1 { 1.000000 1.000000 1.000000 sr} bdef
/c2 { 0.900000 0.000000 0.000000 sr} bdef
/c3 { 0.000000 0.820000 0.000000 sr} bdef
/c4 { 0.000000 0.000000 0.800000 sr} bdef
/c5 { 0.910000 0.820000 0.320000 sr} bdef
/c6 { 1.000000 0.260000 0.820000 sr} bdef
/c7 { 0.000000 0.820000 0.820000 sr} bdef
c0
1 j
1 sg
   0    0 6701 5035 rf
6 w
0 4102 5193 0 0 -4102 871 4480 4 MP
PP
-5193 0 0 4102 5193 0 0 -4102 871 4480 5 MP stroke
4 w
DO
0 sg
 871 4480 mt  871  378 L
 871  378 mt  871  378 L
1390 4480 mt 1390  378 L
1390  378 mt 1390  378 L
1909 4480 mt 1909  378 L
1909  378 mt 1909  378 L
2428 4480 mt 2428  378 L
2428  378 mt 2428  378 L
2948 4480 mt 2948  378 L
2948  378 mt 2948  378 L
3467 4480 mt 3467  378 L
3467  378 mt 3467  378 L
3986 4480 mt 3986  378 L
3986  378 mt 3986  378 L
4506 4480 mt 4506  378 L
4506  378 mt 4506  378 L
5025 4480 mt 5025  378 L
5025  378 mt 5025  378 L
5544 4480 mt 5544  378 L
5544  378 mt 5544  378 L
6064 4480 mt 6064  378 L
6064  378 mt 6064  378 L
 871 4480 mt 6064 4480 L
6064 4480 mt 6064 4480 L
 871 4069 mt 6064 4069 L
6064 4069 mt 6064 4069 L
 871 3659 mt 6064 3659 L
6064 3659 mt 6064 3659 L
 871 3249 mt 6064 3249 L
6064 3249 mt 6064 3249 L
 871 2839 mt 6064 2839 L
6064 2839 mt 6064 2839 L
 871 2429 mt 6064 2429 L
6064 2429 mt 6064 2429 L
 871 2018 mt 6064 2018 L
6064 2018 mt 6064 2018 L
 871 1608 mt 6064 1608 L
6064 1608 mt 6064 1608 L
 871 1198 mt 6064 1198 L
6064 1198 mt 6064 1198 L
 871  788 mt 6064  788 L
6064  788 mt 6064  788 L
 871  378 mt 6064  378 L
6064  378 mt 6064  378 L
SO
6 w
 871 4480 mt 6064 4480 L
 871 4480 mt  871  378 L
 871 4480 mt  871 4428 L
%%IncludeResource: font Helvetica
/Helvetica /ISOLatin1Encoding 120 FMSR

 838 4625 mt 
(0) s
1390 4480 mt 1390 4428 L
1307 4625 mt 
(0.1) s
1909 4480 mt 1909 4428 L
1826 4625 mt 
(0.2) s
2428 4480 mt 2428 4428 L
2345 4625 mt 
(0.3) s
2948 4480 mt 2948 4428 L
2865 4625 mt 
(0.4) s
3467 4480 mt 3467 4428 L
3384 4625 mt 
(0.5) s
3986 4480 mt 3986 4428 L
3903 4625 mt 
(0.6) s
4506 4480 mt 4506 4428 L
4423 4625 mt 
(0.7) s
5025 4480 mt 5025 4428 L
4942 4625 mt 
(0.8) s
5544 4480 mt 5544 4428 L
5461 4625 mt 
(0.9) s
6064 4480 mt 6064 4428 L
6031 4625 mt 
(1) s
 871 4480 mt  922 4480 L
 770 4524 mt 
(0) s
 871 4069 mt  922 4069 L
 670 4113 mt 
(0.1) s
 871 3659 mt  922 3659 L
 670 3703 mt 
(0.2) s
 871 3249 mt  922 3249 L
 670 3293 mt 
(0.3) s
 871 2839 mt  922 2839 L
 670 2883 mt 
(0.4) s
 871 2429 mt  922 2429 L
 670 2473 mt 
(0.5) s
 871 2018 mt  922 2018 L
 670 2062 mt 
(0.6) s
 871 1608 mt  922 1608 L
 670 1652 mt 
(0.7) s
 871 1198 mt  922 1198 L
 670 1242 mt 
(0.8) s
 871  788 mt  922  788 L
 670  832 mt 
(0.9) s
 871  378 mt  922  378 L
 770  422 mt 
(1) s
3179  283 mt 
(TVI- ID01/) s
gs 871 378 5194 4103 rc
24 w
/c8 { 0.142105 0.157732 0.157732 sr} bdef
c8
-103 49 -52 27 -104 41 -104 51 -156 63 -259 103 -260 115 -260 127 
-259 128 -520 252 -519 313 -519 298 -520 399 -259 183 -260 272 -260 291 
-259 260 -260 430 -156 401 -104 299 6064 378 21 MP stroke
gr

24 w
c8
  60   60 6064  378 FO
  60   60 5960  677 FO
  60   60 5804 1078 FO
  60   60 5544 1508 FO
  60   60 5285 1768 FO
  60   60 5025 2059 FO
  60   60 4765 2331 FO
  60   60 4506 2514 FO
  60   60 3986 2913 FO
  60   60 3467 3211 FO
  60   60 2948 3524 FO
  60   60 2428 3776 FO
  60   60 2169 3904 FO
  60   60 1909 4031 FO
  60   60 1649 4146 FO
  60   60 1390 4249 FO
  60   60 1234 4312 FO
  60   60 1130 4363 FO
  60   60 1026 4404 FO
  60   60  974 4431 FO
  60   60  871 4480 FO
gs 871 378 5194 4103 rc
/c9 { 0.113684 0.126186 0.126186 sr} bdef
c9
-103 48 -52 18 -104 39 -104 34 -156 56 -259 97 -260 86 -260 108 
-259 126 -520 191 -519 241 -519 244 -520 325 -259 190 -260 212 -260 253 
-259 251 -260 472 -156 708 -104 403 6064 378 21 MP stroke
gr

c9
6022  336 mt 6106  420 L
6106  336 mt 6022  420 L
5918  739 mt 6002  823 L
6002  739 mt 5918  823 L
5762 1447 mt 5846 1531 L
5846 1447 mt 5762 1531 L
5502 1919 mt 5586 2003 L
5586 1919 mt 5502 2003 L
5243 2170 mt 5327 2254 L
5327 2170 mt 5243 2254 L
4983 2423 mt 5067 2507 L
5067 2423 mt 4983 2507 L
4723 2635 mt 4807 2719 L
4807 2635 mt 4723 2719 L
4464 2825 mt 4548 2909 L
4548 2825 mt 4464 2909 L
3944 3150 mt 4028 3234 L
4028 3150 mt 3944 3234 L
3425 3394 mt 3509 3478 L
3509 3394 mt 3425 3478 L
2906 3635 mt 2990 3719 L
2990 3635 mt 2906 3719 L
2386 3826 mt 2470 3910 L
2470 3826 mt 2386 3910 L
2127 3952 mt 2211 4036 L
2211 3952 mt 2127 4036 L
1867 4060 mt 1951 4144 L
1951 4060 mt 1867 4144 L
1607 4146 mt 1691 4230 L
1691 4146 mt 1607 4230 L
1348 4243 mt 1432 4327 L
1432 4243 mt 1348 4327 L
1192 4299 mt 1276 4383 L
1276 4299 mt 1192 4383 L
1088 4333 mt 1172 4417 L
1172 4333 mt 1088 4417 L
 984 4372 mt 1068 4456 L
1068 4372 mt  984 4456 L
 932 4390 mt 1016 4474 L
1016 4390 mt  932 4474 L
 829 4438 mt  913 4522 L
 913 4438 mt  829 4522 L
gs 871 378 5194 4103 rc
/c10 { 0.000000 0.500000 0.500000 sr} bdef
c10
-155 98 -208 86 -156 79 -519 210 -1039 554 -3116 3075 6064 378 7 MP stroke
gr

c10
  60   60 6064  378 FO
  60   60 2948 3453 FO
  60   60 1909 4007 FO
  60   60 1390 4217 FO
  60   60 1234 4296 FO
  60   60 1026 4382 FO
  60   60  871 4480 FO
gs 871 378 5194 4103 rc
/c11 { 0.000000 0.400000 0.400000 sr} bdef
c11
-155 72 -208 66 -156 55 -519 154 -1039 364 -3116 3391 6064 378 7 MP stroke
gr

c11
6022  336 mt 6106  420 L
6106  336 mt 6022  420 L
2906 3727 mt 2990 3811 L
2990 3727 mt 2906 3811 L
1867 4091 mt 1951 4175 L
1951 4091 mt 1867 4175 L
1348 4245 mt 1432 4329 L
1432 4245 mt 1348 4329 L
1192 4300 mt 1276 4384 L
1276 4300 mt 1192 4384 L
 984 4366 mt 1068 4450 L
1068 4366 mt  984 4450 L
 829 4438 mt  913 4522 L
 913 4438 mt  829 4522 L
gs 871 378 5194 4103 rc
/c12 { 0.450464 0.000000 0.500000 sr} bdef
c12
-155 67 -208 93 -156 67 -519 208 -1039 506 -3116 3161 6064 378 7 MP stroke
gr

c12
  60   60 6064  378 FO
  60   60 2948 3539 FO
  60   60 1909 4045 FO
  60   60 1390 4253 FO
  60   60 1234 4320 FO
  60   60 1026 4413 FO
  60   60  871 4480 FO
gs 871 378 5194 4103 rc
/c13 { 0.360372 0.000000 0.400000 sr} bdef
c13
-155 60 -208 93 -156 53 -519 182 -1039 436 -3116 3278 6064 378 7 MP stroke
gr

c13
6022  336 mt 6106  420 L
6106  336 mt 6022  420 L
2906 3614 mt 2990 3698 L
2990 3614 mt 2906 3698 L
1867 4050 mt 1951 4134 L
1951 4050 mt 1867 4134 L
1348 4232 mt 1432 4316 L
1432 4232 mt 1348 4316 L
1192 4285 mt 1276 4369 L
1276 4285 mt 1192 4369 L
 984 4378 mt 1068 4462 L
1068 4378 mt  984 4462 L
 829 4438 mt  913 4522 L
 913 4438 mt  829 4522 L
gs 871 378 5194 4103 rc
/c14 { 0.450464 0.500000 0.000000 sr} bdef
c14
-155 84 -208 81 -156 96 -519 213 -1039 503 -3116 3125 6064 378 7 MP stroke
gr

c14
  60   60 6064  378 FO
  60   60 2948 3503 FO
  60   60 1909 4006 FO
  60   60 1390 4219 FO
  60   60 1234 4315 FO
  60   60 1026 4396 FO
  60   60  871 4480 FO
gs 871 378 5194 4103 rc
/c15 { 0.360372 0.400000 0.000000 sr} bdef
c15
-155 68 -208 60 -156 76 -519 178 -1039 416 -3116 3304 6064 378 7 MP stroke
gr

c15
6022  336 mt 6106  420 L
6106  336 mt 6022  420 L
2906 3640 mt 2990 3724 L
2990 3640 mt 2906 3724 L
1867 4056 mt 1951 4140 L
1951 4056 mt 1867 4140 L
1348 4234 mt 1432 4318 L
1432 4234 mt 1348 4318 L
1192 4310 mt 1276 4394 L
1276 4310 mt 1192 4394 L
 984 4370 mt 1068 4454 L
1068 4370 mt  984 4454 L
 829 4438 mt  913 4522 L
 913 4438 mt  829 4522 L
gs 871 378 5194 4103 rc
gr

0 sg
 818 4559 mt 
( ) s
6012  456 mt 
( ) s
6 w
1 sg
0 1431 1008 0 0 -1431 2314 2119 4 MP
PP
-1008 0 0 1431 1008 0 0 -1431 2314 2119 5 MP stroke
4 w
DO
SO
6 w
0 sg
2314 2119 mt 3322 2119 L
2314  688 mt 3322  688 L
2314 2119 mt 2314  688 L
3322 2119 mt 3322  688 L
2314 2119 mt 3322 2119 L
2314 2119 mt 2314  688 L
2314 2119 mt 3322 2119 L
2314  688 mt 3322  688 L
2314 2119 mt 2314  688 L
3322 2119 mt 3322  688 L
2783  838 mt 
(K Refl) s
gs 2314 688 1009 1432 rc
24 w
c8
360 0 2386 795 2 MP stroke
gr

24 w
c8
gs 2420 649 293 293 rc
  60   60 2566  795 FO
gr

gs 2314 688 1009 1432 rc
gr

0 sg
2783 1012 mt 
(K Tran) s
gs 2314 688 1009 1432 rc
c9
360 0 2386 969 2 MP stroke
gs 2420 823 293 293 rc
2524  927 mt 2608 1011 L
2608  927 mt 2524 1011 L
gr

gr

c9
0 sg
2783 1185 mt 
(CK Refl) s
gs 2314 688 1009 1432 rc
c10
360 0 2386 1143 2 MP stroke
gs 2420 997 293 293 rc
  60   60 2566 1143 FO
gr

gr

c10
0 sg
2783 1359 mt 
(CK Tran) s
gs 2314 688 1009 1432 rc
c11
360 0 2386 1316 2 MP stroke
gs 2420 1170 293 293 rc
2524 1274 mt 2608 1358 L
2608 1274 mt 2524 1358 L
gr

gr

c11
0 sg
2783 1533 mt 
(MK Refl) s
gs 2314 688 1009 1432 rc
c12
360 0 2386 1490 2 MP stroke
gs 2420 1344 293 293 rc
  60   60 2566 1490 FO
gr

gr

c12
0 sg
2783 1707 mt 
(MK Tran) s
gs 2314 688 1009 1432 rc
c13
360 0 2386 1663 2 MP stroke
gs 2420 1517 293 293 rc
2524 1621 mt 2608 1705 L
2608 1621 mt 2524 1705 L
gr

gr

c13
0 sg
2783 1880 mt 
(YK Refl) s
gs 2314 688 1009 1432 rc
c14
360 0 2386 1837 2 MP stroke
gs 2420 1691 293 293 rc
  60   60 2566 1837 FO
gr

gr

c14
0 sg
2783 2054 mt 
(YK Tran) s
gs 2314 688 1009 1432 rc
c15
360 0 2386 2011 2 MP stroke
gr

c15
gs 2420 1865 293 293 rc
2524 1969 mt 2608 2053 L
2608 1969 mt 2524 2053 L
gr

gs 2314 688 1009 1432 rc
6 w
gr

6 w

end %%Color Dict

eplot
%%EndObject

epage
end

showpage

%%Trailer
%%EOF
